what,kind,bundleId,bundleVersion,description,time
activated,workbench,org.eclipse.ui.workbench,3.7.1.v20120104-1859,"",1549518727702
activated,view,org.eclipse.ui.console,3.5.100.v20111007_r372,"org.eclipse.ui.console.ConsoleView",1549518729171
activated,view,org.eclipse.ui.ide,3.7.0.v20110928-1505,"org.eclipse.ui.views.ResourceNavigator",1549518730264
activated,view,org.eclipse.ui.console,3.5.100.v20111007_r372,"org.eclipse.ui.console.ConsoleView",1549518732375
deactivated,workbench,org.eclipse.ui.workbench,3.7.1.v20120104-1859,"",1549518734318
activated,workbench,org.eclipse.ui.workbench,3.7.1.v20120104-1859,"",1549518773350
deactivated,workbench,org.eclipse.ui.workbench,3.7.1.v20120104-1859,"",1549518777411
activated,workbench,org.eclipse.ui.workbench,3.7.1.v20120104-1859,"",1549518848443
activated,view,org.eclipse.ui.ide,3.7.0.v20110928-1505,"org.eclipse.ui.views.ResourceNavigator",1549518850278
deactivated,workbench,org.eclipse.ui.workbench,3.7.1.v20120104-1859,"",1549518851911
activated,workbench,org.eclipse.ui.workbench,3.7.1.v20120104-1859,"",1549518860242
started,bundle,org.eclipse.wst.sse.ui,1.3.2.v201201041522,"org.eclipse.wst.sse.ui",1549518860353
started,bundle,org.eclipse.wst.xml.ui,1.1.202.v201112071516,"org.eclipse.wst.xml.ui",1549518860496
started,bundle,org.eclipse.wst.html.ui,1.0.602.v201202091936,"org.eclipse.wst.html.ui",1549518860497
started,bundle,org.eclipse.jst.jsp.ui,1.1.602.v201112071516,"org.eclipse.jst.jsp.ui",1549518860498
started,bundle,org.eclipse.jst.jsp.core,1.2.402.v201112071853,"org.eclipse.jst.jsp.core",1549518860989
started,bundle,org.eclipse.wst.html.core,1.1.502.v201202091936,"org.eclipse.wst.html.core",1549518861104
started,bundle,org.eclipse.jst.jee,1.0.402.v201202021530,"org.eclipse.jst.jee",1549518861204
started,bundle,org.eclipse.wst.common.uriresolver,1.1.401.v201004280700,"org.eclipse.wst.common.uriresolver",1549518863386
started,bundle,org.eclipse.wst.css.core,1.1.501.v201111292150,"org.eclipse.wst.css.core",1549518863577
started,bundle,org.springframework.ide.eclipse.beans.ui.editor,2.3.0.200912170948-RELEASE,"org.springframework.ide.eclipse.beans.ui.editor",1549518863787
started,bundle,org.springframework.ide.eclipse.webflow.ui.editor,2.3.0.200912170948-RELEASE,"org.springframework.ide.eclipse.webflow.ui.editor",1549518863789
started,bundle,org.eclipse.wst.jsdt.web.support.jsp,1.0.400.v201102241833,"org.eclipse.wst.jsdt.web.support.jsp",1549518863884
started,bundle,org.eclipse.wst.jsdt.web.ui,1.0.401.v201108152113,"org.eclipse.wst.jsdt.web.ui",1549518863971
started,bundle,org.eclipse.wst.xsl.core,1.1.100.v201102270516,"org.eclipse.wst.xsl.core",1549518864131
started,bundle,org.eclipse.wst.xsl.exslt.core,1.0.0.v201005240426,"org.eclipse.wst.xsl.exslt.core",1549518864135
started,bundle,org.eclipse.wst.css.ui,1.0.601.v201201101544,"org.eclipse.wst.css.ui",1549518864183
started,bundle,org.eclipse.wst.dtd.core,1.1.501.v201107252021,"org.eclipse.wst.dtd.core",1549518864202
started,bundle,org.eclipse.wst.internet.cache,1.0.400.v201004280700,"org.eclipse.wst.internet.cache",1549518864531
started,bundle,org.eclipse.wst.jsdt.core,1.1.102.v201111090634,"org.eclipse.wst.jsdt.core",1549518864774
started,bundle,org.eclipse.wst.jsdt.manipulation,1.0.300.v201104272153,"org.eclipse.wst.jsdt.manipulation",1549518864885
started,bundle,org.eclipse.wst.jsdt.ui,1.1.102.v201201131900,"org.eclipse.wst.jsdt.ui",1549518864893
started,bundle,org.eclipse.wst.dtd.ui,1.0.600.v201103171359,"org.eclipse.wst.dtd.ui",1549518864971
started,bundle,org.eclipse.wst.jsdt.web.core,1.0.401.v201108152113,"org.eclipse.wst.jsdt.web.core",1549518865072
opened,editor,org.eclipse.jst.jsp.ui,1.1.602.v201112071516,"org.eclipse.jst.jsp.core.jspsource.source",1549518865332
started,bundle,org.eclipse.wst.jsdt.debug.ui,1.0.101.v201201112313,"org.eclipse.wst.jsdt.debug.ui",1549518865866
activated,editor,org.eclipse.jst.jsp.ui,1.1.602.v201112071516,"org.eclipse.jst.jsp.core.jspsource.source",1549518865885
started,bundle,org.eclipse.wst.jsdt.debug.core,2.0.101.v201201112313,"org.eclipse.wst.jsdt.debug.core",1549518865886
opened,editor,org.eclipse.jst.jsp.ui,1.1.602.v201112071516,"org.eclipse.jst.jsp.core.jspsource.source",1549518866101
activated,editor,org.eclipse.jst.jsp.ui,1.1.602.v201112071516,"org.eclipse.jst.jsp.core.jspsource.source",1549518866136
executed,command,org.eclipse.ui.ide,3.7.0.v20110928-1505,"org.eclipse.ui.navigate.openResource",1549518866136
started,bundle,org.eclipse.jem.workbench,2.0.400.v201104251400,"org.eclipse.jem.workbench",1549518866511
deactivated,workbench,org.eclipse.ui.workbench,3.7.1.v20120104-1859,"",1549518893736
activated,workbench,org.eclipse.ui.workbench,3.7.1.v20120104-1859,"",1549518900192
activated,view,org.eclipse.ui.console,3.5.100.v20111007_r372,"org.eclipse.ui.console.ConsoleView",1549518900208
activated,editor,org.eclipse.jst.jsp.ui,1.1.602.v201112071516,"org.eclipse.jst.jsp.core.jspsource.source",1549518928740
executed,command,org.eclipse.ui,3.7.0.v20110928-1505,"org.eclipse.ui.edit.paste",1549518937566
executed,command,org.eclipse.ui,3.7.0.v20110928-1505,"org.eclipse.ui.file.save",1549518939691
started,bundle,org.eclipse.jst.jsf.ui,1.3.2.v201104251204,"org.eclipse.jst.jsf.ui",1549518940222
started,bundle,org.eclipse.jst.jsf.common,1.2.3.v201104061039,"org.eclipse.jst.jsf.common",1549518940284
started,bundle,org.eclipse.jst.jsf.core,1.3.105.v201108261005,"org.eclipse.jst.jsf.core",1549518940300
started,bundle,org.eclipse.jst.jsf.facelet.ui,1.0.1.v201104032306,"org.eclipse.jst.jsf.facelet.ui",1549518940300
error,log,,,"Problems occurred when invoking code from plug-in: ""org.eclipse.mylyn.tasks.ui"".",1549518940316
error,log,,,"Task repository link provider failed: ""null""",1549518940316
activated,editor,org.eclipse.jst.jsp.ui,1.1.602.v201112071516,"org.eclipse.jst.jsp.core.jspsource.source",1549518945830
activated,editor,org.eclipse.jst.jsp.ui,1.1.602.v201112071516,"org.eclipse.jst.jsp.core.jspsource.source",1549518947829
executed,command,org.eclipse.ui,3.7.0.v20110928-1505,"org.eclipse.ui.edit.selectAll",1549518948642
executed,command,org.eclipse.ui,3.7.0.v20110928-1505,"org.eclipse.ui.edit.copy",1549518949454
activated,editor,org.eclipse.jst.jsp.ui,1.1.602.v201112071516,"org.eclipse.jst.jsp.core.jspsource.source",1549518950360
executed,command,org.eclipse.ui,3.7.0.v20110928-1505,"org.eclipse.ui.edit.selectAll",1549518950641
executed,command,org.eclipse.ui,3.7.0.v20110928-1505,"org.eclipse.ui.edit.paste",1549518951469
executed,command,org.eclipse.ui,3.7.0.v20110928-1505,"org.eclipse.ui.file.save",1549518952297
error,log,,,"Problems occurred when invoking code from plug-in: ""org.eclipse.mylyn.tasks.ui"".",1549518952516
error,log,,,"Task repository link provider failed: ""null""",1549518952516
error,log,,,"Problems occurred when invoking code from plug-in: ""org.eclipse.mylyn.tasks.ui"".",1549518952563
error,log,,,"Task repository link provider failed: ""null""",1549518952563
deactivated,workbench,org.eclipse.ui.workbench,3.7.1.v20120104-1859,"",1549518953109
activated,workbench,org.eclipse.ui.workbench,3.7.1.v20120104-1859,"",1549518960006
error,log,,,"Problems occurred when invoking code from plug-in: ""org.eclipse.mylyn.tasks.ui"".",1549518979587
error,log,,,"Task repository link provider failed: ""null""",1549518979587
error,log,,,"Problems occurred when invoking code from plug-in: ""org.eclipse.mylyn.tasks.ui"".",1549518979590
error,log,,,"Task repository link provider failed: ""null""",1549518979591
error,log,,,"Problems occurred when invoking code from plug-in: ""org.eclipse.mylyn.tasks.ui"".",1549518979620
error,log,,,"Task repository link provider failed: ""null""",1549518979621
error,log,,,"Problems occurred when invoking code from plug-in: ""org.eclipse.mylyn.tasks.ui"".",1549518979724
error,log,,,"Task repository link provider failed: ""null""",1549518979725
error,log,,,"Problems occurred when invoking code from plug-in: ""org.eclipse.mylyn.tasks.ui"".",1549518979750
error,log,,,"Task repository link provider failed: ""null""",1549518979752
error,log,,,"Problems occurred when invoking code from plug-in: ""org.eclipse.mylyn.tasks.ui"".",1549518979764
error,log,,,"Task repository link provider failed: ""null""",1549518979765
error,log,,,"Problems occurred when invoking code from plug-in: ""org.eclipse.mylyn.tasks.ui"".",1549518979780
error,log,,,"Task repository link provider failed: ""null""",1549518979781
error,log,,,"Problems occurred when invoking code from plug-in: ""org.eclipse.mylyn.tasks.ui"".",1549518979789
error,log,,,"Task repository link provider failed: ""null""",1549518979790
error,log,,,"Problems occurred when invoking code from plug-in: ""org.eclipse.mylyn.tasks.ui"".",1549518979797
error,log,,,"Task repository link provider failed: ""null""",1549518979798
error,log,,,"Problems occurred when invoking code from plug-in: ""org.eclipse.mylyn.tasks.ui"".",1549518979804
error,log,,,"Task repository link provider failed: ""null""",1549518979806
error,log,,,"Problems occurred when invoking code from plug-in: ""org.eclipse.mylyn.tasks.ui"".",1549518979813
error,log,,,"Task repository link provider failed: ""null""",1549518979815
error,log,,,"Problems occurred when invoking code from plug-in: ""org.eclipse.mylyn.tasks.ui"".",1549518979821
error,log,,,"Task repository link provider failed: ""null""",1549518979822
error,log,,,"Problems occurred when invoking code from plug-in: ""org.eclipse.mylyn.tasks.ui"".",1549518979830
error,log,,,"Task repository link provider failed: ""null""",1549518979832
error,log,,,"Problems occurred when invoking code from plug-in: ""org.eclipse.mylyn.tasks.ui"".",1549518979875
error,log,,,"Task repository link provider failed: ""null""",1549518979875
error,log,,,"Problems occurred when invoking code from plug-in: ""org.eclipse.mylyn.tasks.ui"".",1549518979877
error,log,,,"Task repository link provider failed: ""null""",1549518979877
error,log,,,"Problems occurred when invoking code from plug-in: ""org.eclipse.mylyn.tasks.ui"".",1549518979881
error,log,,,"Task repository link provider failed: ""null""",1549518979881
error,log,,,"Problems occurred when invoking code from plug-in: ""org.eclipse.mylyn.tasks.ui"".",1549518980012
error,log,,,"Task repository link provider failed: ""null""",1549518980013
error,log,,,"Problems occurred when invoking code from plug-in: ""org.eclipse.mylyn.tasks.ui"".",1549518980028
error,log,,,"Task repository link provider failed: ""null""",1549518980029
error,log,,,"Problems occurred when invoking code from plug-in: ""org.eclipse.mylyn.tasks.ui"".",1549518980052
error,log,,,"Task repository link provider failed: ""null""",1549518980053
error,log,,,"Problems occurred when invoking code from plug-in: ""org.eclipse.mylyn.tasks.ui"".",1549518980059
error,log,,,"Task repository link provider failed: ""null""",1549518980061
error,log,,,"Problems occurred when invoking code from plug-in: ""org.eclipse.mylyn.tasks.ui"".",1549518980067
error,log,,,"Task repository link provider failed: ""null""",1549518980067
error,log,,,"Problems occurred when invoking code from plug-in: ""org.eclipse.mylyn.tasks.ui"".",1549518980072
error,log,,,"Task repository link provider failed: ""null""",1549518980073
error,log,,,"Problems occurred when invoking code from plug-in: ""org.eclipse.mylyn.tasks.ui"".",1549518980076
error,log,,,"Task repository link provider failed: ""null""",1549518980077
error,log,,,"Problems occurred when invoking code from plug-in: ""org.eclipse.mylyn.tasks.ui"".",1549518980082
error,log,,,"Task repository link provider failed: ""null""",1549518980082
error,log,,,"Problems occurred when invoking code from plug-in: ""org.eclipse.mylyn.tasks.ui"".",1549518980116
error,log,,,"Task repository link provider failed: ""null""",1549518980116
error,log,,,"Problems occurred when invoking code from plug-in: ""org.eclipse.mylyn.tasks.ui"".",1549518980162
error,log,,,"Task repository link provider failed: ""null""",1549518980162
error,log,,,"Problems occurred when invoking code from plug-in: ""org.eclipse.mylyn.tasks.ui"".",1549518980190
error,log,,,"Task repository link provider failed: ""null""",1549518980190
error,log,,,"Problems occurred when invoking code from plug-in: ""org.eclipse.mylyn.tasks.ui"".",1549518980216
error,log,,,"Task repository link provider failed: ""null""",1549518980216
error,log,,,"Problems occurred when invoking code from plug-in: ""org.eclipse.mylyn.tasks.ui"".",1549518980224
error,log,,,"Task repository link provider failed: ""null""",1549518980224
error,log,,,"Problems occurred when invoking code from plug-in: ""org.eclipse.mylyn.tasks.ui"".",1549518980232
error,log,,,"Task repository link provider failed: ""null""",1549518980232
error,log,,,"Problems occurred when invoking code from plug-in: ""org.eclipse.mylyn.tasks.ui"".",1549518980282
error,log,,,"Task repository link provider failed: ""null""",1549518980282
error,log,,,"Problems occurred when invoking code from plug-in: ""org.eclipse.mylyn.tasks.ui"".",1549518980306
error,log,,,"Task repository link provider failed: ""null""",1549518980307
error,log,,,"Problems occurred when invoking code from plug-in: ""org.eclipse.mylyn.tasks.ui"".",1549518980323
error,log,,,"Task repository link provider failed: ""null""",1549518980324
error,log,,,"Problems occurred when invoking code from plug-in: ""org.eclipse.mylyn.tasks.ui"".",1549518980332
error,log,,,"Task repository link provider failed: ""null""",1549518980333
error,log,,,"Problems occurred when invoking code from plug-in: ""org.eclipse.mylyn.tasks.ui"".",1549518980371
error,log,,,"Task repository link provider failed: ""null""",1549518980371
error,log,,,"Problems occurred when invoking code from plug-in: ""org.eclipse.mylyn.tasks.ui"".",1549518980372
error,log,,,"Task repository link provider failed: ""null""",1549518980373
error,log,,,"Problems occurred when invoking code from plug-in: ""org.eclipse.mylyn.tasks.ui"".",1549518980374
error,log,,,"Task repository link provider failed: ""null""",1549518980374
error,log,,,"Problems occurred when invoking code from plug-in: ""org.eclipse.mylyn.tasks.ui"".",1549518980376
error,log,,,"Task repository link provider failed: ""null""",1549518980376
error,log,,,"Problems occurred when invoking code from plug-in: ""org.eclipse.mylyn.tasks.ui"".",1549518980384
error,log,,,"Task repository link provider failed: ""null""",1549518980384
error,log,,,"Problems occurred when invoking code from plug-in: ""org.eclipse.mylyn.tasks.ui"".",1549518980392
error,log,,,"Task repository link provider failed: ""null""",1549518980392
error,log,,,"Problems occurred when invoking code from plug-in: ""org.eclipse.mylyn.tasks.ui"".",1549518980400
error,log,,,"Task repository link provider failed: ""null""",1549518980400
error,log,,,"Problems occurred when invoking code from plug-in: ""org.eclipse.mylyn.tasks.ui"".",1549518980408
error,log,,,"Task repository link provider failed: ""null""",1549518980408
error,log,,,"Problems occurred when invoking code from plug-in: ""org.eclipse.mylyn.tasks.ui"".",1549518980416
error,log,,,"Task repository link provider failed: ""null""",1549518980416
error,log,,,"Problems occurred when invoking code from plug-in: ""org.eclipse.mylyn.tasks.ui"".",1549518980424
error,log,,,"Task repository link provider failed: ""null""",1549518980425
error,log,,,"Problems occurred when invoking code from plug-in: ""org.eclipse.mylyn.tasks.ui"".",1549518980432
error,log,,,"Task repository link provider failed: ""null""",1549518980432
error,log,,,"Problems occurred when invoking code from plug-in: ""org.eclipse.mylyn.tasks.ui"".",1549518980440
error,log,,,"Task repository link provider failed: ""null""",1549518980441
error,log,,,"Problems occurred when invoking code from plug-in: ""org.eclipse.mylyn.tasks.ui"".",1549518980448
error,log,,,"Task repository link provider failed: ""null""",1549518980448
error,log,,,"Problems occurred when invoking code from plug-in: ""org.eclipse.mylyn.tasks.ui"".",1549518980484
error,log,,,"Task repository link provider failed: ""null""",1549518980484
error,log,,,"Problems occurred when invoking code from plug-in: ""org.eclipse.mylyn.tasks.ui"".",1549518980486
error,log,,,"Task repository link provider failed: ""null""",1549518980486
error,log,,,"Problems occurred when invoking code from plug-in: ""org.eclipse.mylyn.tasks.ui"".",1549518980488
error,log,,,"Task repository link provider failed: ""null""",1549518980488
error,log,,,"Problems occurred when invoking code from plug-in: ""org.eclipse.mylyn.tasks.ui"".",1549518980497
error,log,,,"Task repository link provider failed: ""null""",1549518980497
error,log,,,"Problems occurred when invoking code from plug-in: ""org.eclipse.mylyn.tasks.ui"".",1549518980505
error,log,,,"Task repository link provider failed: ""null""",1549518980505
error,log,,,"Problems occurred when invoking code from plug-in: ""org.eclipse.mylyn.tasks.ui"".",1549518980513
error,log,,,"Task repository link provider failed: ""null""",1549518980513
error,log,,,"Problems occurred when invoking code from plug-in: ""org.eclipse.mylyn.tasks.ui"".",1549518980520
error,log,,,"Task repository link provider failed: ""null""",1549518980520
error,log,,,"Problems occurred when invoking code from plug-in: ""org.eclipse.mylyn.tasks.ui"".",1549518980536
error,log,,,"Task repository link provider failed: ""null""",1549518980536
error,log,,,"Problems occurred when invoking code from plug-in: ""org.eclipse.mylyn.tasks.ui"".",1549518980544
error,log,,,"Task repository link provider failed: ""null""",1549518980544
error,log,,,"Problems occurred when invoking code from plug-in: ""org.eclipse.mylyn.tasks.ui"".",1549518980568
error,log,,,"Task repository link provider failed: ""null""",1549518980568
error,log,,,"Problems occurred when invoking code from plug-in: ""org.eclipse.mylyn.tasks.ui"".",1549518980592
error,log,,,"Task repository link provider failed: ""null""",1549518980592
executed,command,org.eclipse.ui,3.7.0.v20110928-1505,"org.eclipse.ui.edit.copy",1549518986028
error,log,,,"Problems occurred when invoking code from plug-in: ""org.eclipse.mylyn.tasks.ui"".",1549518986187
error,log,,,"Task repository link provider failed: ""null""",1549518986188
error,log,,,"Problems occurred when invoking code from plug-in: ""org.eclipse.mylyn.tasks.ui"".",1549518986238
error,log,,,"Task repository link provider failed: ""null""",1549518986239
error,log,,,"Problems occurred when invoking code from plug-in: ""org.eclipse.mylyn.tasks.ui"".",1549518986243
error,log,,,"Task repository link provider failed: ""null""",1549518986243
error,log,,,"Problems occurred when invoking code from plug-in: ""org.eclipse.mylyn.tasks.ui"".",1549518986277
error,log,,,"Task repository link provider failed: ""null""",1549518986277
error,log,,,"Problems occurred when invoking code from plug-in: ""org.eclipse.mylyn.tasks.ui"".",1549518986381
error,log,,,"Task repository link provider failed: ""null""",1549518986382
error,log,,,"Problems occurred when invoking code from plug-in: ""org.eclipse.mylyn.tasks.ui"".",1549518986387
error,log,,,"Task repository link provider failed: ""null""",1549518986388
error,log,,,"Problems occurred when invoking code from plug-in: ""org.eclipse.mylyn.tasks.ui"".",1549518986393
error,log,,,"Task repository link provider failed: ""null""",1549518986394
error,log,,,"Problems occurred when invoking code from plug-in: ""org.eclipse.mylyn.tasks.ui"".",1549518986401
error,log,,,"Task repository link provider failed: ""null""",1549518986401
error,log,,,"Problems occurred when invoking code from plug-in: ""org.eclipse.mylyn.tasks.ui"".",1549518986409
error,log,,,"Task repository link provider failed: ""null""",1549518986409
error,log,,,"Problems occurred when invoking code from plug-in: ""org.eclipse.mylyn.tasks.ui"".",1549518986417
error,log,,,"Task repository link provider failed: ""null""",1549518986418
executed,command,org.eclipse.ui,3.7.0.v20110928-1505,"org.eclipse.ui.edit.paste",1549518988082
executed,command,org.eclipse.ui,3.7.0.v20110928-1505,"org.eclipse.ui.file.save",1549518994247
error,log,,,"Problems occurred when invoking code from plug-in: ""org.eclipse.mylyn.tasks.ui"".",1549518994676
error,log,,,"Task repository link provider failed: ""null""",1549518994676
deactivated,workbench,org.eclipse.ui.workbench,3.7.1.v20120104-1859,"",1549518997765
activated,workbench,org.eclipse.ui.workbench,3.7.1.v20120104-1859,"",1549519002675
executed,command,org.eclipse.ui,3.7.0.v20110928-1505,"org.eclipse.ui.file.save",1549519015187
error,log,,,"Problems occurred when invoking code from plug-in: ""org.eclipse.mylyn.tasks.ui"".",1549519015605
error,log,,,"Task repository link provider failed: ""null""",1549519015605
error,log,,,"Problems occurred when invoking code from plug-in: ""org.eclipse.mylyn.tasks.ui"".",1549519015723
error,log,,,"Task repository link provider failed: ""null""",1549519015723
deactivated,workbench,org.eclipse.ui.workbench,3.7.1.v20120104-1859,"",1549519016212
activated,workbench,org.eclipse.ui.workbench,3.7.1.v20120104-1859,"",1549519021073
deactivated,workbench,org.eclipse.ui.workbench,3.7.1.v20120104-1859,"",1549519025048
activated,workbench,org.eclipse.ui.workbench,3.7.1.v20120104-1859,"",1549519200175
activated,view,org.eclipse.ui.console,3.5.100.v20111007_r372,"org.eclipse.ui.console.ConsoleView",1549519200186
activated,editor,org.eclipse.jst.jsp.ui,1.1.602.v201112071516,"org.eclipse.jst.jsp.core.jspsource.source",1549519453963
activated,view,org.eclipse.ui.ide,3.7.0.v20110928-1505,"org.eclipse.ui.views.ResourceNavigator",1549519455011
deactivated,workbench,org.eclipse.ui.workbench,3.7.1.v20120104-1859,"",1549519484411
activated,workbench,org.eclipse.ui.workbench,3.7.1.v20120104-1859,"",1549519492370
activated,view,org.eclipse.ui.console,3.5.100.v20111007_r372,"org.eclipse.ui.console.ConsoleView",1549519500134
activated,view,org.eclipse.ui.ide,3.7.0.v20110928-1505,"org.eclipse.ui.views.ResourceNavigator",1549519501372
error,log,,,"Plug-in 'org.maven.ide.eclipse.refactoring' contributed an invalid Menu Extension (Path: 'org.eclipse.jdt.ui.refactoring.menu' is invalid): org.maven.ide.eclipse.editor.RenameProjectAction",1549519519926
deactivated,workbench,org.eclipse.ui.workbench,3.7.1.v20120104-1859,"",1549519521282
activated,workbench,org.eclipse.ui.workbench,3.7.1.v20120104-1859,"",1549519521611
deactivated,workbench,org.eclipse.ui.workbench,3.7.1.v20120104-1859,"",1549519522033
activated,workbench,org.eclipse.ui.workbench,3.7.1.v20120104-1859,"",1549519545731
activated,editor,org.eclipse.jst.jsp.ui,1.1.602.v201112071516,"org.eclipse.jst.jsp.core.jspsource.source",1549519547602
closed,editor,org.eclipse.jst.jsp.ui,1.1.602.v201112071516,"org.eclipse.jst.jsp.core.jspsource.source",1549519547602
deactivated,workbench,org.eclipse.ui.workbench,3.7.1.v20120104-1859,"",1549519554822
activated,workbench,org.eclipse.ui.workbench,3.7.1.v20120104-1859,"",1549519557587
opened,editor,org.eclipse.jst.jsp.ui,1.1.602.v201112071516,"org.eclipse.jst.jsp.core.jspsource.source",1549519557743
activated,editor,org.eclipse.jst.jsp.ui,1.1.602.v201112071516,"org.eclipse.jst.jsp.core.jspsource.source",1549519557759
executed,command,org.eclipse.ui.ide,3.7.0.v20110928-1505,"org.eclipse.ui.navigate.openResource",1549519557759
activated,editor,org.eclipse.jst.jsp.ui,1.1.602.v201112071516,"org.eclipse.jst.jsp.core.jspsource.source",1549519558696
executed,command,org.eclipse.ui,3.7.0.v20110928-1505,"org.eclipse.ui.edit.selectAll",1549519559228
executed,command,org.eclipse.ui,3.7.0.v20110928-1505,"org.eclipse.ui.edit.copy",1549519560196
activated,editor,org.eclipse.jst.jsp.ui,1.1.602.v201112071516,"org.eclipse.jst.jsp.core.jspsource.source",1549519561025
executed,command,org.eclipse.ui,3.7.0.v20110928-1505,"org.eclipse.ui.edit.selectAll",1549519561557
executed,command,org.eclipse.ui,3.7.0.v20110928-1505,"org.eclipse.ui.edit.paste",1549519562368
executed,command,org.eclipse.ui,3.7.0.v20110928-1505,"org.eclipse.ui.file.save",1549519563336
activated,view,org.eclipse.ui.ide,3.7.0.v20110928-1505,"org.eclipse.ui.views.ResourceNavigator",1549519564684
error,log,,,"Plug-in 'org.maven.ide.eclipse.refactoring' contributed an invalid Menu Extension (Path: 'org.eclipse.jdt.ui.refactoring.menu' is invalid): org.maven.ide.eclipse.editor.RenameProjectAction",1549519564762
deactivated,workbench,org.eclipse.ui.workbench,3.7.1.v20120104-1859,"",1549519565872
activated,workbench,org.eclipse.ui.workbench,3.7.1.v20120104-1859,"",1549519566090
error,log,,,"Plug-in 'org.maven.ide.eclipse.refactoring' contributed an invalid Menu Extension (Path: 'org.eclipse.jdt.ui.refactoring.menu' is invalid): org.maven.ide.eclipse.editor.RenameProjectAction",1549519568743
deactivated,workbench,org.eclipse.ui.workbench,3.7.1.v20120104-1859,"",1549519569931
activated,workbench,org.eclipse.ui.workbench,3.7.1.v20120104-1859,"",1549519570165
activated,view,org.eclipse.ui.console,3.5.100.v20111007_r372,"org.eclipse.ui.console.ConsoleView",1549519571712
activated,view,org.eclipse.ui.ide,3.7.0.v20110928-1505,"org.eclipse.ui.views.ResourceNavigator",1549519577696
error,log,,,"Plug-in 'org.maven.ide.eclipse.refactoring' contributed an invalid Menu Extension (Path: 'org.eclipse.jdt.ui.refactoring.menu' is invalid): org.maven.ide.eclipse.editor.RenameProjectAction",1549519579888
deactivated,workbench,org.eclipse.ui.workbench,3.7.1.v20120104-1859,"",1549519581055
activated,workbench,org.eclipse.ui.workbench,3.7.1.v20120104-1859,"",1549519581275
activated,editor,org.eclipse.jst.jsp.ui,1.1.602.v201112071516,"org.eclipse.jst.jsp.core.jspsource.source",1549519582368
activated,editor,org.eclipse.jst.jsp.ui,1.1.602.v201112071516,"org.eclipse.jst.jsp.core.jspsource.source",1549519585399
closed,editor,org.eclipse.jst.jsp.ui,1.1.602.v201112071516,"org.eclipse.jst.jsp.core.jspsource.source",1549519585399
activated,editor,org.eclipse.jdt.ui,3.7.2.v20120109-1427,"org.eclipse.jdt.ui.CompilationUnitEditor",1549519586384
closed,editor,org.eclipse.jst.jsp.ui,1.1.602.v201112071516,"org.eclipse.jst.jsp.core.jspsource.source",1549519586384
deactivated,workbench,org.eclipse.ui.workbench,3.7.1.v20120104-1859,"",1549519592431
activated,workbench,org.eclipse.ui.workbench,3.7.1.v20120104-1859,"",1549519598383
deactivated,workbench,org.eclipse.ui.workbench,3.7.1.v20120104-1859,"",1549519599804
activated,workbench,org.eclipse.ui.workbench,3.7.1.v20120104-1859,"",1549519604978
opened,editor,org.eclipse.jst.jsp.ui,1.1.602.v201112071516,"org.eclipse.jst.jsp.core.jspsource.source",1549519605056
activated,editor,org.eclipse.jst.jsp.ui,1.1.602.v201112071516,"org.eclipse.jst.jsp.core.jspsource.source",1549519605103
opened,editor,org.eclipse.jst.jsp.ui,1.1.602.v201112071516,"org.eclipse.jst.jsp.core.jspsource.source",1549519605244
activated,editor,org.eclipse.jst.jsp.ui,1.1.602.v201112071516,"org.eclipse.jst.jsp.core.jspsource.source",1549519605259
executed,command,org.eclipse.ui.ide,3.7.0.v20110928-1505,"org.eclipse.ui.navigate.openResource",1549519605259
error,log,,,"Problems occurred when invoking code from plug-in: ""org.eclipse.mylyn.tasks.ui"".",1549519622448
error,log,,,"Task repository link provider failed: ""null""",1549519622448
error,log,,,"Problems occurred when invoking code from plug-in: ""org.eclipse.mylyn.tasks.ui"".",1549519622761
