what,kind,bundleId,bundleVersion,description,time
activated,editor,org.eclipse.jst.jsp.ui,1.1.602.v201112071516,"org.eclipse.jst.jsp.core.jspsource.source",1549435485983
deactivated,workbench,org.eclipse.ui.workbench,3.7.1.v20120104-1859,"",1549435489263
activated,workbench,org.eclipse.ui.workbench,3.7.1.v20120104-1859,"",1549435500519
activated,view,org.eclipse.ui.console,3.5.100.v20111007_r372,"org.eclipse.ui.console.ConsoleView",1549435500535
activated,editor,org.eclipse.jst.jsp.ui,1.1.602.v201112071516,"org.eclipse.jst.jsp.core.jspsource.source",1549435561157
deactivated,workbench,org.eclipse.ui.workbench,3.7.1.v20120104-1859,"",1549435566985
activated,workbench,org.eclipse.ui.workbench,3.7.1.v20120104-1859,"",1549435591256
deactivated,workbench,org.eclipse.ui.workbench,3.7.1.v20120104-1859,"",1549435592810
activated,view,org.eclipse.ui.console,3.5.100.v20111007_r372,"org.eclipse.ui.console.ConsoleView",1549435800150
activated,workbench,org.eclipse.ui.workbench,3.7.1.v20120104-1859,"",1549435858084
activated,editor,org.eclipse.jst.jsp.ui,1.1.602.v201112071516,"org.eclipse.jst.jsp.core.jspsource.source",1549435859182
deactivated,workbench,org.eclipse.ui.workbench,3.7.1.v20120104-1859,"",1549435863058
activated,workbench,org.eclipse.ui.workbench,3.7.1.v20120104-1859,"",1549435868125
deactivated,workbench,org.eclipse.ui.workbench,3.7.1.v20120104-1859,"",1549435869515
activated,workbench,org.eclipse.ui.workbench,3.7.1.v20120104-1859,"",1549435871746
closed,editor,org.eclipse.jdt.ui,3.7.2.v20120109-1427,"org.eclipse.jdt.ui.CompilationUnitEditor",1549435873996
deactivated,workbench,org.eclipse.ui.workbench,3.7.1.v20120104-1859,"",1549435875074
activated,workbench,org.eclipse.ui.workbench,3.7.1.v20120104-1859,"",1549435880963
opened,editor,org.eclipse.jdt.ui,3.7.2.v20120109-1427,"org.eclipse.jdt.ui.CompilationUnitEditor",1549435881072
activated,editor,org.eclipse.jdt.ui,3.7.2.v20120109-1427,"org.eclipse.jdt.ui.CompilationUnitEditor",1549435881166
executed,command,org.eclipse.ui.ide,3.7.0.v20110928-1505,"org.eclipse.ui.navigate.openResource",1549435881197
executed,command,,,"AUTOGEN:::org.eclipse.jdt.debug.CompilationUnitEditor.BreakpointRulerActions/org.eclipse.jdt.debug.ui.actions.ManageBreakpointRulerAction",1549435892570
executed,command,,,"AUTOGEN:::org.eclipse.jdt.internal.ui.CompilationUnitEditor.ruler.actions/org.eclipse.jdt.internal.ui.javaeditor.JavaSelectRulerAction",1549435893054
executed,command,,,"AUTOGEN:::org.eclipse.jdt.debug.CompilationUnitEditor.BreakpointRulerActions/org.eclipse.jdt.debug.ui.actions.ManageBreakpointRulerAction",1549435893210
deactivated,workbench,org.eclipse.ui.workbench,3.7.1.v20120104-1859,"",1549435895022
activated,workbench,org.eclipse.ui.workbench,3.7.1.v20120104-1859,"",1549435909354
deactivated,workbench,org.eclipse.ui.workbench,3.7.1.v20120104-1859,"",1549435909389
activated,workbench,org.eclipse.ui.workbench,3.7.1.v20120104-1859,"",1549435912630
opened,view,org.eclipse.debug.ui,3.7.102.v20111129-1423_r372,"org.eclipse.debug.ui.DebugView",1549435913010
started,bundle,org.eclipse.wst.jsdt.debug.core,2.0.101.v201201112313,"org.eclipse.wst.jsdt.debug.core",1549435913748
deactivated,workbench,org.eclipse.ui.workbench,3.7.1.v20120104-1859,"",1549435915755
activated,workbench,org.eclipse.ui.workbench,3.7.1.v20120104-1859,"",1549435918776
executed,command,org.eclipse.debug.ui,3.7.102.v20111129-1423_r372,"org.eclipse.debug.ui.commands.StepOver",1549435928229
activated,view,org.eclipse.ui.console,3.5.100.v20111007_r372,"org.eclipse.ui.console.ConsoleView",1549435937485
activated,editor,org.eclipse.jdt.ui,3.7.2.v20120109-1427,"org.eclipse.jdt.ui.CompilationUnitEditor",1549435939818
error,log,,,"Problems occurred when invoking code from plug-in: ""org.eclipse.mylyn.tasks.ui"".",1549435949561
error,log,,,"Task repository link provider failed: ""null""",1549435949562
error,log,,,"Problems occurred when invoking code from plug-in: ""org.eclipse.mylyn.tasks.ui"".",1549435949569
error,log,,,"Task repository link provider failed: ""null""",1549435949570
error,log,,,"Problems occurred when invoking code from plug-in: ""org.eclipse.mylyn.tasks.ui"".",1549435949579
error,log,,,"Task repository link provider failed: ""null""",1549435949579
error,log,,,"Problems occurred when invoking code from plug-in: ""org.eclipse.mylyn.tasks.ui"".",1549435949584
error,log,,,"Task repository link provider failed: ""null""",1549435949584
error,log,,,"Problems occurred when invoking code from plug-in: ""org.eclipse.mylyn.tasks.ui"".",1549435949591
error,log,,,"Task repository link provider failed: ""null""",1549435949592
error,log,,,"Problems occurred when invoking code from plug-in: ""org.eclipse.mylyn.tasks.ui"".",1549435949600
error,log,,,"Task repository link provider failed: ""null""",1549435949600
error,log,,,"Problems occurred when invoking code from plug-in: ""org.eclipse.mylyn.tasks.ui"".",1549435949624
error,log,,,"Task repository link provider failed: ""null""",1549435949625
error,log,,,"Problems occurred when invoking code from plug-in: ""org.eclipse.mylyn.tasks.ui"".",1549435949640
error,log,,,"Task repository link provider failed: ""null""",1549435949640
error,log,,,"Problems occurred when invoking code from plug-in: ""org.eclipse.mylyn.tasks.ui"".",1549435949664
error,log,,,"Task repository link provider failed: ""null""",1549435949664
error,log,,,"Problems occurred when invoking code from plug-in: ""org.eclipse.mylyn.tasks.ui"".",1549435949688
error,log,,,"Task repository link provider failed: ""null""",1549435949688
error,log,,,"Problems occurred when invoking code from plug-in: ""org.eclipse.mylyn.tasks.ui"".",1549435949704
error,log,,,"Task repository link provider failed: ""null""",1549435949704
error,log,,,"Problems occurred when invoking code from plug-in: ""org.eclipse.mylyn.tasks.ui"".",1549435949896
error,log,,,"Task repository link provider failed: ""null""",1549435949896
error,log,,,"Problems occurred when invoking code from plug-in: ""org.eclipse.mylyn.tasks.ui"".",1549435949905
error,log,,,"Task repository link provider failed: ""null""",1549435949905
error,log,,,"Problems occurred when invoking code from plug-in: ""org.eclipse.mylyn.tasks.ui"".",1549435949913
error,log,,,"Task repository link provider failed: ""null""",1549435949914
error,log,,,"Problems occurred when invoking code from plug-in: ""org.eclipse.mylyn.tasks.ui"".",1549435949920
error,log,,,"Task repository link provider failed: ""null""",1549435949920
error,log,,,"Problems occurred when invoking code from plug-in: ""org.eclipse.mylyn.tasks.ui"".",1549435949984
error,log,,,"Task repository link provider failed: ""null""",1549435949984
error,log,,,"Problems occurred when invoking code from plug-in: ""org.eclipse.mylyn.tasks.ui"".",1549435950330
error,log,,,"Task repository link provider failed: ""null""",1549435950330
executed,command,org.eclipse.ui,3.7.0.v20110928-1505,"org.eclipse.ui.edit.copy",1549435950341
error,log,,,"Problems occurred when invoking code from plug-in: ""org.eclipse.mylyn.tasks.ui"".",1549435951252
error,log,,,"Task repository link provider failed: ""null""",1549435951252
error,log,,,"Problems occurred when invoking code from plug-in: ""org.eclipse.mylyn.tasks.ui"".",1549435951263
error,log,,,"Task repository link provider failed: ""null""",1549435951263
error,log,,,"Problems occurred when invoking code from plug-in: ""org.eclipse.mylyn.tasks.ui"".",1549435951305
error,log,,,"Task repository link provider failed: ""null""",1549435951305
error,log,,,"Problems occurred when invoking code from plug-in: ""org.eclipse.mylyn.tasks.ui"".",1549435951312
error,log,,,"Task repository link provider failed: ""null""",1549435951313
executed,command,org.eclipse.ui,3.7.0.v20110928-1505,"org.eclipse.ui.edit.paste",1549435951410
started,bundle,org.eclipse.mylyn.ide.ui,3.6.0.v20110608-1400,"org.eclipse.mylyn.ide.ui",1549435953618
started,bundle,org.eclipse.jpt.jaxb.ui,1.1.2.v201201260000,"org.eclipse.jpt.jaxb.ui",1549435953680
started,bundle,org.eclipse.jpt.jpa.ui,3.0.2.v201201243020,"org.eclipse.jpt.jpa.ui",1549435953742
started,bundle,org.eclipse.jst.ws.jaxws.ui,1.0.100.v201104032053,"org.eclipse.jst.ws.jaxws.ui",1549435953867
started,bundle,org.eclipse.mylyn.java.ui,3.6.0.v20110608-1400,"org.eclipse.mylyn.java.ui",1549435953867
started,bundle,org.eclipse.pde.api.tools,1.0.301.v20111129-2053,"org.eclipse.pde.api.tools",1549435954180
started,bundle,org.eclipse.pde.api.tools.ui,1.0.301.v20110803_r371,"org.eclipse.pde.api.tools.ui",1549435954180
started,bundle,org.eclipse.jpt.jaxb.core,1.0.2.v201111103010,"org.eclipse.jpt.jaxb.core",1549435954836
deactivated,workbench,org.eclipse.ui.workbench,3.7.1.v20120104-1859,"",1549436104892
activated,workbench,org.eclipse.ui.workbench,3.7.1.v20120104-1859,"",1549436141446
activated,view,org.eclipse.ui.ide,3.7.0.v20110928-1505,"org.eclipse.ui.views.ResourceNavigator",1549436143180
error,log,,,"Plug-in 'org.maven.ide.eclipse.refactoring' contributed an invalid Menu Extension (Path: 'org.eclipse.jdt.ui.refactoring.menu' is invalid): org.maven.ide.eclipse.editor.RenameProjectAction",1549436143289
deactivated,workbench,org.eclipse.ui.workbench,3.7.1.v20120104-1859,"",1549436144461
activated,workbench,org.eclipse.ui.workbench,3.7.1.v20120104-1859,"",1549436144711
deactivated,workbench,org.eclipse.ui.workbench,3.7.1.v20120104-1859,"",1549436155411
activated,workbench,org.eclipse.ui.workbench,3.7.1.v20120104-1859,"",1549436157252
activated,view,org.eclipse.ui.console,3.5.100.v20111007_r372,"org.eclipse.ui.console.ConsoleView",1549436158444
activated,view,org.eclipse.ui.ide,3.7.0.v20110928-1505,"org.eclipse.ui.views.ResourceNavigator",1549436159163
activated,view,org.eclipse.ui.console,3.5.100.v20111007_r372,"org.eclipse.ui.console.ConsoleView",1549436161506
activated,view,org.eclipse.ui.ide,3.7.0.v20110928-1505,"org.eclipse.ui.views.ResourceNavigator",1549436162809
activated,view,org.eclipse.ui.console,3.5.100.v20111007_r372,"org.eclipse.ui.console.ConsoleView",1549436165097
deactivated,workbench,org.eclipse.ui.workbench,3.7.1.v20120104-1859,"",1549436170470
activated,workbench,org.eclipse.ui.workbench,3.7.1.v20120104-1859,"",1549436204928
activated,editor,org.eclipse.jdt.ui,3.7.2.v20120109-1427,"org.eclipse.jdt.ui.CompilationUnitEditor",1549436207201
executed,command,org.eclipse.debug.ui,3.7.102.v20111129-1423_r372,"org.eclipse.debug.ui.commands.Resume",1549436209719
executed,command,org.eclipse.debug.ui,3.7.102.v20111129-1423_r372,"org.eclipse.debug.ui.commands.Resume",1549436210023
deactivated,workbench,org.eclipse.ui.workbench,3.7.1.v20120104-1859,"",1549436212193
activated,workbench,org.eclipse.ui.workbench,3.7.1.v20120104-1859,"",1549436240401
activated,view,org.eclipse.ui.console,3.5.100.v20111007_r372,"org.eclipse.ui.console.ConsoleView",1549436240425
activated,editor,org.eclipse.jdt.ui,3.7.2.v20120109-1427,"org.eclipse.jdt.ui.CompilationUnitEditor",1549436250257
executed,command,org.eclipse.ui,3.7.0.v20110928-1505,"org.eclipse.ui.edit.undo",1549436253657
executed,command,org.eclipse.ui,3.7.0.v20110928-1505,"org.eclipse.ui.file.save",1549436259984
deactivated,workbench,org.eclipse.ui.workbench,3.7.1.v20120104-1859,"",1549436261296
activated,workbench,org.eclipse.ui.workbench,3.7.1.v20120104-1859,"",1549436270190
opened,editor,org.eclipse.jst.jsp.ui,1.1.602.v201112071516,"org.eclipse.jst.jsp.core.jspsource.source",1549436270487
activated,editor,org.eclipse.jst.jsp.ui,1.1.602.v201112071516,"org.eclipse.jst.jsp.core.jspsource.source",1549436270549
opened,editor,org.eclipse.jst.jsp.ui,1.1.602.v201112071516,"org.eclipse.jst.jsp.core.jspsource.source",1549436270658
activated,editor,org.eclipse.jst.jsp.ui,1.1.602.v201112071516,"org.eclipse.jst.jsp.core.jspsource.source",1549436270690
executed,command,org.eclipse.ui.ide,3.7.0.v20110928-1505,"org.eclipse.ui.navigate.openResource",1549436270690
closed,editor,org.eclipse.jdt.ui,3.7.2.v20120109-1427,"org.eclipse.jdt.ui.CompilationUnitEditor",1549436271830
executed,command,org.eclipse.ui,3.7.0.v20110928-1505,"org.eclipse.ui.file.save",1549436280406
error,log,,,"Problems occurred when invoking code from plug-in: ""org.eclipse.mylyn.tasks.ui"".",1549436280734
error,log,,,"Task repository link provider failed: ""null""",1549436280734
error,log,,,"Problems occurred when invoking code from plug-in: ""org.eclipse.mylyn.tasks.ui"".",1549436280734
error,log,,,"Task repository link provider failed: ""null""",1549436280734
error,log,,,"Problems occurred when invoking code from plug-in: ""org.eclipse.mylyn.tasks.ui"".",1549436280734
error,log,,,"Task repository link provider failed: ""null""",1549436280734
error,log,,,"Problems occurred when invoking code from plug-in: ""org.eclipse.mylyn.tasks.ui"".",1549436280750
error,log,,,"Task repository link provider failed: ""null""",1549436280750
error,log,,,"Problems occurred when invoking code from plug-in: ""org.eclipse.mylyn.tasks.ui"".",1549436280766
error,log,,,"Task repository link provider failed: ""null""",1549436280766
executed,command,org.eclipse.ui,3.7.0.v20110928-1505,"org.eclipse.ui.edit.selectAll",1549436282296
executed,command,org.eclipse.ui,3.7.0.v20110928-1505,"org.eclipse.ui.edit.copy",1549436283265
activated,editor,org.eclipse.jst.jsp.ui,1.1.602.v201112071516,"org.eclipse.jst.jsp.core.jspsource.source",1549436284093
executed,command,org.eclipse.ui,3.7.0.v20110928-1505,"org.eclipse.ui.edit.selectAll",1549436284452
executed,command,org.eclipse.ui,3.7.0.v20110928-1505,"org.eclipse.ui.edit.paste",1549436285249
executed,command,org.eclipse.ui,3.7.0.v20110928-1505,"org.eclipse.ui.file.save",1549436286202
error,log,,,"Problems occurred when invoking code from plug-in: ""org.eclipse.mylyn.tasks.ui"".",1549436286749
error,log,,,"Task repository link provider failed: ""null""",1549436286749
error,log,,,"Problems occurred when invoking code from plug-in: ""org.eclipse.mylyn.tasks.ui"".",1549436286749
error,log,,,"Task repository link provider failed: ""null""",1549436286749
error,log,,,"Problems occurred when invoking code from plug-in: ""org.eclipse.mylyn.tasks.ui"".",1549436286764
error,log,,,"Task repository link provider failed: ""null""",1549436286764
activated,view,org.eclipse.ui.ide,3.7.0.v20110928-1505,"org.eclipse.ui.views.ResourceNavigator",1549436287592
error,log,,,"Plug-in 'org.maven.ide.eclipse.refactoring' contributed an invalid Menu Extension (Path: 'org.eclipse.jdt.ui.refactoring.menu' is invalid): org.maven.ide.eclipse.editor.RenameProjectAction",1549436287639
deactivated,workbench,org.eclipse.ui.workbench,3.7.1.v20120104-1859,"",1549436288685
activated,workbench,org.eclipse.ui.workbench,3.7.1.v20120104-1859,"",1549436288935
activated,editor,org.eclipse.jst.jsp.ui,1.1.602.v201112071516,"org.eclipse.jst.jsp.core.jspsource.source",1549436293675
closed,editor,org.eclipse.jst.jsp.ui,1.1.602.v201112071516,"org.eclipse.jst.jsp.core.jspsource.source",1549436294753
activated,editor,org.eclipse.jst.jsp.ui,1.1.602.v201112071516,"org.eclipse.jst.jsp.core.jspsource.source",1549436295940
closed,editor,org.eclipse.jst.jsp.ui,1.1.602.v201112071516,"org.eclipse.jst.jsp.core.jspsource.source",1549436295940
activated,view,org.eclipse.ui.ide,3.7.0.v20110928-1505,"org.eclipse.ui.views.ResourceNavigator",1549436297549
deactivated,workbench,org.eclipse.ui.workbench,3.7.1.v20120104-1859,"",1549436298752
activated,workbench,org.eclipse.ui.workbench,3.7.1.v20120104-1859,"",1549436304485
opened,editor,org.eclipse.jdt.ui,3.7.2.v20120109-1427,"org.eclipse.jdt.ui.CompilationUnitEditor",1549436309062
activated,editor,org.eclipse.jdt.ui,3.7.2.v20120109-1427,"org.eclipse.jdt.ui.CompilationUnitEditor",1549436309140
deactivated,workbench,org.eclipse.ui.workbench,3.7.1.v20120104-1859,"",1549436320716
activated,workbench,org.eclipse.ui.workbench,3.7.1.v20120104-1859,"",1549436360774
activated,view,org.eclipse.ui.console,3.5.100.v20111007_r372,"org.eclipse.ui.console.ConsoleView",1549436360789
activated,editor,org.eclipse.jdt.ui,3.7.2.v20120109-1427,"org.eclipse.jdt.ui.CompilationUnitEditor",1549436369576
deactivated,workbench,org.eclipse.ui.workbench,3.7.1.v20120104-1859,"",1549436371217
activated,workbench,org.eclipse.ui.workbench,3.7.1.v20120104-1859,"",1549436400172
activated,view,org.eclipse.ui.console,3.5.100.v20111007_r372,"org.eclipse.ui.console.ConsoleView",1549436400172
deactivated,workbench,org.eclipse.ui.workbench,3.7.1.v20120104-1859,"",1549436523684
activated,workbench,org.eclipse.ui.workbench,3.7.1.v20120104-1859,"",1549436550020
deactivated,workbench,org.eclipse.ui.workbench,3.7.1.v20120104-1859,"",1549436574969
activated,workbench,org.eclipse.ui.workbench,3.7.1.v20120104-1859,"",1549436608802
activated,editor,org.eclipse.jdt.ui,3.7.2.v20120109-1427,"org.eclipse.jdt.ui.CompilationUnitEditor",1549436609505
deactivated,workbench,org.eclipse.ui.workbench,3.7.1.v20120104-1859,"",1549436610426
activated,workbench,org.eclipse.ui.workbench,3.7.1.v20120104-1859,"",1549436624548
started,bundle,org.maven.ide.eclipse.editor.xml,0.9.7.200902090944,"org.maven.ide.eclipse.editor.xml",1549436624814
started,bundle,org.eclipse.wst.xsl.ui,1.1.200.v201103082057,"org.eclipse.wst.xsl.ui",1549436624876
opened,editor,org.eclipse.wst.xml.ui,1.1.202.v201112071516,"org.eclipse.wst.xml.ui.internal.tabletree.XMLMultiPageEditorPart",1549436624954
activated,editor,org.eclipse.wst.xml.ui,1.1.202.v201112071516,"org.eclipse.wst.xml.ui.internal.tabletree.XMLMultiPageEditorPart",1549436625079
opened,editor,org.eclipse.wst.xml.ui,1.1.202.v201112071516,"org.eclipse.wst.xml.ui.internal.tabletree.XMLMultiPageEditorPart",1549436625142
activated,editor,org.eclipse.wst.xml.ui,1.1.202.v201112071516,"org.eclipse.wst.xml.ui.internal.tabletree.XMLMultiPageEditorPart",1549436625173
executed,command,org.eclipse.ui.ide,3.7.0.v20110928-1505,"org.eclipse.ui.navigate.openResource",1549436625173
activated,editor,org.eclipse.wst.xml.ui,1.1.202.v201112071516,"org.eclipse.wst.xml.ui.internal.tabletree.XMLMultiPageEditorPart",1549436628344
closed,editor,org.eclipse.wst.xml.ui,1.1.202.v201112071516,"org.eclipse.wst.xml.ui.internal.tabletree.XMLMultiPageEditorPart",1549436628344
activated,editor,org.eclipse.jdt.ui,3.7.2.v20120109-1427,"org.eclipse.jdt.ui.CompilationUnitEditor",1549436629250
closed,editor,org.eclipse.wst.xml.ui,1.1.202.v201112071516,"org.eclipse.wst.xml.ui.internal.tabletree.XMLMultiPageEditorPart",1549436629250
deactivated,workbench,org.eclipse.ui.workbench,3.7.1.v20120104-1859,"",1549436630125
activated,workbench,org.eclipse.ui.workbench,3.7.1.v20120104-1859,"",1549436654007
executed,command,org.eclipse.ui.ide,3.7.0.v20110928-1505,"org.eclipse.ui.navigate.openResource",1549436654007
deactivated,workbench,org.eclipse.ui.workbench,3.7.1.v20120104-1859,"",1549436654991
activated,workbench,org.eclipse.ui.workbench,3.7.1.v20120104-1859,"",1549436665010
opened,editor,org.eclipse.wst.xml.ui,1.1.202.v201112071516,"org.eclipse.wst.xml.ui.internal.tabletree.XMLMultiPageEditorPart",1549436665135
activated,editor,org.eclipse.wst.xml.ui,1.1.202.v201112071516,"org.eclipse.wst.xml.ui.internal.tabletree.XMLMultiPageEditorPart",1549436665244
executed,command,org.eclipse.ui.ide,3.7.0.v20110928-1505,"org.eclipse.ui.navigate.openResource",1549436665244
activated,editor,org.eclipse.jdt.ui,3.7.2.v20120109-1427,"org.eclipse.jdt.ui.CompilationUnitEditor",1549436666650
closed,editor,org.eclipse.wst.xml.ui,1.1.202.v201112071516,"org.eclipse.wst.xml.ui.internal.tabletree.XMLMultiPageEditorPart",1549436666650
deactivated,workbench,org.eclipse.ui.workbench,3.7.1.v20120104-1859,"",1549436667650
activated,workbench,org.eclipse.ui.workbench,3.7.1.v20120104-1859,"",1549436679819
opened,editor,org.eclipse.wst.xml.ui,1.1.202.v201112071516,"org.eclipse.wst.xml.ui.internal.tabletree.XMLMultiPageEditorPart",1549436679913
activated,editor,org.eclipse.wst.xml.ui,1.1.202.v201112071516,"org.eclipse.wst.xml.ui.internal.tabletree.XMLMultiPageEditorPart",1549436680022
executed,command,org.eclipse.ui.ide,3.7.0.v20110928-1505,"org.eclipse.ui.navigate.openResource",1549436680022
activated,editor,org.eclipse.jdt.ui,3.7.2.v20120109-1427,"org.eclipse.jdt.ui.CompilationUnitEditor",1549436684646
closed,editor,org.eclipse.wst.xml.ui,1.1.202.v201112071516,"org.eclipse.wst.xml.ui.internal.tabletree.XMLMultiPageEditorPart",1549436684646
deactivated,workbench,org.eclipse.ui.workbench,3.7.1.v20120104-1859,"",1549436685646
activated,view,org.eclipse.ui.console,3.5.100.v20111007_r372,"org.eclipse.ui.console.ConsoleView",1549436700161
activated,workbench,org.eclipse.ui.workbench,3.7.1.v20120104-1859,"",1549436704051
opened,editor,org.eclipse.wst.xml.ui,1.1.202.v201112071516,"org.eclipse.wst.xml.ui.internal.tabletree.XMLMultiPageEditorPart",1549436704144
activated,editor,org.eclipse.wst.xml.ui,1.1.202.v201112071516,"org.eclipse.wst.xml.ui.internal.tabletree.XMLMultiPageEditorPart",1549436704254
opened,editor,org.eclipse.wst.xml.ui,1.1.202.v201112071516,"org.eclipse.wst.xml.ui.internal.tabletree.XMLMultiPageEditorPart",1549436704332
activated,editor,org.eclipse.wst.xml.ui,1.1.202.v201112071516,"org.eclipse.wst.xml.ui.internal.tabletree.XMLMultiPageEditorPart",1549436704363
executed,command,org.eclipse.ui.ide,3.7.0.v20110928-1505,"org.eclipse.ui.navigate.openResource",1549436704363
closed,editor,org.eclipse.wst.xml.ui,1.1.202.v201112071516,"org.eclipse.wst.xml.ui.internal.tabletree.XMLMultiPageEditorPart",1549436729436
deactivated,workbench,org.eclipse.ui.workbench,3.7.1.v20120104-1859,"",1549436730810
activated,workbench,org.eclipse.ui.workbench,3.7.1.v20120104-1859,"",1549436737043
opened,editor,org.eclipse.wst.xml.ui,1.1.202.v201112071516,"org.eclipse.wst.xml.ui.internal.tabletree.XMLMultiPageEditorPart",1549436737137
activated,editor,org.eclipse.wst.xml.ui,1.1.202.v201112071516,"org.eclipse.wst.xml.ui.internal.tabletree.XMLMultiPageEditorPart",1549436737184
opened,editor,org.eclipse.wst.xml.ui,1.1.202.v201112071516,"org.eclipse.wst.xml.ui.internal.tabletree.XMLMultiPageEditorPart",1549436737262
activated,editor,org.eclipse.wst.xml.ui,1.1.202.v201112071516,"org.eclipse.wst.xml.ui.internal.tabletree.XMLMultiPageEditorPart",1549436737309
executed,command,org.eclipse.ui.ide,3.7.0.v20110928-1505,"org.eclipse.ui.navigate.openResource",1549436737309
closed,editor,org.eclipse.wst.xml.ui,1.1.202.v201112071516,"org.eclipse.wst.xml.ui.internal.tabletree.XMLMultiPageEditorPart",1549436739808
activated,editor,org.eclipse.wst.xml.ui,1.1.202.v201112071516,"org.eclipse.wst.xml.ui.internal.tabletree.XMLMultiPageEditorPart",1549436740651
executed,command,org.eclipse.ui,3.7.0.v20110928-1505,"org.eclipse.ui.edit.copy",1549436745494
error,log,,,"Problems occurred when invoking code from plug-in: ""org.eclipse.mylyn.tasks.ui"".",1549436745619
error,log,,,"Task repository link provider failed: ""null""",1549436745619
error,log,,,"Problems occurred when invoking code from plug-in: ""org.eclipse.mylyn.tasks.ui"".",1549436745650
error,log,,,"Task repository link provider failed: ""null""",1549436745650
activated,editor,org.eclipse.wst.xml.ui,1.1.202.v201112071516,"org.eclipse.wst.xml.ui.internal.tabletree.XMLMultiPageEditorPart",1549436746447
deactivated,workbench,org.eclipse.ui.workbench,3.7.1.v20120104-1859,"",1549436747478
executed,command,org.eclipse.ui,3.7.0.v20110928-1505,"org.eclipse.ui.edit.findReplace",1549436747494
executed,command,org.eclipse.ui,3.7.0.v20110928-1505,"org.eclipse.ui.edit.paste",1549436748493
error,log,,,"Problems occurred when invoking code from plug-in: ""org.eclipse.mylyn.tasks.ui"".",1549436748681
error,log,,,"Task repository link provider failed: ""null""",1549436748681
error,log,,,"Problems occurred when invoking code from plug-in: ""org.eclipse.mylyn.tasks.ui"".",1549436748696
error,log,,,"Task repository link provider failed: ""null""",1549436748696
activated,workbench,org.eclipse.ui.workbench,3.7.1.v20120104-1859,"",1549436750774
activated,editor,org.eclipse.wst.xml.ui,1.1.202.v201112071516,"org.eclipse.wst.xml.ui.internal.tabletree.XMLMultiPageEditorPart",1549436779252
closed,editor,org.eclipse.wst.xml.ui,1.1.202.v201112071516,"org.eclipse.wst.xml.ui.internal.tabletree.XMLMultiPageEditorPart",1549436779252
deactivated,workbench,org.eclipse.ui.workbench,3.7.1.v20120104-1859,"",1549436780611
activated,workbench,org.eclipse.ui.workbench,3.7.1.v20120104-1859,"",1549436787000
opened,editor,org.eclipse.jst.jsp.ui,1.1.602.v201112071516,"org.eclipse.jst.jsp.core.jspsource.source",1549436787156
activated,editor,org.eclipse.jst.jsp.ui,1.1.602.v201112071516,"org.eclipse.jst.jsp.core.jspsource.source",1549436787250
opened,editor,org.eclipse.jst.jsp.ui,1.1.602.v201112071516,"org.eclipse.jst.jsp.core.jspsource.source",1549436787369
activated,editor,org.eclipse.jst.jsp.ui,1.1.602.v201112071516,"org.eclipse.jst.jsp.core.jspsource.source",1549436787401
executed,command,org.eclipse.ui.ide,3.7.0.v20110928-1505,"org.eclipse.ui.navigate.openResource",1549436787401
executed,command,org.eclipse.ui,3.7.0.v20110928-1505,"org.eclipse.ui.file.save",1549436806802
error,log,,,"Problems occurred when invoking code from plug-in: ""org.eclipse.mylyn.tasks.ui"".",1549436807708
error,log,,,"Task repository link provider failed: ""null""",1549436807708
error,log,,,"Problems occurred when invoking code from plug-in: ""org.eclipse.mylyn.tasks.ui"".",1549436807708
error,log,,,"Task repository link provider failed: ""null""",1549436807708
deactivated,workbench,org.eclipse.ui.workbench,3.7.1.v20120104-1859,"",1549436810317
activated,workbench,org.eclipse.ui.workbench,3.7.1.v20120104-1859,"",1549436814475
executed,command,org.eclipse.ui,3.7.0.v20110928-1505,"org.eclipse.ui.edit.delete",1549436818496
executed,command,org.eclipse.ui,3.7.0.v20110928-1505,"org.eclipse.ui.file.save",1549436819920
deactivated,workbench,org.eclipse.ui.workbench,3.7.1.v20120104-1859,"",1549436832635
activated,workbench,org.eclipse.ui.workbench,3.7.1.v20120104-1859,"",1549436856544
executed,command,org.eclipse.ui,3.7.0.v20110928-1505,"org.eclipse.ui.edit.selectAll",1549436859715
