what,kind,bundleId,bundleVersion,description,time
activated,perspective,org.eclipse.jst.j2ee.ui,,"org.eclipse.jst.j2ee.J2EEPerspective",1530169619270
started,bundle,org.eclipse.osgi,3.7.2.v20120110-1415,"org.eclipse.osgi",1530169619270
started,bundle,org.eclipse.equinox.simpleconfigurator,1.0.200.v20110815-1438,"org.eclipse.equinox.simpleconfigurator",1530169619270
started,bundle,com.ibm.icu,4.4.2.v20110823,"com.ibm.icu",1530169619286
started,bundle,org.eclipse.compare,3.5.202.R37x_v20111109-0800,"org.eclipse.compare",1530169619286
started,bundle,org.eclipse.compare.core,3.5.200.I20110208-0800,"org.eclipse.compare.core",1530169619286
started,bundle,org.eclipse.core.contenttype,3.4.100.v20110423-0524,"org.eclipse.core.contenttype",1530169619286
started,bundle,org.eclipse.core.databinding.observable,1.4.0.I20110222-0800,"org.eclipse.core.databinding.observable",1530169619286
started,bundle,org.eclipse.core.expressions,3.4.300.v20110228,"org.eclipse.core.expressions",1530169619286
started,bundle,org.eclipse.core.filebuffers,3.5.200.v20110928-1504,"org.eclipse.core.filebuffers",1530169619286
started,bundle,org.eclipse.core.filesystem,1.3.100.v20110423-0524,"org.eclipse.core.filesystem",1530169619286
started,bundle,org.eclipse.core.jobs,3.5.101.v20120113-1953,"org.eclipse.core.jobs",1530169619301
started,bundle,org.eclipse.core.net,1.2.100.I20110511-0800,"org.eclipse.core.net",1530169619301
started,bundle,org.eclipse.core.resources,3.7.101.v20120125-1505,"org.eclipse.core.resources",1530169619301
started,bundle,org.eclipse.core.runtime,3.7.0.v20110110,"org.eclipse.core.runtime",1530169619301
started,bundle,org.eclipse.core.runtime.compatibility,3.2.100.v20100505,"org.eclipse.core.runtime.compatibility",1530169619301
started,bundle,org.eclipse.core.runtime.compatibility.auth,3.2.200.v20110110,"org.eclipse.core.runtime.compatibility.auth",1530169619301
started,bundle,org.eclipse.debug.core,3.7.1.v20111129-2031,"org.eclipse.debug.core",1530169619301
started,bundle,org.eclipse.emf.common,2.7.0.v20120127-1122,"org.eclipse.emf.common",1530169619301
started,bundle,org.eclipse.emf.common.ui,2.7.0.v20120130-0943,"org.eclipse.emf.common.ui",1530169619301
started,bundle,org.eclipse.emf.ecore,2.7.0.v20120127-1122,"org.eclipse.emf.ecore",1530169619301
started,bundle,org.eclipse.emf.ecore.xmi,2.7.0.v20120127-1122,"org.eclipse.emf.ecore.xmi",1530169619333
started,bundle,org.eclipse.emf.edit,2.7.2.v20120130-0943,"org.eclipse.emf.edit",1530169619333
started,bundle,org.eclipse.emf.edit.ui,2.7.0.v20120130-0943,"org.eclipse.emf.edit.ui",1530169619333
started,bundle,org.eclipse.epp.mpc.ui,1.1.1.I20110907-0947,"org.eclipse.epp.mpc.ui",1530169619333
started,bundle,org.eclipse.epp.usagedata.gathering,1.3.1.R201106061540,"org.eclipse.epp.usagedata.gathering",1530169619333
started,bundle,org.eclipse.epp.usagedata.recording,1.3.1.R201106061540,"org.eclipse.epp.usagedata.recording",1530169619333
started,bundle,org.eclipse.equinox.app,1.3.100.v20110321,"org.eclipse.equinox.app",1530169619333
started,bundle,org.eclipse.equinox.common,3.6.0.v20110523,"org.eclipse.equinox.common",1530169619333
started,bundle,org.eclipse.equinox.ds,1.3.1.R37x_v20110701,"org.eclipse.equinox.ds",1530169619333
started,bundle,org.eclipse.equinox.event,1.2.100.v20110502,"org.eclipse.equinox.event",1530169619333
started,bundle,org.eclipse.equinox.p2.core,2.1.1.v20120113-1346,"org.eclipse.equinox.p2.core",1530169619333
started,bundle,org.eclipse.equinox.p2.directorywatcher,1.0.300.v20110815-1419,"org.eclipse.equinox.p2.directorywatcher",1530169619333
started,bundle,org.eclipse.equinox.p2.engine,2.1.1.R37x_v20111003,"org.eclipse.equinox.p2.engine",1530169619333
started,bundle,org.eclipse.equinox.p2.metadata,2.1.0.v20110815-1419,"org.eclipse.equinox.p2.metadata",1530169619333
started,bundle,org.eclipse.equinox.p2.metadata.repository,1.2.0.v20110815-1419,"org.eclipse.equinox.p2.metadata.repository",1530169619333
started,bundle,org.eclipse.equinox.p2.operations,2.1.1.R37x_v20111111,"org.eclipse.equinox.p2.operations",1530169619333
started,bundle,org.eclipse.equinox.p2.reconciler.dropins,1.1.100.v20110815-1419,"org.eclipse.equinox.p2.reconciler.dropins",1530169619348
started,bundle,org.eclipse.equinox.p2.repository,2.1.1.v20120113-1346,"org.eclipse.equinox.p2.repository",1530169619348
started,bundle,org.eclipse.equinox.p2.ui.sdk.scheduler,1.0.100.v20110815-1419,"org.eclipse.equinox.p2.ui.sdk.scheduler",1530169619348
started,bundle,org.eclipse.equinox.p2.updatechecker,1.1.200.v20110815-1419,"org.eclipse.equinox.p2.updatechecker",1530169619348
started,bundle,org.eclipse.equinox.preferences,3.4.2.v20120111-2020,"org.eclipse.equinox.preferences",1530169619348
started,bundle,org.eclipse.equinox.registry,3.5.101.R37x_v20110810-1611,"org.eclipse.equinox.registry",1530169619364
started,bundle,org.eclipse.equinox.security,1.1.1.R37x_v20110822-1018,"org.eclipse.equinox.security",1530169619364
started,bundle,org.eclipse.equinox.util,1.0.300.v20110502,"org.eclipse.equinox.util",1530169619364
started,bundle,org.eclipse.help,3.5.100.v20110426,"org.eclipse.help",1530169619364
started,bundle,org.eclipse.jdt.core,3.7.3.v20120119-1537,"org.eclipse.jdt.core",1530169619364
started,bundle,org.eclipse.jdt.core.manipulation,1.4.0.v20110928-1453,"org.eclipse.jdt.core.manipulation",1530169619380
started,bundle,org.eclipse.jdt.debug,3.7.1.v20111006_r372,"org.eclipse.jdt.debug",1530169619415
started,bundle,org.eclipse.jdt.ui,3.7.2.v20120109-1427,"org.eclipse.jdt.ui",1530169619453
started,bundle,org.eclipse.jem.util,2.1.100.v201103021400,"org.eclipse.jem.util",1530169619453
started,bundle,org.eclipse.jface,3.7.0.v20110928-1505,"org.eclipse.jface",1530169619484
started,bundle,org.eclipse.jsch.core,1.1.300.I20110514-0800,"org.eclipse.jsch.core",1530169619484
started,bundle,org.eclipse.jst.j2ee.ui,1.1.503.v201201190400,"org.eclipse.jst.j2ee.ui",1530169619499
started,bundle,org.eclipse.jst.j2ee.webservice,1.1.400.v201004110600,"org.eclipse.jst.j2ee.webservice",1530169619515
started,bundle,org.eclipse.jst.j2ee.webservice.ui,1.1.500.v201105122000,"org.eclipse.jst.j2ee.webservice.ui",1530169619515
started,bundle,org.eclipse.jst.ws.jaxws.utils,1.0.100.v201201031437,"org.eclipse.jst.ws.jaxws.utils",1530169619515
started,bundle,org.eclipse.mylyn.bugzilla.core,3.6.5.v20120123-0100,"org.eclipse.mylyn.bugzilla.core",1530169619515
started,bundle,org.eclipse.mylyn.bugzilla.ui,3.6.0.v20110608-1400,"org.eclipse.mylyn.bugzilla.ui",1530169619515
started,bundle,org.eclipse.mylyn.commons.identity,0.8.0.v20110608-1400,"org.eclipse.mylyn.commons.identity",1530169619515
started,bundle,org.eclipse.mylyn.commons.net,3.6.0.v20110608-1400,"org.eclipse.mylyn.commons.net",1530169619515
started,bundle,org.eclipse.mylyn.commons.ui,3.6.1.v20110720-0100,"org.eclipse.mylyn.commons.ui",1530169619515
started,bundle,org.eclipse.mylyn.context.core,3.6.1.v20110720-0100,"org.eclipse.mylyn.context.core",1530169619515
started,bundle,org.eclipse.mylyn.context.ui,3.6.1.v20120112-0100,"org.eclipse.mylyn.context.ui",1530169619562
started,bundle,org.eclipse.mylyn.monitor.ui,3.6.0.v20110608-1400,"org.eclipse.mylyn.monitor.ui",1530169619562
started,bundle,org.eclipse.mylyn.tasks.ui,3.6.5.v20120215-0100,"org.eclipse.mylyn.tasks.ui",1530169619593
started,bundle,org.eclipse.mylyn.team.ui,3.6.1.v20110825-0100,"org.eclipse.mylyn.team.ui",1530169619593
started,bundle,org.eclipse.search,3.7.0.v20110928-1504,"org.eclipse.search",1530169619593
started,bundle,org.eclipse.team.core,3.6.0.I20110525-0800,"org.eclipse.team.core",1530169619593
started,bundle,org.eclipse.team.cvs.core,3.3.400.I20110510-0800,"org.eclipse.team.cvs.core",1530169619593
started,bundle,org.eclipse.team.cvs.ui,3.3.401.v20120126-1227,"org.eclipse.team.cvs.ui",1530169619609
started,bundle,org.eclipse.team.ui,3.6.101.R37x_v20111109-0800,"org.eclipse.team.ui",1530169619609
started,bundle,org.eclipse.ui,3.7.0.v20110928-1505,"org.eclipse.ui",1530169619640
started,bundle,org.eclipse.ui.console,3.5.100.v20111007_r372,"org.eclipse.ui.console",1530169619655
started,bundle,org.eclipse.ui.editors,3.7.0.v20110928-1504,"org.eclipse.ui.editors",1530169619655
started,bundle,org.eclipse.ui.forms,3.5.101.v20111011-1919,"org.eclipse.ui.forms",1530169619655
started,bundle,org.eclipse.ui.ide,3.7.0.v20110928-1505,"org.eclipse.ui.ide",1530169619671
started,bundle,org.eclipse.ui.intro,3.4.100.v20110425,"org.eclipse.ui.intro",1530169619671
started,bundle,org.eclipse.ui.intro.universal,3.2.500.v20110510,"org.eclipse.ui.intro.universal",1530169619671
started,bundle,org.eclipse.ui.navigator,3.5.101.v20120106-1355,"org.eclipse.ui.navigator",1530169619671
started,bundle,org.eclipse.ui.navigator.resources,3.4.300.v20110928-1505,"org.eclipse.ui.navigator.resources",1530169619671
started,bundle,org.eclipse.ui.net,1.2.100.v20111208-1155,"org.eclipse.ui.net",1530169619671
started,bundle,org.eclipse.ui.views,3.6.0.v20110928-1505,"org.eclipse.ui.views",1530169619671
started,bundle,org.eclipse.ui.workbench,3.7.1.v20120104-1859,"org.eclipse.ui.workbench",1530169619671
started,bundle,org.eclipse.ui.workbench.texteditor,3.7.0.v20110928-1504,"org.eclipse.ui.workbench.texteditor",1530169619687
started,bundle,org.eclipse.update.configurator,3.3.100.v20100512,"org.eclipse.update.configurator",1530169619687
started,bundle,org.eclipse.update.core,3.2.500.v20110330,"org.eclipse.update.core",1530169619718
started,bundle,org.eclipse.update.scheduler,3.2.300.v20100512,"org.eclipse.update.scheduler",1530169619718
started,bundle,org.eclipse.wst.common.emf,1.2.100.v201101101900,"org.eclipse.wst.common.emf",1530169619718
started,bundle,org.eclipse.wst.common.emfworkbench.integration,1.2.101.v201107140600,"org.eclipse.wst.common.emfworkbench.integration",1530169619734
started,bundle,org.eclipse.wst.common.frameworks,1.2.102.v201201190400,"org.eclipse.wst.common.frameworks",1530169619734
started,bundle,org.eclipse.wst.common.project.facet.core,1.4.201.v201201101553,"org.eclipse.wst.common.project.facet.core",1530169619734
started,bundle,org.eclipse.wst.server.core,1.1.304.v20120208_1420,"org.eclipse.wst.server.core",1530169619734
started,bundle,org.eclipse.wst.server.ui,1.3.0.v20120210_1439,"org.eclipse.wst.server.ui",1530169619734
started,bundle,org.eclipse.wst.web,1.1.501.v201201190400,"org.eclipse.wst.web",1530169619734
started,bundle,org.eclipse.wst.xml.core,1.1.602.v201201091944,"org.eclipse.wst.xml.core",1530169619765
started,bundle,org.eclipse.mylyn.compatibility,2.1.0.v20070927-0900,"org.eclipse.mylyn.compatibility",1530169619765
started,bundle,org.maven.ide.eclipse.mylyn,0.9.5.20080717-1820,"org.maven.ide.eclipse.mylyn",1530169619796
started,bundle,org.springframework.ide.eclipse.aop.core,2.3.0.200912170948-RELEASE,"org.springframework.ide.eclipse.aop.core",1530169619796
started,bundle,org.springframework.ide.eclipse.aop.ui,2.3.0.200912170948-RELEASE,"org.springframework.ide.eclipse.aop.ui",1530169619796
started,bundle,org.springframework.ide.eclipse.beans.core,2.3.0.200912170948-RELEASE,"org.springframework.ide.eclipse.beans.core",1530169619843
started,bundle,org.springframework.ide.eclipse.beans.ui,2.3.0.200912170948-RELEASE,"org.springframework.ide.eclipse.beans.ui",1530169619843
started,bundle,org.springframework.ide.eclipse.core,2.3.0.200912170948-RELEASE,"org.springframework.ide.eclipse.core",1530169619843
started,bundle,org.springframework.ide.eclipse.ui,2.3.0.200912170948-RELEASE,"org.springframework.ide.eclipse.ui",1530169619859
started,bundle,org.zeroturnaround.eclipse.debug,1.2.0.201008061519,"org.zeroturnaround.eclipse.debug",1530169619859
started,bundle,org.zeroturnaround.eclipse32.debug,1.2.0.201008061539,"org.zeroturnaround.eclipse32.debug",1530169619859
started,bundle,org.jboss.ide.eclipse.as.core,2.3.2.v20130112-0201-H153-Final,"org.jboss.ide.eclipse.as.core",1530169619874
started,bundle,org.jboss.ide.eclipse.as.ui,2.3.2.v20130112-0201-H153-Final,"org.jboss.ide.eclipse.as.ui",1530169619874
started,bundle,org.jboss.tools.usage,1.1.0.v20130102-1715-H74-Final,"org.jboss.tools.usage",1530169619874
started,bundle,com.collabnet.subversion.merge,4.1.0,"com.collabnet.subversion.merge",1530169619874
started,bundle,org.tigris.subversion.clientadapter,1.10.3,"org.tigris.subversion.clientadapter",1530169619874
started,bundle,org.tigris.subversion.subclipse.core,1.10.12,"org.tigris.subversion.subclipse.core",1530169619874
started,bundle,org.tigris.subversion.subclipse.mylyn,3.0.0,"org.tigris.subversion.subclipse.mylyn",1530169619874
started,bundle,org.tigris.subversion.subclipse.tools.usage,1.1.0,"org.tigris.subversion.subclipse.tools.usage",1530169619874
started,bundle,org.tigris.subversion.subclipse.ui,1.10.12,"org.tigris.subversion.subclipse.ui",1530169619890
os,sysinfo,,,"win32",1530169619890
arch,sysinfo,,,"x86",1530169619890
ws,sysinfo,,,"win32",1530169619890
locale,sysinfo,,,"en_IN",1530169619890
processors,sysinfo,,,"4",1530169619890
java.runtime.name,sysinfo,,,"Java(TM) SE Runtime Environment",1530169619890
java.runtime.version,sysinfo,,,"1.8.0_72-b15",1530169619890
java.specification.name,sysinfo,,,"Java Platform API Specification",1530169619890
java.specification.vendor,sysinfo,,,"Oracle Corporation",1530169619890
java.specification.version,sysinfo,,,"1.8",1530169619890
java.vendor,sysinfo,,,"Oracle Corporation",1530169619890
java.version,sysinfo,,,"1.8.0_72",1530169619890
java.vm.info,sysinfo,,,"mixed mode",1530169619890
java.vm.name,sysinfo,,,"Java HotSpot(TM) Client VM",1530169619890
java.vm.specification.name,sysinfo,,,"Java Virtual Machine Specification",1530169619890
java.vm.specification.vendor,sysinfo,,,"Oracle Corporation",1530169619890
java.vm.specification.version,sysinfo,,,"1.8",1530169619890
java.vm.vendor,sysinfo,,,"Oracle Corporation",1530169619890
java.vm.version,sysinfo,,,"25.72-b15",1530169619890
error,log,,,"Attempt to redefine project facet action ""jpt.jpa.install"" in plugin org.eclipse.jpt.core.",1530169619937
error,log,,,"Attempt to redefine project facet action ""jpt.jpa.uninstall"" in plugin org.eclipse.jpt.core.",1530169619937
started,bundle,org.eclipse.jst.common.project.facet.core,1.4.200.v201103170302,"org.eclipse.jst.common.project.facet.core",1530169619937
started,bundle,org.eclipse.jst.ws.jaxrs.core,1.0.301.v201108240656,"org.eclipse.jst.ws.jaxrs.core",1530169619968
deactivated,workbench,org.eclipse.ui.workbench,3.7.1.v20120104-1859,"",1530169620030
activated,workbench,org.eclipse.ui.workbench,3.7.1.v20120104-1859,"",1530169621385
deactivated,workbench,org.eclipse.ui.workbench,3.7.1.v20120104-1859,"",1530169631088
started,bundle,org.maven.ide.components.maven_model_edit,1.0.0.200902090938,"org.maven.ide.components.maven_model_edit",1530169650465
started,bundle,org.maven.ide.eclipse,0.9.7.200902090938,"org.maven.ide.eclipse",1530169650512
started,bundle,org.maven.ide.eclipse.jdt,0.9.7.200902090938,"org.maven.ide.eclipse.jdt",1530169650527
started,bundle,org.eclipse.jdt.launching,3.6.1.v20111006_r372,"org.eclipse.jdt.launching",1530169650543
started,bundle,org.eclipse.jst.common.frameworks,1.1.501.v201201190400,"org.eclipse.jst.common.frameworks",1530169651528
started,bundle,org.eclipse.wst.common.core,1.2.0.v200908252030,"org.eclipse.wst.common.core",1530169651653
started,bundle,org.eclipse.wst.common.modulecore,1.2.103.v201201190400,"org.eclipse.wst.common.modulecore",1530169651653
started,bundle,org.eclipse.jst.j2ee.web,1.1.502.v201202090300,"org.eclipse.jst.j2ee.web",1530169651653
started,bundle,org.eclipse.jst.j2ee.core,1.2.102.v201202090300,"org.eclipse.jst.j2ee.core",1530169651731
started,bundle,org.eclipse.jem,2.0.501.v201111030500,"org.eclipse.jem",1530169651794
started,bundle,org.eclipse.wst.common.frameworks.ui,1.2.100.v201105122000,"org.eclipse.wst.common.frameworks.ui",1530169651856
started,bundle,org.eclipse.wst.validation,1.2.303.v201202090300,"org.eclipse.wst.validation",1530169651950
started,bundle,org.eclipse.jst.j2ee,1.1.503.v201202090300,"org.eclipse.jst.j2ee",1530169652184
started,bundle,org.eclipse.jst.servlet.ui,1.1.502.v201202011054,"org.eclipse.jst.servlet.ui",1530169652262
started,bundle,org.tigris.subversion.clientadapter.javahl,1.8.15,"org.tigris.subversion.clientadapter.javahl",1530169652293
started,bundle,org.maven.ide.eclipse.wtp,0.9.7.200902090945,"org.maven.ide.eclipse.wtp",1530169652293
started,bundle,org.tigris.subversion.clientadapter.svnkit,1.8.9,"org.tigris.subversion.clientadapter.svnkit",1530169652309
started,bundle,org.eclipse.jst.jee.ui,1.0.401.v201202011107,"org.eclipse.jst.jee.ui",1530169652325
started,bundle,org.eclipse.jst.j2ee.navigator.ui,1.1.501.v201107261503,"org.eclipse.jst.j2ee.navigator.ui",1530169652340
activated,workbench,org.eclipse.ui.workbench,3.7.1.v20120104-1859,"",1530169653574
executed,command,org.eclipse.ui,3.7.0.v20110928-1505,"org.eclipse.ui.file.import",1530169653590
started,bundle,org.eclipse.pde.core,3.7.1.v20120103_r372,"org.eclipse.pde.core",1530169653834
started,bundle,org.eclipse.wst.jsdt.core,1.1.102.v201111090634,"org.eclipse.wst.jsdt.core",1530169654412
started,bundle,com.jformdesigner,4.0.2,"com.jformdesigner",1530169654927
error,log,,,"Unable to update index for central http://repo1.maven.org/maven2/",1530169655553
error,log,,,"Could not auto-share project cochlear",1530169655631
started,bundle,org.eclipse.equinox.p2.garbagecollector,1.0.200.v20110815-1419,"org.eclipse.equinox.p2.garbagecollector",1530169655693
started,bundle,org.eclipse.core.variables,3.2.500.v20110928-1503,"org.eclipse.core.variables",1530169656303
started,bundle,org.jboss.ide.eclipse.archives.core,3.3.1.v20130102-1730-H94-Final,"org.jboss.ide.eclipse.archives.core",1530169656318
started,bundle,org.jboss.ide.eclipse.archives.ui,3.3.1.v20130102-1730-H94-Final,"org.jboss.ide.eclipse.archives.ui",1530169656318
started,bundle,org.eclipse.jst.ws.jaxws.dom.integration,1.0.101.v201201031437,"org.eclipse.jst.ws.jaxws.dom.integration",1530169656902
started,bundle,org.eclipse.jst.ws.jaxws.dom.ui,1.0.0.v201004171919,"org.eclipse.jst.ws.jaxws.dom.ui",1530169656918
started,bundle,org.eclipse.jpt.common.core,1.0.2.v201111103010,"org.eclipse.jpt.common.core",1530169657839
started,bundle,org.eclipse.jpt.jpa.core,3.0.2.v201201243020,"org.eclipse.jpt.jpa.core",1530169657839
started,bundle,org.eclipse.wst.sse.core,1.1.602.v201112071516,"org.eclipse.wst.sse.core",1530169657980
opened,view,org.eclipse.ui.console,3.5.100.v20111007_r372,"org.eclipse.ui.console.ConsoleView",1530169658230
started,bundle,org.springframework.ide.eclipse.webflow.ui,2.3.0.200912170948-RELEASE,"org.springframework.ide.eclipse.webflow.ui",1530169658777
started,bundle,org.springframework.ide.eclipse.webflow.core,2.3.0.200912170948-RELEASE,"org.springframework.ide.eclipse.webflow.core",1530169659339
started,bundle,org.eclipse.jdt.apt.core,3.3.500.v20110420-1015,"org.eclipse.jdt.apt.core",1530169661573
started,bundle,org.jboss.tools.jmx.core,1.3.1.v20130102-1732-H80-Final,"org.jboss.tools.jmx.core",1530169661682
started,bundle,org.jboss.ide.eclipse.archives.webtools,2.3.2.v20130112-0201-H153-Final,"org.jboss.ide.eclipse.archives.webtools",1530169661760
started,bundle,org.jboss.ide.eclipse.as.wtp.core,2.3.2.v20130112-0201-H153-Final,"org.jboss.ide.eclipse.as.wtp.core",1530169661760
started,bundle,org.jboss.ide.eclipse.as.ui.mbeans,2.3.2.v20130112-0201-H153-Final,"org.jboss.ide.eclipse.as.ui.mbeans",1530169661885
started,bundle,org.eclipse.jst.server.core,1.2.202.v20110419,"org.eclipse.jst.server.core",1530169661901
started,bundle,org.eclipse.wst.ws.service.policy.ui,1.0.300.v201108240515,"org.eclipse.wst.ws.service.policy.ui",1530169661979
started,bundle,org.eclipse.wst.ws.service.policy,1.0.303.v201009221810,"org.eclipse.wst.ws.service.policy",1530169661979
started,bundle,org.eclipse.wst.command.env,1.0.409.v201004211805,"org.eclipse.wst.command.env",1530169662057
started,bundle,org.eclipse.wst.ws,1.1.203.v201004211805,"org.eclipse.wst.ws",1530169662057
started,bundle,org.maven.ide.eclipse.editor,0.9.7.200902090944,"org.maven.ide.eclipse.editor",1530169662544
started,bundle,org.maven.ide.eclipse.refactoring,0.9.7.200902090944,"org.maven.ide.eclipse.refactoring",1530169662607
started,bundle,org.eclipse.ltk.core.refactoring,3.5.201.r372_v20111101-0700,"org.eclipse.ltk.core.refactoring",1530169662892
started,bundle,org.eclipse.ltk.ui.refactoring,3.6.0.v20110928-1453,"org.eclipse.ltk.ui.refactoring",1530169662892
started,bundle,org.eclipse.wst.css.core,1.1.501.v201111292150,"org.eclipse.wst.css.core",1530169664846
started,bundle,org.eclipse.jst.jsp.core,1.2.402.v201112071853,"org.eclipse.jst.jsp.core",1530169665080
started,bundle,org.eclipse.wst.html.core,1.1.502.v201202091936,"org.eclipse.wst.html.core",1530169668032
started,bundle,org.eclipse.jst.jee,1.0.402.v201202021530,"org.eclipse.jst.jee",1530169668173
started,bundle,org.eclipse.wst.common.uriresolver,1.1.401.v201004280700,"org.eclipse.wst.common.uriresolver",1530169668251
executed,command,org.eclipse.ui,3.7.0.v20110928-1505,"org.eclipse.ui.file.refresh",1530169673381
deactivated,workbench,org.eclipse.ui.workbench,3.7.1.v20120104-1859,"",1530169673662
activated,workbench,org.eclipse.ui.workbench,3.7.1.v20120104-1859,"",1530169674099
activated,view,org.eclipse.ui.console,3.5.100.v20111007_r372,"org.eclipse.ui.console.ConsoleView",1530169675073
activated,view,org.eclipse.ui.navigator.resources,3.4.300.v20110928-1505,"org.eclipse.ui.navigator.ProjectExplorer",1530169675104
started,bundle,org.eclipse.wst.xsl.core,1.1.100.v201102270516,"org.eclipse.wst.xsl.core",1530169675604
started,bundle,org.eclipse.wst.xsl.exslt.core,1.0.0.v201005240426,"org.eclipse.wst.xsl.exslt.core",1530169675604
started,bundle,org.eclipse.wst.dtd.core,1.1.501.v201107252021,"org.eclipse.wst.dtd.core",1530169675635
started,bundle,org.eclipse.wst.internet.cache,1.0.400.v201004280700,"org.eclipse.wst.internet.cache",1530169676354
executed,command,org.eclipse.ui,3.7.0.v20110928-1505,"org.eclipse.ui.file.refresh",1530169677663
deactivated,workbench,org.eclipse.ui.workbench,3.7.1.v20120104-1859,"",1530169677928
activated,workbench,org.eclipse.ui.workbench,3.7.1.v20120104-1859,"",1530169678116
opened,editor,org.eclipse.jdt.ui,3.7.2.v20120109-1427,"org.eclipse.jdt.ui.CompilationUnitEditor",1530169692904
activated,editor,org.eclipse.jdt.ui,3.7.2.v20120109-1427,"org.eclipse.jdt.ui.CompilationUnitEditor",1530169693232
started,bundle,org.eclipse.jdt.junit,3.7.0.v20110928-1453,"org.eclipse.jdt.junit",1530169696821
started,bundle,org.eclipse.pde.launching,3.6.0.v20110506,"org.eclipse.pde.launching",1530169700193
started,bundle,org.eclipse.ui.views.log,1.0.200.v20110404,"org.eclipse.ui.views.log",1530169700208
started,bundle,org.eclipse.pde.ui,3.6.100.v20120103_r372,"org.eclipse.pde.ui",1530169700208
activated,view,org.eclipse.ui.navigator.resources,3.4.300.v20110928-1505,"org.eclipse.ui.navigator.ProjectExplorer",1530169702455
deactivated,workbench,org.eclipse.ui.workbench,3.7.1.v20120104-1859,"",1530169707631
activated,workbench,org.eclipse.ui.workbench,3.7.1.v20120104-1859,"",1530169714176
executed,command,org.eclipse.ui,3.7.0.v20110928-1505,"org.eclipse.ui.file.properties",1530169714176
started,bundle,org.eclipse.wst.sse.ui,1.3.2.v201201041522,"org.eclipse.wst.sse.ui",1530169741508
started,bundle,org.eclipse.wst.xml.ui,1.1.202.v201112071516,"org.eclipse.wst.xml.ui",1530169741539
started,bundle,org.eclipse.wst.html.ui,1.0.602.v201202091936,"org.eclipse.wst.html.ui",1530169741539
started,bundle,org.eclipse.jst.jsp.ui,1.1.602.v201112071516,"org.eclipse.jst.jsp.ui",1530169741539
started,bundle,org.eclipse.debug.ui,3.7.102.v20111129-1423_r372,"org.eclipse.debug.ui",1530169741664
started,bundle,org.springframework.ide.eclipse.beans.ui.editor,2.3.0.200912170948-RELEASE,"org.springframework.ide.eclipse.beans.ui.editor",1530169741729
started,bundle,org.springframework.ide.eclipse.webflow.ui.editor,2.3.0.200912170948-RELEASE,"org.springframework.ide.eclipse.webflow.ui.editor",1530169741729
started,bundle,org.eclipse.wst.jsdt.web.support.jsp,1.0.400.v201102241833,"org.eclipse.wst.jsdt.web.support.jsp",1530169741755
started,bundle,org.eclipse.wst.jsdt.web.ui,1.0.401.v201108152113,"org.eclipse.wst.jsdt.web.ui",1530169741771
started,bundle,org.eclipse.wst.css.ui,1.0.601.v201201101544,"org.eclipse.wst.css.ui",1530169741849
started,bundle,org.eclipse.wst.jsdt.manipulation,1.0.300.v201104272153,"org.eclipse.wst.jsdt.manipulation",1530169742161
started,bundle,org.eclipse.wst.jsdt.ui,1.1.102.v201201131900,"org.eclipse.wst.jsdt.ui",1530169742161
started,bundle,org.eclipse.wst.dtd.ui,1.0.600.v201103171359,"org.eclipse.wst.dtd.ui",1530169742224
started,bundle,org.eclipse.wst.jsdt.web.core,1.0.401.v201108152113,"org.eclipse.wst.jsdt.web.core",1530169742224
opened,editor,org.eclipse.jst.jsp.ui,1.1.602.v201112071516,"org.eclipse.jst.jsp.core.jspsource.source",1530169742333
started,bundle,org.eclipse.wst.jsdt.debug.ui,1.0.101.v201201112313,"org.eclipse.wst.jsdt.debug.ui",1530169742614
activated,editor,org.eclipse.jst.jsp.ui,1.1.602.v201112071516,"org.eclipse.jst.jsp.core.jspsource.source",1530169742677
started,bundle,org.eclipse.jem.workbench,2.0.400.v201104251400,"org.eclipse.jem.workbench",1530169743708
executed,command,org.eclipse.ui,3.7.0.v20110928-1505,"org.eclipse.ui.edit.copy",1530169858379
deactivated,workbench,org.eclipse.ui.workbench,3.7.1.v20120104-1859,"",1530169859496
activated,workbench,org.eclipse.ui.workbench,3.7.1.v20120104-1859,"",1530169877278
started,bundle,org.eclipse.jst.jsf.common,1.2.3.v201104061039,"org.eclipse.jst.jsf.common",1530169885168
started,bundle,org.eclipse.jst.jsf.core,1.3.105.v201108261005,"org.eclipse.jst.jsf.core",1530169885177
started,bundle,org.eclipse.jst.jsf.facelet.ui,1.0.1.v201104032306,"org.eclipse.jst.jsf.facelet.ui",1530169885177
started,bundle,org.eclipse.jst.jsf.ui,1.3.2.v201104251204,"org.eclipse.jst.jsf.ui",1530169885203
executed,command,org.eclipse.ui,3.7.0.v20110928-1505,"org.eclipse.ui.edit.copy",1530169890556
deactivated,workbench,org.eclipse.ui.workbench,3.7.1.v20120104-1859,"",1530169892866
activated,workbench,org.eclipse.ui.workbench,3.7.1.v20120104-1859,"",1530170132263
executed,command,org.eclipse.ui,3.7.0.v20110928-1505,"org.eclipse.ui.edit.copy",1530170141085
started,bundle,org.eclipse.mylyn.java.tasks,3.6.0.v20110608-1400,"org.eclipse.mylyn.java.tasks",1530170141568
