0:0:0:0:0:0:0:1 - - [06/Jan/2018:10:13:20 +0530] "GET /cochlear/ HTTP/1.1" 200 2762
0:0:0:0:0:0:0:1 - - [06/Jan/2018:10:13:20 +0530] "GET /favicon.ico HTTP/1.1" 404 -
0:0:0:0:0:0:0:1 - - [06/Jan/2018:10:13:22 +0530] "POST /cochlear/admin/login/login.do;jsessionid=B20A305EEA5F00B7345433FF05859CB1 HTTP/1.1" 302 -
0:0:0:0:0:0:0:1 - - [06/Jan/2018:10:13:22 +0530] "GET /cochlear/admin/dashboard/view.do HTTP/1.1" 200 40591
0:0:0:0:0:0:0:1 - - [06/Jan/2018:10:13:22 +0530] "GET /cochlear/template/css/bootstrap.min.css HTTP/1.1" 304 -
0:0:0:0:0:0:0:1 - - [06/Jan/2018:10:13:22 +0530] "GET /cochlear/template/css/font-awesome.min.css HTTP/1.1" 304 -
0:0:0:0:0:0:0:1 - - [06/Jan/2018:10:13:22 +0530] "GET /cochlear/template/css/prettyPhoto.css HTTP/1.1" 304 -
0:0:0:0:0:0:0:1 - - [06/Jan/2018:10:13:22 +0530] "GET /cochlear/template/css/animate.css HTTP/1.1" 304 -
0:0:0:0:0:0:0:1 - - [06/Jan/2018:10:13:22 +0530] "GET /cochlear/template/css/responsive.css HTTP/1.1" 304 -
0:0:0:0:0:0:0:1 - - [06/Jan/2018:10:13:22 +0530] "GET /cochlear/template/css/price-range.css HTTP/1.1" 304 -
0:0:0:0:0:0:0:1 - - [06/Jan/2018:10:13:22 +0530] "GET /cochlear/template/css/main.css HTTP/1.1" 304 -
0:0:0:0:0:0:0:1 - - [06/Jan/2018:10:13:22 +0530] "GET /cochlear/template/js/jquery.js HTTP/1.1" 304 -
0:0:0:0:0:0:0:1 - - [06/Jan/2018:10:13:22 +0530] "GET /cochlear/template/js/bootstrap.min.js HTTP/1.1" 304 -
0:0:0:0:0:0:0:1 - - [06/Jan/2018:10:13:22 +0530] "GET /cochlear/template/js/jquery.prettyPhoto.js HTTP/1.1" 304 -
0:0:0:0:0:0:0:1 - - [06/Jan/2018:10:13:22 +0530] "GET /cochlear/template/images/home/logo.png HTTP/1.1" 304 -
0:0:0:0:0:0:0:1 - - [06/Jan/2018:10:13:22 +0530] "GET /cochlear/template/js/jquery.scrollUp.min.js HTTP/1.1" 304 -
0:0:0:0:0:0:0:1 - - [06/Jan/2018:10:13:22 +0530] "GET /cochlear/template/js/price-range.js HTTP/1.1" 304 -
0:0:0:0:0:0:0:1 - - [06/Jan/2018:10:13:22 +0530] "GET /cochlear/template/js/main.js HTTP/1.1" 304 -
0:0:0:0:0:0:0:1 - - [06/Jan/2018:10:13:22 +0530] "GET /cochlear/template/images/home/girl2.jpg HTTP/1.1" 304 -
0:0:0:0:0:0:0:1 - - [06/Jan/2018:10:13:22 +0530] "GET /cochlear/template/images/home/girl1.jpg HTTP/1.1" 304 -
0:0:0:0:0:0:0:1 - - [06/Jan/2018:10:13:22 +0530] "GET /cochlear/template/images/home/pricing.png HTTP/1.1" 304 -
0:0:0:0:0:0:0:1 - - [06/Jan/2018:10:13:22 +0530] "GET /cochlear/template/images/home/girl3.jpg HTTP/1.1" 304 -
0:0:0:0:0:0:0:1 - - [06/Jan/2018:10:13:22 +0530] "GET /cochlear/template/images/home/product3.jpg HTTP/1.1" 304 -
0:0:0:0:0:0:0:1 - - [06/Jan/2018:10:13:22 +0530] "GET /cochlear/template/images/home/product1.jpg HTTP/1.1" 304 -
0:0:0:0:0:0:0:1 - - [06/Jan/2018:10:13:22 +0530] "GET /cochlear/template/images/home/product2.jpg HTTP/1.1" 304 -
0:0:0:0:0:0:0:1 - - [06/Jan/2018:10:13:22 +0530] "GET /cochlear/template/images/home/shipping.jpg HTTP/1.1" 304 -
0:0:0:0:0:0:0:1 - - [06/Jan/2018:10:13:22 +0530] "GET /cochlear/template/images/home/sale.png HTTP/1.1" 304 -
0:0:0:0:0:0:0:1 - - [06/Jan/2018:10:13:22 +0530] "GET /cochlear/template/images/home/product6.jpg HTTP/1.1" 304 -
0:0:0:0:0:0:0:1 - - [06/Jan/2018:10:13:22 +0530] "GET /cochlear/template/images/home/product4.jpg HTTP/1.1" 304 -
0:0:0:0:0:0:0:1 - - [06/Jan/2018:10:13:22 +0530] "GET /cochlear/template/fonts/fontawesome-webfont.woff?v=4.0.3 HTTP/1.1" 304 -
0:0:0:0:0:0:0:1 - - [06/Jan/2018:10:13:23 +0530] "GET /cochlear/template/images/home/product5.jpg HTTP/1.1" 304 -
0:0:0:0:0:0:0:1 - - [06/Jan/2018:10:13:23 +0530] "GET /cochlear/template/images/home/gallery1.jpg HTTP/1.1" 304 -
0:0:0:0:0:0:0:1 - - [06/Jan/2018:10:13:23 +0530] "GET /cochlear/template/images/home/new.png HTTP/1.1" 304 -
0:0:0:0:0:0:0:1 - - [06/Jan/2018:10:13:23 +0530] "GET /cochlear/template/images/home/recommend3.jpg HTTP/1.1" 304 -
0:0:0:0:0:0:0:1 - - [06/Jan/2018:10:13:23 +0530] "GET /cochlear/template/images/home/recommend2.jpg HTTP/1.1" 304 -
0:0:0:0:0:0:0:1 - - [06/Jan/2018:10:13:23 +0530] "GET /cochlear/template/images/home/gallery4.jpg HTTP/1.1" 304 -
0:0:0:0:0:0:0:1 - - [06/Jan/2018:10:13:23 +0530] "GET /cochlear/template/images/home/recommend1.jpg HTTP/1.1" 304 -
0:0:0:0:0:0:0:1 - - [06/Jan/2018:10:13:23 +0530] "GET /cochlear/template/images/home/gallery3.jpg HTTP/1.1" 304 -
0:0:0:0:0:0:0:1 - - [06/Jan/2018:10:13:23 +0530] "GET /cochlear/template/images/home/gallery2.jpg HTTP/1.1" 304 -
0:0:0:0:0:0:0:1 - - [06/Jan/2018:10:13:23 +0530] "GET /cochlear/template/images/home/iframe1.png HTTP/1.1" 304 -
0:0:0:0:0:0:0:1 - - [06/Jan/2018:10:13:23 +0530] "GET /cochlear/template/images/home/iframe3.png HTTP/1.1" 304 -
0:0:0:0:0:0:0:1 - - [06/Jan/2018:10:13:23 +0530] "GET /cochlear/template/images/home/iframe2.png HTTP/1.1" 304 -
0:0:0:0:0:0:0:1 - - [06/Jan/2018:10:13:23 +0530] "GET /cochlear/template/images/home/iframe4.png HTTP/1.1" 304 -
0:0:0:0:0:0:0:1 - - [06/Jan/2018:10:13:23 +0530] "GET /cochlear/template/images/home/searchicon.png HTTP/1.1" 304 -
0:0:0:0:0:0:0:1 - - [06/Jan/2018:10:13:23 +0530] "GET /cochlear/template/images/home/map.png HTTP/1.1" 304 -
0:0:0:0:0:0:0:1 - - [06/Jan/2018:11:04:01 +0530] "GET /cochlear/ HTTP/1.1" 200 2718
0:0:0:0:0:0:0:1 - - [06/Jan/2018:11:04:09 +0530] "POST /cochlear/admin/login/login.do HTTP/1.1" 302 -
0:0:0:0:0:0:0:1 - - [06/Jan/2018:11:04:10 +0530] "GET /cochlear/admin/dashboard/view.do HTTP/1.1" 200 40615
0:0:0:0:0:0:0:1 - - [06/Jan/2018:11:04:16 +0530] "GET /cochlear/admin/productsku/add.do HTTP/1.1" 200 14150
0:0:0:0:0:0:0:1 - - [06/Jan/2018:11:04:47 +0530] "GET /cochlear/admin/productsku/add.do HTTP/1.1" 200 14150
0:0:0:0:0:0:0:1 - - [06/Jan/2018:11:36:47 +0530] "GET /cochlear/ HTTP/1.1" 200 2718
0:0:0:0:0:0:0:1 - - [06/Jan/2018:11:36:51 +0530] "POST /cochlear/admin/login/login.do HTTP/1.1" 302 -
0:0:0:0:0:0:0:1 - - [06/Jan/2018:11:36:52 +0530] "GET /cochlear/admin/dashboard/view.do HTTP/1.1" 200 40615
0:0:0:0:0:0:0:1 - - [06/Jan/2018:11:36:55 +0530] "GET /cochlear/admin/productsku/add.do HTTP/1.1" 200 14181
0:0:0:0:0:0:0:1 - - [06/Jan/2018:12:13:45 +0530] "GET /cochlear HTTP/1.1" 302 -
0:0:0:0:0:0:0:1 - - [06/Jan/2018:12:13:46 +0530] "GET /cochlear/ HTTP/1.1" 200 2718
0:0:0:0:0:0:0:1 - - [06/Jan/2018:12:13:49 +0530] "POST /cochlear/admin/login/login.do HTTP/1.1" 302 -
0:0:0:0:0:0:0:1 - - [06/Jan/2018:12:13:49 +0530] "GET /cochlear/template/css/prettyPhoto.css HTTP/1.1" 304 -
0:0:0:0:0:0:0:1 - - [06/Jan/2018:12:13:49 +0530] "GET /cochlear/template/css/font-awesome.min.css HTTP/1.1" 304 -
0:0:0:0:0:0:0:1 - - [06/Jan/2018:12:13:49 +0530] "GET /cochlear/template/css/responsive.css HTTP/1.1" 304 -
0:0:0:0:0:0:0:1 - - [06/Jan/2018:12:13:49 +0530] "GET /cochlear/template/css/animate.css HTTP/1.1" 304 -
0:0:0:0:0:0:0:1 - - [06/Jan/2018:12:13:49 +0530] "GET /cochlear/template/css/bootstrap.min.css HTTP/1.1" 304 -
0:0:0:0:0:0:0:1 - - [06/Jan/2018:12:13:50 +0530] "GET /cochlear/template/css/price-range.css HTTP/1.1" 304 -
0:0:0:0:0:0:0:1 - - [06/Jan/2018:12:13:50 +0530] "GET /cochlear/template/css/main.css HTTP/1.1" 304 -
0:0:0:0:0:0:0:1 - - [06/Jan/2018:12:13:50 +0530] "GET /cochlear/template/images/home/logo.png HTTP/1.1" 304 -
0:0:0:0:0:0:0:1 - - [06/Jan/2018:12:13:50 +0530] "GET /cochlear/template/fonts/fontawesome-webfont.woff?v=4.0.3 HTTP/1.1" 304 -
0:0:0:0:0:0:0:1 - - [06/Jan/2018:12:13:50 +0530] "GET /cochlear/template/images/home/searchicon.png HTTP/1.1" 304 -
0:0:0:0:0:0:0:1 - - [06/Jan/2018:12:13:50 +0530] "GET /cochlear/template/images/home/girl2.jpg HTTP/1.1" 304 -
0:0:0:0:0:0:0:1 - - [06/Jan/2018:12:13:50 +0530] "GET /cochlear/template/images/home/pricing.png HTTP/1.1" 304 -
0:0:0:0:0:0:0:1 - - [06/Jan/2018:12:13:50 +0530] "GET /cochlear/template/images/home/shipping.jpg HTTP/1.1" 304 -
0:0:0:0:0:0:0:1 - - [06/Jan/2018:12:13:50 +0530] "GET /cochlear/template/images/home/girl3.jpg HTTP/1.1" 304 -
0:0:0:0:0:0:0:1 - - [06/Jan/2018:12:13:50 +0530] "GET /cochlear/template/images/home/product1.jpg HTTP/1.1" 304 -
0:0:0:0:0:0:0:1 - - [06/Jan/2018:12:13:50 +0530] "GET /cochlear/admin/dashboard/view.do HTTP/1.1" 200 40615
0:0:0:0:0:0:0:1 - - [06/Jan/2018:12:13:50 +0530] "GET /cochlear/template/images/home/girl1.jpg HTTP/1.1" 304 -
0:0:0:0:0:0:0:1 - - [06/Jan/2018:12:13:50 +0530] "GET /cochlear/template/images/home/product2.jpg HTTP/1.1" 304 -
0:0:0:0:0:0:0:1 - - [06/Jan/2018:12:13:50 +0530] "GET /cochlear/template/images/home/product3.jpg HTTP/1.1" 304 -
0:0:0:0:0:0:0:1 - - [06/Jan/2018:12:13:50 +0530] "GET /cochlear/template/images/home/product4.jpg HTTP/1.1" 304 -
0:0:0:0:0:0:0:1 - - [06/Jan/2018:12:13:50 +0530] "GET /cochlear/template/js/jquery.scrollUp.min.js HTTP/1.1" 304 -
0:0:0:0:0:0:0:1 - - [06/Jan/2018:12:13:50 +0530] "GET /cochlear/template/js/price-range.js HTTP/1.1" 304 -
0:0:0:0:0:0:0:1 - - [06/Jan/2018:12:13:50 +0530] "GET /cochlear/template/js/jquery.js HTTP/1.1" 304 -
0:0:0:0:0:0:0:1 - - [06/Jan/2018:12:13:50 +0530] "GET /cochlear/template/js/jquery.prettyPhoto.js HTTP/1.1" 304 -
0:0:0:0:0:0:0:1 - - [06/Jan/2018:12:13:50 +0530] "GET /cochlear/template/js/main.js HTTP/1.1" 304 -
0:0:0:0:0:0:0:1 - - [06/Jan/2018:12:13:50 +0530] "GET /cochlear/template/images/home/new.png HTTP/1.1" 304 -
0:0:0:0:0:0:0:1 - - [06/Jan/2018:12:13:50 +0530] "GET /cochlear/template/images/home/product5.jpg HTTP/1.1" 304 -
0:0:0:0:0:0:0:1 - - [06/Jan/2018:12:13:50 +0530] "GET /cochlear/template/images/home/sale.png HTTP/1.1" 304 -
0:0:0:0:0:0:0:1 - - [06/Jan/2018:12:13:50 +0530] "GET /cochlear/template/images/home/product6.jpg HTTP/1.1" 304 -
0:0:0:0:0:0:0:1 - - [06/Jan/2018:12:13:50 +0530] "GET /cochlear/template/images/home/gallery3.jpg HTTP/1.1" 304 -
0:0:0:0:0:0:0:1 - - [06/Jan/2018:12:13:50 +0530] "GET /cochlear/template/images/home/gallery1.jpg HTTP/1.1" 304 -
0:0:0:0:0:0:0:1 - - [06/Jan/2018:12:13:50 +0530] "GET /cochlear/template/images/home/gallery2.jpg HTTP/1.1" 304 -
0:0:0:0:0:0:0:1 - - [06/Jan/2018:12:13:50 +0530] "GET /cochlear/template/images/home/gallery4.jpg HTTP/1.1" 304 -
0:0:0:0:0:0:0:1 - - [06/Jan/2018:12:13:50 +0530] "GET /cochlear/template/js/bootstrap.min.js HTTP/1.1" 304 -
0:0:0:0:0:0:0:1 - - [06/Jan/2018:12:13:50 +0530] "GET /cochlear/template/images/home/recommend1.jpg HTTP/1.1" 304 -
0:0:0:0:0:0:0:1 - - [06/Jan/2018:12:13:50 +0530] "GET /cochlear/template/images/home/recommend2.jpg HTTP/1.1" 304 -
0:0:0:0:0:0:0:1 - - [06/Jan/2018:12:13:50 +0530] "GET /cochlear/template/images/home/recommend3.jpg HTTP/1.1" 304 -
0:0:0:0:0:0:0:1 - - [06/Jan/2018:12:13:50 +0530] "GET /cochlear/template/images/home/iframe1.png HTTP/1.1" 304 -
0:0:0:0:0:0:0:1 - - [06/Jan/2018:12:13:50 +0530] "GET /cochlear/template/images/home/iframe2.png HTTP/1.1" 304 -
0:0:0:0:0:0:0:1 - - [06/Jan/2018:12:13:50 +0530] "GET /cochlear/template/images/home/iframe3.png HTTP/1.1" 304 -
0:0:0:0:0:0:0:1 - - [06/Jan/2018:12:13:50 +0530] "GET /cochlear/template/images/home/iframe4.png HTTP/1.1" 304 -
0:0:0:0:0:0:0:1 - - [06/Jan/2018:12:13:50 +0530] "GET /cochlear/template/images/home/map.png HTTP/1.1" 304 -
0:0:0:0:0:0:0:1 - - [06/Jan/2018:12:13:52 +0530] "GET /cochlear/admin/productsku/add.do HTTP/1.1" 200 14504
0:0:0:0:0:0:0:1 - - [06/Jan/2018:12:19:25 +0530] "GET /cochlear/ HTTP/1.1" 200 2718
0:0:0:0:0:0:0:1 - - [06/Jan/2018:12:19:28 +0530] "POST /cochlear/admin/login/login.do HTTP/1.1" 302 -
0:0:0:0:0:0:0:1 - - [06/Jan/2018:12:19:29 +0530] "GET /cochlear/admin/dashboard/view.do HTTP/1.1" 200 40615
0:0:0:0:0:0:0:1 - - [06/Jan/2018:12:19:30 +0530] "GET /cochlear/admin/productsku/add.do HTTP/1.1" 200 14615
0:0:0:0:0:0:0:1 - - [06/Jan/2018:12:24:12 +0530] "GET /cochlear/admin/productsku/index.html HTTP/1.1" 404 2718
0:0:0:0:0:0:0:1 - - [06/Jan/2018:12:24:14 +0530] "POST /cochlear/admin/login/login.do HTTP/1.1" 302 -
0:0:0:0:0:0:0:1 - - [06/Jan/2018:12:24:14 +0530] "GET /cochlear/admin/dashboard/view.do HTTP/1.1" 200 40615
0:0:0:0:0:0:0:1 - - [06/Jan/2018:15:11:01 +0530] "GET /cochlear/ HTTP/1.1" 200 2718
0:0:0:0:0:0:0:1 - - [06/Jan/2018:15:11:03 +0530] "POST /cochlear/admin/login/login.do HTTP/1.1" 302 -
0:0:0:0:0:0:0:1 - - [06/Jan/2018:15:11:03 +0530] "GET /cochlear/template/css/font-awesome.min.css HTTP/1.1" 304 -
0:0:0:0:0:0:0:1 - - [06/Jan/2018:15:11:03 +0530] "GET /cochlear/template/css/bootstrap.min.css HTTP/1.1" 304 -
0:0:0:0:0:0:0:1 - - [06/Jan/2018:15:11:03 +0530] "GET /cochlear/template/css/prettyPhoto.css HTTP/1.1" 304 -
0:0:0:0:0:0:0:1 - - [06/Jan/2018:15:11:03 +0530] "GET /cochlear/template/css/price-range.css HTTP/1.1" 304 -
0:0:0:0:0:0:0:1 - - [06/Jan/2018:15:11:03 +0530] "GET /cochlear/template/css/responsive.css HTTP/1.1" 304 -
0:0:0:0:0:0:0:1 - - [06/Jan/2018:15:11:03 +0530] "GET /cochlear/template/css/main.css HTTP/1.1" 304 -
0:0:0:0:0:0:0:1 - - [06/Jan/2018:15:11:03 +0530] "GET /cochlear/template/images/home/logo.png HTTP/1.1" 304 -
0:0:0:0:0:0:0:1 - - [06/Jan/2018:15:11:03 +0530] "GET /cochlear/template/css/animate.css HTTP/1.1" 304 -
0:0:0:0:0:0:0:1 - - [06/Jan/2018:15:11:03 +0530] "GET /cochlear/template/fonts/fontawesome-webfont.woff?v=4.0.3 HTTP/1.1" 304 -
0:0:0:0:0:0:0:1 - - [06/Jan/2018:15:11:03 +0530] "GET /cochlear/template/images/home/searchicon.png HTTP/1.1" 304 -
0:0:0:0:0:0:0:1 - - [06/Jan/2018:15:11:03 +0530] "GET /cochlear/template/images/home/pricing.png HTTP/1.1" 304 -
0:0:0:0:0:0:0:1 - - [06/Jan/2018:15:11:03 +0530] "GET /cochlear/template/images/home/girl2.jpg HTTP/1.1" 304 -
0:0:0:0:0:0:0:1 - - [06/Jan/2018:15:11:03 +0530] "GET /cochlear/template/images/home/shipping.jpg HTTP/1.1" 304 -
0:0:0:0:0:0:0:1 - - [06/Jan/2018:15:11:03 +0530] "GET /cochlear/template/images/home/girl3.jpg HTTP/1.1" 304 -
0:0:0:0:0:0:0:1 - - [06/Jan/2018:15:11:03 +0530] "GET /cochlear/template/images/home/product1.jpg HTTP/1.1" 304 -
0:0:0:0:0:0:0:1 - - [06/Jan/2018:15:11:03 +0530] "GET /cochlear/admin/dashboard/view.do HTTP/1.1" 200 40615
0:0:0:0:0:0:0:1 - - [06/Jan/2018:15:11:03 +0530] "GET /cochlear/template/images/home/girl1.jpg HTTP/1.1" 304 -
0:0:0:0:0:0:0:1 - - [06/Jan/2018:15:11:03 +0530] "GET /cochlear/template/images/home/product2.jpg HTTP/1.1" 304 -
0:0:0:0:0:0:0:1 - - [06/Jan/2018:15:11:03 +0530] "GET /cochlear/template/images/home/product3.jpg HTTP/1.1" 304 -
0:0:0:0:0:0:0:1 - - [06/Jan/2018:15:11:03 +0530] "GET /cochlear/template/js/bootstrap.min.js HTTP/1.1" 304 -
0:0:0:0:0:0:0:1 - - [06/Jan/2018:15:11:03 +0530] "GET /cochlear/template/js/main.js HTTP/1.1" 304 -
0:0:0:0:0:0:0:1 - - [06/Jan/2018:15:11:03 +0530] "GET /cochlear/template/js/jquery.js HTTP/1.1" 304 -
0:0:0:0:0:0:0:1 - - [06/Jan/2018:15:11:03 +0530] "GET /cochlear/template/js/jquery.prettyPhoto.js HTTP/1.1" 304 -
0:0:0:0:0:0:0:1 - - [06/Jan/2018:15:11:03 +0530] "GET /cochlear/template/images/home/product4.jpg HTTP/1.1" 304 -
0:0:0:0:0:0:0:1 - - [06/Jan/2018:15:11:03 +0530] "GET /cochlear/template/js/price-range.js HTTP/1.1" 304 -
0:0:0:0:0:0:0:1 - - [06/Jan/2018:15:11:03 +0530] "GET /cochlear/template/images/home/new.png HTTP/1.1" 304 -
0:0:0:0:0:0:0:1 - - [06/Jan/2018:15:11:03 +0530] "GET /cochlear/template/images/home/product5.jpg HTTP/1.1" 304 -
0:0:0:0:0:0:0:1 - - [06/Jan/2018:15:11:03 +0530] "GET /cochlear/template/js/jquery.scrollUp.min.js HTTP/1.1" 304 -
0:0:0:0:0:0:0:1 - - [06/Jan/2018:15:11:03 +0530] "GET /cochlear/template/images/home/sale.png HTTP/1.1" 304 -
0:0:0:0:0:0:0:1 - - [06/Jan/2018:15:11:03 +0530] "GET /cochlear/template/images/home/product6.jpg HTTP/1.1" 304 -
0:0:0:0:0:0:0:1 - - [06/Jan/2018:15:11:03 +0530] "GET /cochlear/template/images/home/gallery1.jpg HTTP/1.1" 304 -
0:0:0:0:0:0:0:1 - - [06/Jan/2018:15:11:03 +0530] "GET /cochlear/template/images/home/gallery2.jpg HTTP/1.1" 304 -
0:0:0:0:0:0:0:1 - - [06/Jan/2018:15:11:03 +0530] "GET /cochlear/template/images/home/gallery3.jpg HTTP/1.1" 304 -
0:0:0:0:0:0:0:1 - - [06/Jan/2018:15:11:03 +0530] "GET /cochlear/template/images/home/gallery4.jpg HTTP/1.1" 304 -
0:0:0:0:0:0:0:1 - - [06/Jan/2018:15:11:03 +0530] "GET /cochlear/template/images/home/recommend1.jpg HTTP/1.1" 304 -
0:0:0:0:0:0:0:1 - - [06/Jan/2018:15:11:03 +0530] "GET /cochlear/template/images/home/recommend2.jpg HTTP/1.1" 304 -
0:0:0:0:0:0:0:1 - - [06/Jan/2018:15:11:03 +0530] "GET /cochlear/template/images/home/iframe2.png HTTP/1.1" 304 -
0:0:0:0:0:0:0:1 - - [06/Jan/2018:15:11:03 +0530] "GET /cochlear/template/images/home/recommend3.jpg HTTP/1.1" 304 -
0:0:0:0:0:0:0:1 - - [06/Jan/2018:15:11:03 +0530] "GET /cochlear/template/images/home/iframe1.png HTTP/1.1" 304 -
0:0:0:0:0:0:0:1 - - [06/Jan/2018:15:11:03 +0530] "GET /cochlear/template/images/home/iframe4.png HTTP/1.1" 304 -
0:0:0:0:0:0:0:1 - - [06/Jan/2018:15:11:03 +0530] "GET /cochlear/template/images/home/map.png HTTP/1.1" 304 -
0:0:0:0:0:0:0:1 - - [06/Jan/2018:15:11:03 +0530] "GET /cochlear/template/images/home/iframe3.png HTTP/1.1" 304 -
0:0:0:0:0:0:0:1 - - [06/Jan/2018:15:11:05 +0530] "GET /cochlear/admin/productsku/add.do HTTP/1.1" 200 15670
0:0:0:0:0:0:0:1 - - [06/Jan/2018:15:11:05 +0530] "GET /cochlear/js/cochlear.js HTTP/1.1" 200 838
0:0:0:0:0:0:0:1 - - [06/Jan/2018:15:11:05 +0530] "GET /cochlear/dwr/interface/Product.js HTTP/1.1" 200 5392
0:0:0:0:0:0:0:1 - - [06/Jan/2018:15:11:05 +0530] "GET /cochlear/dwr/util.js HTTP/1.1" 200 48475
0:0:0:0:0:0:0:1 - - [06/Jan/2018:15:11:05 +0530] "GET /cochlear/dwr/engine.js HTTP/1.1" 200 78562
0:0:0:0:0:0:0:1 - - [06/Jan/2018:15:11:05 +0530] "POST /cochlear/dwr/call/plaincall/__System.pageLoaded.dwr HTTP/1.1" 200 200
0:0:0:0:0:0:0:1 - - [06/Jan/2018:15:15:02 +0530] "GET /cochlear/ HTTP/1.1" 200 2718
0:0:0:0:0:0:0:1 - - [06/Jan/2018:15:15:04 +0530] "POST /cochlear/admin/login/login.do HTTP/1.1" 302 -
0:0:0:0:0:0:0:1 - - [06/Jan/2018:15:15:04 +0530] "GET /cochlear/admin/dashboard/view.do HTTP/1.1" 200 40615
0:0:0:0:0:0:0:1 - - [06/Jan/2018:15:15:26 +0530] "GET /cochlear/admin/productsku/add.do HTTP/1.1" 200 15670
0:0:0:0:0:0:0:1 - - [06/Jan/2018:15:15:26 +0530] "GET /cochlear/js/cochlear.js HTTP/1.1" 200 846
0:0:0:0:0:0:0:1 - - [06/Jan/2018:15:15:26 +0530] "GET /cochlear/dwr/util.js HTTP/1.1" 200 48475
0:0:0:0:0:0:0:1 - - [06/Jan/2018:15:15:26 +0530] "GET /cochlear/dwr/interface/Product.js HTTP/1.1" 200 5392
0:0:0:0:0:0:0:1 - - [06/Jan/2018:15:15:26 +0530] "GET /cochlear/dwr/engine.js HTTP/1.1" 200 78562
0:0:0:0:0:0:0:1 - - [06/Jan/2018:15:15:26 +0530] "POST /cochlear/dwr/call/plaincall/__System.pageLoaded.dwr HTTP/1.1" 200 200
0:0:0:0:0:0:0:1 - - [06/Jan/2018:15:17:11 +0530] "GET /cochlear/admin/productsku/add.do HTTP/1.1" 200 15542
0:0:0:0:0:0:0:1 - - [06/Jan/2018:15:17:11 +0530] "GET /cochlear/dwr/engine.js HTTP/1.1" 304 -
0:0:0:0:0:0:0:1 - - [06/Jan/2018:15:17:11 +0530] "GET /cochlear/dwr/util.js HTTP/1.1" 304 -
0:0:0:0:0:0:0:1 - - [06/Jan/2018:15:17:11 +0530] "GET /cochlear/dwr/interface/Product.js HTTP/1.1" 304 -
0:0:0:0:0:0:0:1 - - [06/Jan/2018:15:17:11 +0530] "GET /cochlear/js/cochlear.js HTTP/1.1" 304 -
0:0:0:0:0:0:0:1 - - [06/Jan/2018:15:17:11 +0530] "POST /cochlear/dwr/call/plaincall/__System.pageLoaded.dwr HTTP/1.1" 200 200
0:0:0:0:0:0:0:1 - - [06/Jan/2018:15:17:15 +0530] "POST /cochlear/dwr/call/plaincall/Product.getCategory.dwr HTTP/1.1" 200 3055
0:0:0:0:0:0:0:1 - - [06/Jan/2018:15:17:34 +0530] "POST /cochlear/dwr/call/plaincall/Product.getCategory.dwr HTTP/1.1" 200 1091
0:0:0:0:0:0:0:1 - - [06/Jan/2018:15:22:19 +0530] "GET /cochlear/admin/productsku/add.do HTTP/1.1" 404 2718
0:0:0:0:0:0:0:1 - - [06/Jan/2018:15:22:21 +0530] "POST /cochlear/admin/login/login.do HTTP/1.1" 302 -
0:0:0:0:0:0:0:1 - - [06/Jan/2018:15:22:21 +0530] "GET /cochlear/admin/dashboard/view.do HTTP/1.1" 200 40615
0:0:0:0:0:0:0:1 - - [06/Jan/2018:15:22:24 +0530] "GET /cochlear/admin/productsku/add.do HTTP/1.1" 200 15543
0:0:0:0:0:0:0:1 - - [06/Jan/2018:15:22:24 +0530] "GET /cochlear/js/cochlear.js HTTP/1.1" 304 -
0:0:0:0:0:0:0:1 - - [06/Jan/2018:15:22:24 +0530] "GET /cochlear/dwr/util.js HTTP/1.1" 200 48475
0:0:0:0:0:0:0:1 - - [06/Jan/2018:15:22:24 +0530] "GET /cochlear/dwr/interface/Product.js HTTP/1.1" 200 5392
0:0:0:0:0:0:0:1 - - [06/Jan/2018:15:22:24 +0530] "GET /cochlear/dwr/engine.js HTTP/1.1" 200 78562
0:0:0:0:0:0:0:1 - - [06/Jan/2018:15:22:24 +0530] "POST /cochlear/dwr/call/plaincall/__System.pageLoaded.dwr HTTP/1.1" 200 200
0:0:0:0:0:0:0:1 - - [06/Jan/2018:15:22:36 +0530] "POST /cochlear/dwr/call/plaincall/Product.getCategory.dwr HTTP/1.1" 200 3055
0:0:0:0:0:0:0:1 - - [06/Jan/2018:15:26:21 +0530] "GET /cochlear/ HTTP/1.1" 200 2718
0:0:0:0:0:0:0:1 - - [06/Jan/2018:15:26:24 +0530] "POST /cochlear/admin/login/login.do HTTP/1.1" 302 -
0:0:0:0:0:0:0:1 - - [06/Jan/2018:15:26:25 +0530] "GET /cochlear/admin/dashboard/view.do HTTP/1.1" 200 40615
0:0:0:0:0:0:0:1 - - [06/Jan/2018:15:26:26 +0530] "GET /cochlear/admin/productsku/add.do HTTP/1.1" 200 15543
0:0:0:0:0:0:0:1 - - [06/Jan/2018:15:26:26 +0530] "GET /cochlear/js/cochlear.js HTTP/1.1" 304 -
0:0:0:0:0:0:0:1 - - [06/Jan/2018:15:26:27 +0530] "GET /cochlear/dwr/interface/Product.js HTTP/1.1" 200 5392
0:0:0:0:0:0:0:1 - - [06/Jan/2018:15:26:27 +0530] "GET /cochlear/dwr/util.js HTTP/1.1" 200 48475
0:0:0:0:0:0:0:1 - - [06/Jan/2018:15:26:27 +0530] "GET /cochlear/dwr/engine.js HTTP/1.1" 200 78562
0:0:0:0:0:0:0:1 - - [06/Jan/2018:15:26:27 +0530] "POST /cochlear/dwr/call/plaincall/__System.pageLoaded.dwr HTTP/1.1" 200 200
0:0:0:0:0:0:0:1 - - [06/Jan/2018:15:26:32 +0530] "POST /cochlear/dwr/call/plaincall/Product.getCategory.dwr HTTP/1.1" 200 553
0:0:0:0:0:0:0:1 - - [06/Jan/2018:15:27:35 +0530] "GET /cochlear/ HTTP/1.1" 200 2718
0:0:0:0:0:0:0:1 - - [06/Jan/2018:15:27:38 +0530] "POST /cochlear/admin/login/login.do HTTP/1.1" 302 -
0:0:0:0:0:0:0:1 - - [06/Jan/2018:15:27:38 +0530] "GET /cochlear/admin/dashboard/view.do HTTP/1.1" 200 40615
0:0:0:0:0:0:0:1 - - [06/Jan/2018:15:27:40 +0530] "GET /cochlear/admin/productsku/add.do HTTP/1.1" 200 15543
0:0:0:0:0:0:0:1 - - [06/Jan/2018:15:27:40 +0530] "GET /cochlear/dwr/util.js HTTP/1.1" 200 48475
0:0:0:0:0:0:0:1 - - [06/Jan/2018:15:27:40 +0530] "GET /cochlear/dwr/interface/Product.js HTTP/1.1" 200 5392
0:0:0:0:0:0:0:1 - - [06/Jan/2018:15:27:40 +0530] "GET /cochlear/dwr/engine.js HTTP/1.1" 200 78562
0:0:0:0:0:0:0:1 - - [06/Jan/2018:15:27:40 +0530] "POST /cochlear/dwr/call/plaincall/__System.pageLoaded.dwr HTTP/1.1" 200 200
0:0:0:0:0:0:0:1 - - [06/Jan/2018:15:27:46 +0530] "POST /cochlear/dwr/call/plaincall/Product.getCategory.dwr HTTP/1.1" 200 533
0:0:0:0:0:0:0:1 - - [06/Jan/2018:15:30:31 +0530] "GET /cochlear/ HTTP/1.1" 200 2718
0:0:0:0:0:0:0:1 - - [06/Jan/2018:15:30:34 +0530] "POST /cochlear/admin/login/login.do HTTP/1.1" 302 -
0:0:0:0:0:0:0:1 - - [06/Jan/2018:15:30:34 +0530] "GET /cochlear/admin/dashboard/view.do HTTP/1.1" 200 40615
0:0:0:0:0:0:0:1 - - [06/Jan/2018:15:30:36 +0530] "GET /cochlear/admin/productsku/add.do HTTP/1.1" 200 15543
0:0:0:0:0:0:0:1 - - [06/Jan/2018:15:30:36 +0530] "GET /cochlear/js/cochlear.js HTTP/1.1" 304 -
0:0:0:0:0:0:0:1 - - [06/Jan/2018:15:30:36 +0530] "GET /cochlear/dwr/util.js HTTP/1.1" 200 48475
0:0:0:0:0:0:0:1 - - [06/Jan/2018:15:30:36 +0530] "GET /cochlear/dwr/interface/Product.js HTTP/1.1" 200 5392
0:0:0:0:0:0:0:1 - - [06/Jan/2018:15:30:36 +0530] "GET /cochlear/dwr/engine.js HTTP/1.1" 200 78562
0:0:0:0:0:0:0:1 - - [06/Jan/2018:15:30:36 +0530] "POST /cochlear/dwr/call/plaincall/__System.pageLoaded.dwr HTTP/1.1" 200 200
0:0:0:0:0:0:0:1 - - [06/Jan/2018:15:30:39 +0530] "POST /cochlear/dwr/call/plaincall/Product.getCategory.dwr HTTP/1.1" 200 553
0:0:0:0:0:0:0:1 - - [06/Jan/2018:15:33:09 +0530] "GET /cochlear/ HTTP/1.1" 200 2718
0:0:0:0:0:0:0:1 - - [06/Jan/2018:15:33:11 +0530] "POST /cochlear/admin/login/login.do HTTP/1.1" 302 -
0:0:0:0:0:0:0:1 - - [06/Jan/2018:15:33:11 +0530] "GET /cochlear/admin/dashboard/view.do HTTP/1.1" 200 40615
0:0:0:0:0:0:0:1 - - [06/Jan/2018:15:33:12 +0530] "GET /cochlear/admin/productsku/add.do HTTP/1.1" 200 15543
0:0:0:0:0:0:0:1 - - [06/Jan/2018:15:33:12 +0530] "GET /cochlear/js/cochlear.js HTTP/1.1" 304 -
0:0:0:0:0:0:0:1 - - [06/Jan/2018:15:33:13 +0530] "GET /cochlear/dwr/interface/Product.js HTTP/1.1" 200 5392
0:0:0:0:0:0:0:1 - - [06/Jan/2018:15:33:13 +0530] "GET /cochlear/dwr/util.js HTTP/1.1" 200 48475
0:0:0:0:0:0:0:1 - - [06/Jan/2018:15:33:13 +0530] "GET /cochlear/dwr/engine.js HTTP/1.1" 200 78562
0:0:0:0:0:0:0:1 - - [06/Jan/2018:15:33:13 +0530] "POST /cochlear/dwr/call/plaincall/__System.pageLoaded.dwr HTTP/1.1" 200 200
0:0:0:0:0:0:0:1 - - [06/Jan/2018:15:33:35 +0530] "POST /cochlear/dwr/call/plaincall/Product.getCategory.dwr HTTP/1.1" 200 553
0:0:0:0:0:0:0:1 - - [06/Jan/2018:15:37:09 +0530] "GET /cochlear HTTP/1.1" 302 -
0:0:0:0:0:0:0:1 - - [06/Jan/2018:15:37:10 +0530] "GET /cochlear/ HTTP/1.1" 200 2718
0:0:0:0:0:0:0:1 - - [06/Jan/2018:15:37:12 +0530] "POST /cochlear/admin/login/login.do HTTP/1.1" 302 -
0:0:0:0:0:0:0:1 - - [06/Jan/2018:15:37:12 +0530] "GET /cochlear/admin/dashboard/view.do HTTP/1.1" 200 40615
0:0:0:0:0:0:0:1 - - [06/Jan/2018:15:37:15 +0530] "GET /cochlear/admin/productsku/add.do HTTP/1.1" 200 15543
0:0:0:0:0:0:0:1 - - [06/Jan/2018:15:37:15 +0530] "GET /cochlear/js/cochlear.js HTTP/1.1" 200 788
0:0:0:0:0:0:0:1 - - [06/Jan/2018:15:37:15 +0530] "GET /cochlear/dwr/interface/Product.js HTTP/1.1" 200 5392
0:0:0:0:0:0:0:1 - - [06/Jan/2018:15:37:15 +0530] "GET /cochlear/dwr/util.js HTTP/1.1" 200 48475
0:0:0:0:0:0:0:1 - - [06/Jan/2018:15:37:15 +0530] "GET /cochlear/dwr/engine.js HTTP/1.1" 200 78562
0:0:0:0:0:0:0:1 - - [06/Jan/2018:15:37:15 +0530] "POST /cochlear/dwr/call/plaincall/__System.pageLoaded.dwr HTTP/1.1" 200 200
0:0:0:0:0:0:0:1 - - [06/Jan/2018:15:37:24 +0530] "POST /cochlear/dwr/call/plaincall/Product.getCategory.dwr HTTP/1.1" 200 702
0:0:0:0:0:0:0:1 - - [06/Jan/2018:15:49:42 +0530] "GET /cochlear HTTP/1.1" 302 -
0:0:0:0:0:0:0:1 - - [06/Jan/2018:15:49:44 +0530] "GET /cochlear/ HTTP/1.1" 200 2718
0:0:0:0:0:0:0:1 - - [06/Jan/2018:15:49:46 +0530] "POST /cochlear/admin/login/login.do HTTP/1.1" 302 -
0:0:0:0:0:0:0:1 - - [06/Jan/2018:15:49:46 +0530] "GET /cochlear/admin/dashboard/view.do HTTP/1.1" 200 40615
0:0:0:0:0:0:0:1 - - [06/Jan/2018:15:49:49 +0530] "GET /cochlear/admin/productsku/add.do HTTP/1.1" 200 15838
0:0:0:0:0:0:0:1 - - [06/Jan/2018:15:49:49 +0530] "GET /cochlear/js/cochlear.js HTTP/1.1" 200 1617
0:0:0:0:0:0:0:1 - - [06/Jan/2018:15:49:49 +0530] "GET /cochlear/dwr/interface/Product.js HTTP/1.1" 200 5658
0:0:0:0:0:0:0:1 - - [06/Jan/2018:15:49:49 +0530] "GET /cochlear/dwr/util.js HTTP/1.1" 200 48475
0:0:0:0:0:0:0:1 - - [06/Jan/2018:15:49:49 +0530] "GET /cochlear/dwr/engine.js HTTP/1.1" 200 78562
0:0:0:0:0:0:0:1 - - [06/Jan/2018:15:49:49 +0530] "POST /cochlear/dwr/call/plaincall/__System.pageLoaded.dwr HTTP/1.1" 200 200
0:0:0:0:0:0:0:1 - - [06/Jan/2018:15:50:05 +0530] "POST /cochlear/dwr/call/plaincall/Product.getCategory.dwr HTTP/1.1" 200 702
0:0:0:0:0:0:0:1 - - [06/Jan/2018:15:53:38 +0530] "GET /cochlear/ HTTP/1.1" 200 2718
0:0:0:0:0:0:0:1 - - [06/Jan/2018:15:53:40 +0530] "POST /cochlear/admin/login/login.do HTTP/1.1" 302 -
0:0:0:0:0:0:0:1 - - [06/Jan/2018:15:53:40 +0530] "GET /cochlear/admin/dashboard/view.do HTTP/1.1" 200 40615
0:0:0:0:0:0:0:1 - - [06/Jan/2018:15:53:46 +0530] "GET /cochlear/admin/productsku/add.do HTTP/1.1" 200 15838
0:0:0:0:0:0:0:1 - - [06/Jan/2018:15:53:46 +0530] "GET /cochlear/js/cochlear.js HTTP/1.1" 200 1605
0:0:0:0:0:0:0:1 - - [06/Jan/2018:15:53:46 +0530] "GET /cochlear/dwr/util.js HTTP/1.1" 200 48475
0:0:0:0:0:0:0:1 - - [06/Jan/2018:15:53:46 +0530] "GET /cochlear/dwr/interface/Product.js HTTP/1.1" 200 5658
0:0:0:0:0:0:0:1 - - [06/Jan/2018:15:53:46 +0530] "GET /cochlear/dwr/engine.js HTTP/1.1" 200 78562
0:0:0:0:0:0:0:1 - - [06/Jan/2018:15:53:46 +0530] "POST /cochlear/dwr/call/plaincall/__System.pageLoaded.dwr HTTP/1.1" 200 200
0:0:0:0:0:0:0:1 - - [06/Jan/2018:15:53:49 +0530] "POST /cochlear/dwr/call/plaincall/Product.getCategory.dwr HTTP/1.1" 200 702
0:0:0:0:0:0:0:1 - - [06/Jan/2018:15:56:32 +0530] "GET /cochlear/ HTTP/1.1" 200 2718
0:0:0:0:0:0:0:1 - - [06/Jan/2018:16:03:32 +0530] "POST /cochlear/admin/login/login.do HTTP/1.1" 302 -
0:0:0:0:0:0:0:1 - - [06/Jan/2018:16:03:32 +0530] "GET /cochlear/admin/dashboard/view.do HTTP/1.1" 200 40615
0:0:0:0:0:0:0:1 - - [06/Jan/2018:16:03:35 +0530] "GET /cochlear/admin/productsku/add.do HTTP/1.1" 200 15839
0:0:0:0:0:0:0:1 - - [06/Jan/2018:16:03:35 +0530] "GET /cochlear/js/cochlear.js HTTP/1.1" 304 -
0:0:0:0:0:0:0:1 - - [06/Jan/2018:16:03:35 +0530] "GET /cochlear/dwr/util.js HTTP/1.1" 200 48475
0:0:0:0:0:0:0:1 - - [06/Jan/2018:16:03:35 +0530] "GET /cochlear/dwr/interface/Product.js HTTP/1.1" 200 5658
0:0:0:0:0:0:0:1 - - [06/Jan/2018:16:03:35 +0530] "GET /cochlear/dwr/engine.js HTTP/1.1" 200 78562
0:0:0:0:0:0:0:1 - - [06/Jan/2018:16:03:35 +0530] "POST /cochlear/dwr/call/plaincall/__System.pageLoaded.dwr HTTP/1.1" 200 200
0:0:0:0:0:0:0:1 - - [06/Jan/2018:16:03:38 +0530] "POST /cochlear/dwr/call/plaincall/Product.getCategory.dwr HTTP/1.1" 200 702
0:0:0:0:0:0:0:1 - - [06/Jan/2018:16:03:45 +0530] "POST /cochlear/dwr/call/plaincall/Product.getSubCategory.dwr HTTP/1.1" 200 813
0:0:0:0:0:0:0:1 - - [06/Jan/2018:16:05:31 +0530] "GET /cochlear/admin/productsku/add.do HTTP/1.1" 200 15840
0:0:0:0:0:0:0:1 - - [06/Jan/2018:16:05:31 +0530] "GET /cochlear/dwr/engine.js HTTP/1.1" 304 -
0:0:0:0:0:0:0:1 - - [06/Jan/2018:16:05:31 +0530] "GET /cochlear/dwr/interface/Product.js HTTP/1.1" 304 -
0:0:0:0:0:0:0:1 - - [06/Jan/2018:16:05:31 +0530] "GET /cochlear/dwr/util.js HTTP/1.1" 304 -
0:0:0:0:0:0:0:1 - - [06/Jan/2018:16:05:31 +0530] "GET /cochlear/js/cochlear.js HTTP/1.1" 304 -
0:0:0:0:0:0:0:1 - - [06/Jan/2018:16:05:31 +0530] "POST /cochlear/dwr/call/plaincall/__System.pageLoaded.dwr HTTP/1.1" 200 200
0:0:0:0:0:0:0:1 - - [06/Jan/2018:16:05:44 +0530] "GET /cochlear/admin/productsku/add.do HTTP/1.1" 200 15840
0:0:0:0:0:0:0:1 - - [06/Jan/2018:16:05:44 +0530] "GET /cochlear/dwr/engine.js HTTP/1.1" 304 -
0:0:0:0:0:0:0:1 - - [06/Jan/2018:16:05:44 +0530] "GET /cochlear/dwr/util.js HTTP/1.1" 304 -
0:0:0:0:0:0:0:1 - - [06/Jan/2018:16:05:44 +0530] "GET /cochlear/dwr/interface/Product.js HTTP/1.1" 304 -
0:0:0:0:0:0:0:1 - - [06/Jan/2018:16:05:44 +0530] "POST /cochlear/dwr/call/plaincall/__System.pageLoaded.dwr HTTP/1.1" 200 200
0:0:0:0:0:0:0:1 - - [06/Jan/2018:16:05:56 +0530] "POST /cochlear/dwr/call/plaincall/Product.getCategory.dwr HTTP/1.1" 200 702
0:0:0:0:0:0:0:1 - - [06/Jan/2018:16:06:04 +0530] "POST /cochlear/dwr/call/plaincall/Product.getSubCategory.dwr HTTP/1.1" 200 813
0:0:0:0:0:0:0:1 - - [06/Jan/2018:16:06:57 +0530] "GET /cochlear/admin/productsku/add.do HTTP/1.1" 200 15840
0:0:0:0:0:0:0:1 - - [06/Jan/2018:16:06:57 +0530] "GET /cochlear/dwr/engine.js HTTP/1.1" 304 -
0:0:0:0:0:0:0:1 - - [06/Jan/2018:16:06:57 +0530] "GET /cochlear/dwr/interface/Product.js HTTP/1.1" 304 -
0:0:0:0:0:0:0:1 - - [06/Jan/2018:16:06:57 +0530] "GET /cochlear/dwr/util.js HTTP/1.1" 304 -
0:0:0:0:0:0:0:1 - - [06/Jan/2018:16:06:57 +0530] "GET /cochlear/js/cochlear.js HTTP/1.1" 304 -
0:0:0:0:0:0:0:1 - - [06/Jan/2018:16:06:57 +0530] "POST /cochlear/dwr/call/plaincall/__System.pageLoaded.dwr HTTP/1.1" 200 200
0:0:0:0:0:0:0:1 - - [06/Jan/2018:16:07:40 +0530] "POST /cochlear/dwr/call/plaincall/Product.getCategory.dwr HTTP/1.1" 200 702
0:0:0:0:0:0:0:1 - - [06/Jan/2018:16:07:42 +0530] "POST /cochlear/dwr/call/plaincall/Product.getSubCategory.dwr HTTP/1.1" 200 684
0:0:0:0:0:0:0:1 - - [06/Jan/2018:16:10:51 +0530] "POST /cochlear/dwr/call/plaincall/Product.getCategory.dwr HTTP/1.1" 200 679
0:0:0:0:0:0:0:1 - - [06/Jan/2018:16:10:52 +0530] "POST /cochlear/dwr/call/plaincall/Product.getSubCategory.dwr HTTP/1.1" 200 418
0:0:0:0:0:0:0:1 - - [06/Jan/2018:16:12:08 +0530] "POST /cochlear/dwr/call/plaincall/Product.getCategory.dwr HTTP/1.1" 200 702
0:0:0:0:0:0:0:1 - - [06/Jan/2018:16:12:10 +0530] "POST /cochlear/dwr/call/plaincall/Product.getSubCategory.dwr HTTP/1.1" 200 813
0:0:0:0:0:0:0:1 - - [06/Jan/2018:16:12:34 +0530] "GET /cochlear/admin/productsku/index.html HTTP/1.1" 404 2718
0:0:0:0:0:0:0:1 - - [06/Jan/2018:16:12:36 +0530] "POST /cochlear/admin/login/login.do HTTP/1.1" 302 -
0:0:0:0:0:0:0:1 - - [06/Jan/2018:16:12:36 +0530] "GET /cochlear/admin/dashboard/view.do HTTP/1.1" 200 40615
0:0:0:0:0:0:0:1 - - [06/Jan/2018:16:12:47 +0530] "GET /cochlear/admin/productsku/add.do HTTP/1.1" 200 15840
0:0:0:0:0:0:0:1 - - [06/Jan/2018:16:12:47 +0530] "GET /cochlear/dwr/engine.js HTTP/1.1" 304 -
0:0:0:0:0:0:0:1 - - [06/Jan/2018:16:12:47 +0530] "GET /cochlear/dwr/interface/Product.js HTTP/1.1" 304 -
0:0:0:0:0:0:0:1 - - [06/Jan/2018:16:12:47 +0530] "GET /cochlear/dwr/util.js HTTP/1.1" 304 -
0:0:0:0:0:0:0:1 - - [06/Jan/2018:16:12:47 +0530] "GET /cochlear/js/cochlear.js HTTP/1.1" 304 -
0:0:0:0:0:0:0:1 - - [06/Jan/2018:16:12:47 +0530] "POST /cochlear/dwr/call/plaincall/__System.pageLoaded.dwr HTTP/1.1" 200 200
0:0:0:0:0:0:0:1 - - [06/Jan/2018:17:25:47 +0530] "GET /cochlear/ HTTP/1.1" 200 2718
0:0:0:0:0:0:0:1 - - [06/Jan/2018:17:25:49 +0530] "POST /cochlear/admin/login/login.do HTTP/1.1" 302 -
0:0:0:0:0:0:0:1 - - [06/Jan/2018:17:25:50 +0530] "GET /cochlear/admin/dashboard/view.do HTTP/1.1" 200 40615
0:0:0:0:0:0:0:1 - - [06/Jan/2018:17:25:52 +0530] "GET /cochlear/admin/productsku/add.do HTTP/1.1" 200 15849
0:0:0:0:0:0:0:1 - - [06/Jan/2018:17:25:52 +0530] "GET /cochlear/js/cochlear.js HTTP/1.1" 304 -
0:0:0:0:0:0:0:1 - - [06/Jan/2018:17:25:52 +0530] "GET /cochlear/dwr/util.js HTTP/1.1" 200 48475
0:0:0:0:0:0:0:1 - - [06/Jan/2018:17:25:52 +0530] "GET /cochlear/dwr/interface/Product.js HTTP/1.1" 200 5658
0:0:0:0:0:0:0:1 - - [06/Jan/2018:17:25:52 +0530] "GET /cochlear/dwr/engine.js HTTP/1.1" 200 78562
0:0:0:0:0:0:0:1 - - [06/Jan/2018:17:25:52 +0530] "POST /cochlear/dwr/call/plaincall/__System.pageLoaded.dwr HTTP/1.1" 200 200
0:0:0:0:0:0:0:1 - - [06/Jan/2018:17:26:26 +0530] "POST /cochlear/dwr/call/plaincall/Product.getCategory.dwr HTTP/1.1" 200 702
0:0:0:0:0:0:0:1 - - [06/Jan/2018:17:26:27 +0530] "POST /cochlear/dwr/call/plaincall/Product.getSubCategory.dwr HTTP/1.1" 200 813
0:0:0:0:0:0:0:1 - - [06/Jan/2018:17:27:25 +0530] "POST /cochlear/admin/productsku/create.do HTTP/1.1" 200 10973
0:0:0:0:0:0:0:1 - - [06/Jan/2018:17:27:30 +0530] "GET /cochlear/admin/productsku/add.do HTTP/1.1" 200 15849
0:0:0:0:0:0:0:1 - - [06/Jan/2018:17:27:30 +0530] "GET /cochlear/dwr/engine.js HTTP/1.1" 304 -
0:0:0:0:0:0:0:1 - - [06/Jan/2018:17:27:30 +0530] "GET /cochlear/dwr/util.js HTTP/1.1" 304 -
0:0:0:0:0:0:0:1 - - [06/Jan/2018:17:27:30 +0530] "GET /cochlear/dwr/interface/Product.js HTTP/1.1" 304 -
0:0:0:0:0:0:0:1 - - [06/Jan/2018:17:27:30 +0530] "POST /cochlear/dwr/call/plaincall/__System.pageLoaded.dwr HTTP/1.1" 200 200
