0:0:0:0:0:0:0:1 - - [20/Jan/2018:09:41:39 +0530] "GET /cochlear HTTP/1.1" 302 -
0:0:0:0:0:0:0:1 - - [20/Jan/2018:09:41:41 +0530] "GET /cochlear/ HTTP/1.1" 200 2762
0:0:0:0:0:0:0:1 - - [20/Jan/2018:09:41:42 +0530] "GET /favicon.ico HTTP/1.1" 404 -
0:0:0:0:0:0:0:1 - - [20/Jan/2018:09:44:06 +0530] "POST /cochlear/admin/login/login.do;jsessionid=A89487BD4DE99721EAA67A815470C60D HTTP/1.1" 302 -
0:0:0:0:0:0:0:1 - - [20/Jan/2018:09:44:06 +0530] "GET /cochlear/admin/dashboard/view.do HTTP/1.1" 200 24993
0:0:0:0:0:0:0:1 - - [20/Jan/2018:09:44:07 +0530] "GET /product/attachment/Image/ProductAttachment1516273122036.jpg HTTP/1.1" 304 -
0:0:0:0:0:0:0:1 - - [20/Jan/2018:09:44:07 +0530] "GET /product/attachment/Image/ProductAttachment1516271990825.jpg HTTP/1.1" 304 -
0:0:0:0:0:0:0:1 - - [20/Jan/2018:09:44:07 +0530] "GET /product/attachment/Image/ProductAttachment1516273387597.png HTTP/1.1" 304 -
0:0:0:0:0:0:0:1 - - [20/Jan/2018:09:44:32 +0530] "GET /cochlear/admin/company/add.do HTTP/1.1" 200 16772
0:0:0:0:0:0:0:1 - - [20/Jan/2018:09:44:32 +0530] "GET /cochlear/js/cochlear.js HTTP/1.1" 304 -
0:0:0:0:0:0:0:1 - - [20/Jan/2018:09:44:32 +0530] "GET /cochlear/dwr/interface/Address.js HTTP/1.1" 200 5638
0:0:0:0:0:0:0:1 - - [20/Jan/2018:09:44:32 +0530] "GET /cochlear/dwr/util.js HTTP/1.1" 200 48475
0:0:0:0:0:0:0:1 - - [20/Jan/2018:09:44:32 +0530] "GET /cochlear/dwr/interface/Product.js HTTP/1.1" 200 5658
0:0:0:0:0:0:0:1 - - [20/Jan/2018:09:44:32 +0530] "GET /cochlear/dwr/engine.js HTTP/1.1" 200 78562
0:0:0:0:0:0:0:1 - - [20/Jan/2018:09:44:32 +0530] "POST /cochlear/dwr/call/plaincall/__System.pageLoaded.dwr HTTP/1.1" 200 200
0:0:0:0:0:0:0:1 - - [20/Jan/2018:09:46:43 +0530] "POST /cochlear/dwr/call/plaincall/Address.getState.dwr HTTP/1.1" 200 1965
0:0:0:0:0:0:0:1 - - [20/Jan/2018:09:46:45 +0530] "POST /cochlear/dwr/call/plaincall/Address.getCity.dwr HTTP/1.1" 200 19229
0:0:0:0:0:0:0:1 - - [20/Jan/2018:09:47:54 +0530] "GET /cochlear/admin/productsku/add.do HTTP/1.1" 200 18497
0:0:0:0:0:0:0:1 - - [20/Jan/2018:09:47:54 +0530] "GET /cochlear/dwr/engine.js HTTP/1.1" 304 -
0:0:0:0:0:0:0:1 - - [20/Jan/2018:09:47:54 +0530] "GET /cochlear/dwr/util.js HTTP/1.1" 304 -
0:0:0:0:0:0:0:1 - - [20/Jan/2018:09:47:54 +0530] "GET /cochlear/dwr/interface/Product.js HTTP/1.1" 304 -
0:0:0:0:0:0:0:1 - - [20/Jan/2018:09:47:54 +0530] "POST /cochlear/dwr/call/plaincall/__System.pageLoaded.dwr HTTP/1.1" 200 200
0:0:0:0:0:0:0:1 - - [20/Jan/2018:09:47:56 +0530] "POST /cochlear/dwr/call/plaincall/Product.getCategory.dwr HTTP/1.1" 200 702
0:0:0:0:0:0:0:1 - - [20/Jan/2018:09:48:04 +0530] "POST /cochlear/dwr/call/plaincall/Product.getCategory.dwr HTTP/1.1" 200 679
0:0:0:0:0:0:0:1 - - [20/Jan/2018:09:48:34 +0530] "GET /cochlear/admin/productsku/add.do HTTP/1.1" 404 2718
0:0:0:0:0:0:0:1 - - [20/Jan/2018:09:48:35 +0530] "POST /cochlear/admin/login/login.do HTTP/1.1" 302 -
0:0:0:0:0:0:0:1 - - [20/Jan/2018:09:48:35 +0530] "GET /cochlear/admin/dashboard/view.do HTTP/1.1" 200 24993
0:0:0:0:0:0:0:1 - - [20/Jan/2018:09:48:37 +0530] "GET /cochlear/admin/productsku/add.do HTTP/1.1" 200 18497
0:0:0:0:0:0:0:1 - - [20/Jan/2018:09:48:37 +0530] "GET /cochlear/dwr/interface/Product.js HTTP/1.1" 200 5658
0:0:0:0:0:0:0:1 - - [20/Jan/2018:09:48:37 +0530] "GET /cochlear/dwr/util.js HTTP/1.1" 200 48475
0:0:0:0:0:0:0:1 - - [20/Jan/2018:09:48:37 +0530] "GET /cochlear/dwr/engine.js HTTP/1.1" 200 78562
0:0:0:0:0:0:0:1 - - [20/Jan/2018:09:48:37 +0530] "POST /cochlear/dwr/call/plaincall/__System.pageLoaded.dwr HTTP/1.1" 200 200
0:0:0:0:0:0:0:1 - - [20/Jan/2018:09:48:40 +0530] "POST /cochlear/dwr/call/plaincall/Product.getCategory.dwr HTTP/1.1" 200 702
0:0:0:0:0:0:0:1 - - [20/Jan/2018:09:51:46 +0530] "GET /cochlear/admin/productsku/add.do HTTP/1.1" 200 18497
0:0:0:0:0:0:0:1 - - [20/Jan/2018:09:51:46 +0530] "GET /cochlear/dwr/engine.js HTTP/1.1" 304 -
0:0:0:0:0:0:0:1 - - [20/Jan/2018:09:51:46 +0530] "GET /cochlear/dwr/util.js HTTP/1.1" 304 -
0:0:0:0:0:0:0:1 - - [20/Jan/2018:09:51:46 +0530] "GET /cochlear/dwr/interface/Product.js HTTP/1.1" 304 -
0:0:0:0:0:0:0:1 - - [20/Jan/2018:09:51:46 +0530] "POST /cochlear/dwr/call/plaincall/__System.pageLoaded.dwr HTTP/1.1" 200 200
0:0:0:0:0:0:0:1 - - [20/Jan/2018:09:51:53 +0530] "POST /cochlear/dwr/call/plaincall/Product.getCategory.dwr HTTP/1.1" 200 702
0:0:0:0:0:0:0:1 - - [20/Jan/2018:09:53:04 +0530] "GET /cochlear/admin/productsku/add.do HTTP/1.1" 200 18497
0:0:0:0:0:0:0:1 - - [20/Jan/2018:09:53:04 +0530] "GET /cochlear/dwr/engine.js HTTP/1.1" 304 -
0:0:0:0:0:0:0:1 - - [20/Jan/2018:09:53:04 +0530] "GET /cochlear/dwr/util.js HTTP/1.1" 304 -
0:0:0:0:0:0:0:1 - - [20/Jan/2018:09:53:04 +0530] "GET /cochlear/dwr/interface/Product.js HTTP/1.1" 304 -
0:0:0:0:0:0:0:1 - - [20/Jan/2018:09:53:05 +0530] "POST /cochlear/dwr/call/plaincall/__System.pageLoaded.dwr HTTP/1.1" 200 200
0:0:0:0:0:0:0:1 - - [20/Jan/2018:09:53:33 +0530] "POST /cochlear/dwr/call/plaincall/Product.getCategory.dwr HTTP/1.1" 200 702
0:0:0:0:0:0:0:1 - - [20/Jan/2018:09:54:20 +0530] "POST /cochlear/dwr/call/plaincall/Product.getCategory.dwr HTTP/1.1" 200 679
0:0:0:0:0:0:0:1 - - [20/Jan/2018:09:55:04 +0530] "POST /cochlear/dwr/call/plaincall/Product.getCategory.dwr HTTP/1.1" 200 702
0:0:0:0:0:0:0:1 - - [20/Jan/2018:09:57:24 +0530] "GET /cochlear HTTP/1.1" 302 -
0:0:0:0:0:0:0:1 - - [20/Jan/2018:09:57:25 +0530] "GET /cochlear/ HTTP/1.1" 200 2762
0:0:0:0:0:0:0:1 - - [20/Jan/2018:09:57:27 +0530] "POST /cochlear/admin/login/login.do;jsessionid=38592929D7FA5570136029F99DDAC18C HTTP/1.1" 302 -
0:0:0:0:0:0:0:1 - - [20/Jan/2018:09:57:27 +0530] "GET /cochlear/template/css/bootstrap.min.css HTTP/1.1" 200 99548
0:0:0:0:0:0:0:1 - - [20/Jan/2018:09:57:27 +0530] "GET /cochlear/template/css/animate.css HTTP/1.1" 200 61631
0:0:0:0:0:0:0:1 - - [20/Jan/2018:09:57:27 +0530] "GET /cochlear/template/css/font-awesome.min.css HTTP/1.1" 200 17780
0:0:0:0:0:0:0:1 - - [20/Jan/2018:09:57:27 +0530] "GET /cochlear/template/css/prettyPhoto.css HTTP/1.1" 200 19888
0:0:0:0:0:0:0:1 - - [20/Jan/2018:09:57:27 +0530] "GET /cochlear/template/css/price-range.css HTTP/1.1" 200 2732
0:0:0:0:0:0:0:1 - - [20/Jan/2018:09:57:27 +0530] "GET /cochlear/template/css/main.css HTTP/1.1" 200 40821
0:0:0:0:0:0:0:1 - - [20/Jan/2018:09:57:27 +0530] "GET /cochlear/template/css/responsive.css HTTP/1.1" 200 6646
0:0:0:0:0:0:0:1 - - [20/Jan/2018:09:57:27 +0530] "GET /cochlear/template/images/home/logo.png HTTP/1.1" 200 4329
0:0:0:0:0:0:0:1 - - [20/Jan/2018:09:57:27 +0530] "GET /cochlear/admin/dashboard/view.do HTTP/1.1" 200 24993
0:0:0:0:0:0:0:1 - - [20/Jan/2018:09:57:27 +0530] "GET /cochlear/template/images/home/girl2.jpg HTTP/1.1" 200 43841
0:0:0:0:0:0:0:1 - - [20/Jan/2018:09:57:27 +0530] "GET /cochlear/template/images/home/girl1.jpg HTTP/1.1" 200 49507
0:0:0:0:0:0:0:1 - - [20/Jan/2018:09:57:27 +0530] "GET /cochlear/template/js/jquery.js HTTP/1.1" 200 93106
0:0:0:0:0:0:0:1 - - [20/Jan/2018:09:57:27 +0530] "GET /cochlear/template/js/bootstrap.min.js HTTP/1.1" 200 27822
0:0:0:0:0:0:0:1 - - [20/Jan/2018:09:57:28 +0530] "GET /product/attachment/Image/ProductAttachment1515409985023.jpg HTTP/1.1" 200 101714
0:0:0:0:0:0:0:1 - - [20/Jan/2018:09:57:28 +0530] "GET /product/attachment/Image/ProductAttachment1515410529807.jpg HTTP/1.1" 200 35522
0:0:0:0:0:0:0:1 - - [20/Jan/2018:09:57:28 +0530] "GET /product/attachment/Image/ProductAttachment1515410689056.jpg HTTP/1.1" 200 30803
0:0:0:0:0:0:0:1 - - [20/Jan/2018:09:57:28 +0530] "GET /product/attachment/Image/ProductAttachment1515475027062.jpg HTTP/1.1" 200 147928
0:0:0:0:0:0:0:1 - - [20/Jan/2018:09:57:28 +0530] "GET /cochlear/template/js/jquery.scrollUp.min.js HTTP/1.1" 200 2151
0:0:0:0:0:0:0:1 - - [20/Jan/2018:09:57:28 +0530] "GET /product/attachment/Image/ProductAttachment1516271990825.jpg HTTP/1.1" 200 12687
0:0:0:0:0:0:0:1 - - [20/Jan/2018:09:57:28 +0530] "GET /product/attachment/Image/ProductAttachment1516273387597.png HTTP/1.1" 200 28574
0:0:0:0:0:0:0:1 - - [20/Jan/2018:09:57:28 +0530] "GET /cochlear/template/js/price-range.js HTTP/1.1" 200 11257
0:0:0:0:0:0:0:1 - - [20/Jan/2018:09:57:28 +0530] "GET /cochlear/template/js/jquery.prettyPhoto.js HTTP/1.1" 200 22060
0:0:0:0:0:0:0:1 - - [20/Jan/2018:09:57:28 +0530] "GET /cochlear/template/js/main.js HTTP/1.1" 200 1269
0:0:0:0:0:0:0:1 - - [20/Jan/2018:09:57:28 +0530] "GET /product/attachment/Image/ProductAttachment1516273122036.jpg HTTP/1.1" 200 12415
0:0:0:0:0:0:0:1 - - [20/Jan/2018:09:57:28 +0530] "GET /cochlear/template/images/home/iframe1.png HTTP/1.1" 200 6915
0:0:0:0:0:0:0:1 - - [20/Jan/2018:09:57:28 +0530] "GET /cochlear/template/images/home/iframe2.png HTTP/1.1" 200 9870
0:0:0:0:0:0:0:1 - - [20/Jan/2018:09:57:28 +0530] "GET /cochlear/template/images/home/iframe4.png HTTP/1.1" 200 13835
0:0:0:0:0:0:0:1 - - [20/Jan/2018:09:57:28 +0530] "GET /cochlear/template/images/home/map.png HTTP/1.1" 200 14823
0:0:0:0:0:0:0:1 - - [20/Jan/2018:09:57:28 +0530] "GET /cochlear/template/images/home/iframe3.png HTTP/1.1" 200 12990
0:0:0:0:0:0:0:1 - - [20/Jan/2018:09:57:28 +0530] "GET /cochlear/template/fonts/fontawesome-webfont.woff?v=4.0.3 HTTP/1.1" 200 44432
0:0:0:0:0:0:0:1 - - [20/Jan/2018:09:57:31 +0530] "GET /cochlear/admin/company/add.do HTTP/1.1" 200 16772
0:0:0:0:0:0:0:1 - - [20/Jan/2018:09:57:31 +0530] "GET /cochlear/js/cochlear.js HTTP/1.1" 200 3327
0:0:0:0:0:0:0:1 - - [20/Jan/2018:09:57:31 +0530] "GET /cochlear/dwr/interface/Address.js HTTP/1.1" 200 5638
0:0:0:0:0:0:0:1 - - [20/Jan/2018:09:57:31 +0530] "GET /cochlear/dwr/util.js HTTP/1.1" 200 48475
0:0:0:0:0:0:0:1 - - [20/Jan/2018:09:57:31 +0530] "GET /cochlear/dwr/engine.js HTTP/1.1" 200 78562
0:0:0:0:0:0:0:1 - - [20/Jan/2018:09:57:31 +0530] "GET /cochlear/dwr/interface/Product.js HTTP/1.1" 200 5658
0:0:0:0:0:0:0:1 - - [20/Jan/2018:09:57:31 +0530] "POST /cochlear/dwr/call/plaincall/__System.pageLoaded.dwr HTTP/1.1" 200 200
0:0:0:0:0:0:0:1 - - [20/Jan/2018:09:57:34 +0530] "POST /cochlear/dwr/call/plaincall/Address.getState.dwr HTTP/1.1" 200 1965
0:0:0:0:0:0:0:1 - - [20/Jan/2018:09:57:36 +0530] "POST /cochlear/dwr/call/plaincall/Address.getCity.dwr HTTP/1.1" 200 1710
0:0:0:0:0:0:0:1 - - [20/Jan/2018:09:57:40 +0530] "POST /cochlear/dwr/call/plaincall/Address.getCity.dwr HTTP/1.1" 200 150285
0:0:0:0:0:0:0:1 - - [20/Jan/2018:09:58:16 +0530] "POST /cochlear/dwr/call/plaincall/Address.getState.dwr HTTP/1.1" 200 119
0:0:0:0:0:0:0:1 - - [20/Jan/2018:09:58:18 +0530] "POST /cochlear/dwr/call/plaincall/Address.getState.dwr HTTP/1.1" 200 1965
0:0:0:0:0:0:0:1 - - [20/Jan/2018:09:58:19 +0530] "POST /cochlear/dwr/call/plaincall/Address.getCity.dwr HTTP/1.1" 200 1710
0:0:0:0:0:0:0:1 - - [20/Jan/2018:09:58:23 +0530] "GET /cochlear/admin/company/add.do HTTP/1.1" 200 16772
0:0:0:0:0:0:0:1 - - [20/Jan/2018:09:58:23 +0530] "GET /cochlear/dwr/engine.js HTTP/1.1" 304 -
0:0:0:0:0:0:0:1 - - [20/Jan/2018:09:58:23 +0530] "GET /cochlear/dwr/util.js HTTP/1.1" 304 -
0:0:0:0:0:0:0:1 - - [20/Jan/2018:09:58:23 +0530] "GET /cochlear/dwr/interface/Product.js HTTP/1.1" 304 -
0:0:0:0:0:0:0:1 - - [20/Jan/2018:09:58:23 +0530] "GET /cochlear/dwr/interface/Address.js HTTP/1.1" 304 -
0:0:0:0:0:0:0:1 - - [20/Jan/2018:09:58:23 +0530] "POST /cochlear/dwr/call/plaincall/__System.pageLoaded.dwr HTTP/1.1" 200 200
0:0:0:0:0:0:0:1 - - [20/Jan/2018:09:58:26 +0530] "POST /cochlear/dwr/call/plaincall/Address.getState.dwr HTTP/1.1" 200 1965
0:0:0:0:0:0:0:1 - - [20/Jan/2018:09:58:28 +0530] "POST /cochlear/dwr/call/plaincall/Address.getCity.dwr HTTP/1.1" 200 1710
0:0:0:0:0:0:0:1 - - [20/Jan/2018:09:59:04 +0530] "GET /cochlear/admin/company/add.do HTTP/1.1" 200 16772
0:0:0:0:0:0:0:1 - - [20/Jan/2018:09:59:04 +0530] "GET /cochlear/dwr/engine.js HTTP/1.1" 304 -
0:0:0:0:0:0:0:1 - - [20/Jan/2018:09:59:04 +0530] "GET /cochlear/dwr/util.js HTTP/1.1" 304 -
0:0:0:0:0:0:0:1 - - [20/Jan/2018:09:59:04 +0530] "GET /cochlear/dwr/interface/Product.js HTTP/1.1" 304 -
0:0:0:0:0:0:0:1 - - [20/Jan/2018:09:59:04 +0530] "GET /cochlear/dwr/interface/Address.js HTTP/1.1" 304 -
0:0:0:0:0:0:0:1 - - [20/Jan/2018:09:59:04 +0530] "POST /cochlear/dwr/call/plaincall/__System.pageLoaded.dwr HTTP/1.1" 200 200
0:0:0:0:0:0:0:1 - - [20/Jan/2018:09:59:47 +0530] "POST /cochlear/dwr/call/plaincall/Address.getState.dwr HTTP/1.1" 200 1965
0:0:0:0:0:0:0:1 - - [20/Jan/2018:10:00:23 +0530] "POST /cochlear/dwr/call/plaincall/Address.getCity.dwr HTTP/1.1" 200 1710
0:0:0:0:0:0:0:1 - - [20/Jan/2018:10:00:32 +0530] "POST /cochlear/dwr/call/plaincall/Address.getState.dwr HTTP/1.1" 200 119
0:0:0:0:0:0:0:1 - - [20/Jan/2018:10:00:34 +0530] "POST /cochlear/dwr/call/plaincall/Address.getState.dwr HTTP/1.1" 200 1965
0:0:0:0:0:0:0:1 - - [20/Jan/2018:10:00:44 +0530] "POST /cochlear/dwr/call/plaincall/Address.getCity.dwr HTTP/1.1" 200 150285
0:0:0:0:0:0:0:1 - - [20/Jan/2018:10:04:57 +0530] "GET /cochlear/admin/company/add.do HTTP/1.1" 404 2718
0:0:0:0:0:0:0:1 - - [20/Jan/2018:10:04:58 +0530] "POST /cochlear/admin/login/login.do HTTP/1.1" 302 -
0:0:0:0:0:0:0:1 - - [20/Jan/2018:10:04:59 +0530] "GET /cochlear/admin/dashboard/view.do HTTP/1.1" 200 24993
0:0:0:0:0:0:0:1 - - [20/Jan/2018:10:05:01 +0530] "GET /cochlear/admin/company/add.do HTTP/1.1" 200 16772
0:0:0:0:0:0:0:1 - - [20/Jan/2018:10:05:01 +0530] "GET /cochlear/dwr/util.js HTTP/1.1" 200 48475
0:0:0:0:0:0:0:1 - - [20/Jan/2018:10:05:01 +0530] "GET /cochlear/dwr/interface/Product.js HTTP/1.1" 200 5658
0:0:0:0:0:0:0:1 - - [20/Jan/2018:10:05:01 +0530] "GET /cochlear/dwr/interface/Address.js HTTP/1.1" 200 5638
0:0:0:0:0:0:0:1 - - [20/Jan/2018:10:05:01 +0530] "GET /cochlear/dwr/engine.js HTTP/1.1" 200 78562
0:0:0:0:0:0:0:1 - - [20/Jan/2018:10:05:01 +0530] "POST /cochlear/dwr/call/plaincall/__System.pageLoaded.dwr HTTP/1.1" 200 200
0:0:0:0:0:0:0:1 - - [20/Jan/2018:10:05:04 +0530] "POST /cochlear/dwr/call/plaincall/Address.getState.dwr HTTP/1.1" 200 1965
0:0:0:0:0:0:0:1 - - [20/Jan/2018:10:05:06 +0530] "POST /cochlear/dwr/call/plaincall/Address.getCity.dwr HTTP/1.1" 200 1710
0:0:0:0:0:0:0:1 - - [20/Jan/2018:10:05:13 +0530] "POST /cochlear/dwr/call/plaincall/Address.getCity.dwr HTTP/1.1" 200 32618
0:0:0:0:0:0:0:1 - - [20/Jan/2018:10:08:52 +0530] "GET /cochlear HTTP/1.1" 302 -
0:0:0:0:0:0:0:1 - - [20/Jan/2018:10:08:53 +0530] "GET /cochlear/ HTTP/1.1" 200 2762
0:0:0:0:0:0:0:1 - - [20/Jan/2018:10:08:55 +0530] "POST /cochlear/admin/login/login.do;jsessionid=87F212E4946C0249C72447C00D94B756 HTTP/1.1" 302 -
0:0:0:0:0:0:0:1 - - [20/Jan/2018:10:08:55 +0530] "GET /cochlear/template/css/bootstrap.min.css HTTP/1.1" 200 99548
0:0:0:0:0:0:0:1 - - [20/Jan/2018:10:08:55 +0530] "GET /cochlear/template/css/font-awesome.min.css HTTP/1.1" 200 17780
0:0:0:0:0:0:0:1 - - [20/Jan/2018:10:08:55 +0530] "GET /cochlear/template/css/responsive.css HTTP/1.1" 200 6646
0:0:0:0:0:0:0:1 - - [20/Jan/2018:10:08:55 +0530] "GET /cochlear/template/css/main.css HTTP/1.1" 200 40821
0:0:0:0:0:0:0:1 - - [20/Jan/2018:10:08:55 +0530] "GET /cochlear/template/css/price-range.css HTTP/1.1" 200 2732
0:0:0:0:0:0:0:1 - - [20/Jan/2018:10:08:55 +0530] "GET /cochlear/template/css/prettyPhoto.css HTTP/1.1" 200 19888
0:0:0:0:0:0:0:1 - - [20/Jan/2018:10:08:55 +0530] "GET /cochlear/template/css/animate.css HTTP/1.1" 200 61631
0:0:0:0:0:0:0:1 - - [20/Jan/2018:10:08:55 +0530] "GET /cochlear/template/images/home/logo.png HTTP/1.1" 200 4329
0:0:0:0:0:0:0:1 - - [20/Jan/2018:10:08:56 +0530] "GET /cochlear/admin/dashboard/view.do HTTP/1.1" 200 24993
0:0:0:0:0:0:0:1 - - [20/Jan/2018:10:08:56 +0530] "GET /cochlear/template/images/home/girl1.jpg HTTP/1.1" 200 49507
0:0:0:0:0:0:0:1 - - [20/Jan/2018:10:08:56 +0530] "GET /product/attachment/Image/ProductAttachment1515409985023.jpg HTTP/1.1" 200 101714
0:0:0:0:0:0:0:1 - - [20/Jan/2018:10:08:56 +0530] "GET /cochlear/template/images/home/girl2.jpg HTTP/1.1" 200 43841
0:0:0:0:0:0:0:1 - - [20/Jan/2018:10:08:56 +0530] "GET /product/attachment/Image/ProductAttachment1515475027062.jpg HTTP/1.1" 200 147928
0:0:0:0:0:0:0:1 - - [20/Jan/2018:10:08:56 +0530] "GET /product/attachment/Image/ProductAttachment1515410689056.jpg HTTP/1.1" 200 30803
0:0:0:0:0:0:0:1 - - [20/Jan/2018:10:08:56 +0530] "GET /product/attachment/Image/ProductAttachment1515410529807.jpg HTTP/1.1" 200 35522
0:0:0:0:0:0:0:1 - - [20/Jan/2018:10:08:56 +0530] "GET /cochlear/template/js/jquery.js HTTP/1.1" 200 93106
0:0:0:0:0:0:0:1 - - [20/Jan/2018:10:08:56 +0530] "GET /product/attachment/Image/ProductAttachment1516273387597.png HTTP/1.1" 200 28574
0:0:0:0:0:0:0:1 - - [20/Jan/2018:10:08:56 +0530] "GET /cochlear/template/js/jquery.scrollUp.min.js HTTP/1.1" 200 2151
0:0:0:0:0:0:0:1 - - [20/Jan/2018:10:08:56 +0530] "GET /cochlear/template/js/bootstrap.min.js HTTP/1.1" 200 27822
0:0:0:0:0:0:0:1 - - [20/Jan/2018:10:08:56 +0530] "GET /cochlear/template/js/price-range.js HTTP/1.1" 200 11257
0:0:0:0:0:0:0:1 - - [20/Jan/2018:10:08:56 +0530] "GET /cochlear/template/js/jquery.prettyPhoto.js HTTP/1.1" 200 22060
0:0:0:0:0:0:0:1 - - [20/Jan/2018:10:08:56 +0530] "GET /cochlear/template/js/main.js HTTP/1.1" 200 1269
0:0:0:0:0:0:0:1 - - [20/Jan/2018:10:08:56 +0530] "GET /cochlear/template/images/home/iframe1.png HTTP/1.1" 200 6915
0:0:0:0:0:0:0:1 - - [20/Jan/2018:10:08:56 +0530] "GET /product/attachment/Image/ProductAttachment1516271990825.jpg HTTP/1.1" 200 12687
0:0:0:0:0:0:0:1 - - [20/Jan/2018:10:08:56 +0530] "GET /product/attachment/Image/ProductAttachment1516273122036.jpg HTTP/1.1" 200 12415
0:0:0:0:0:0:0:1 - - [20/Jan/2018:10:08:56 +0530] "GET /cochlear/template/images/home/iframe2.png HTTP/1.1" 200 9870
0:0:0:0:0:0:0:1 - - [20/Jan/2018:10:08:56 +0530] "GET /cochlear/template/images/home/iframe3.png HTTP/1.1" 200 12990
0:0:0:0:0:0:0:1 - - [20/Jan/2018:10:08:56 +0530] "GET /cochlear/template/images/home/iframe4.png HTTP/1.1" 200 13835
0:0:0:0:0:0:0:1 - - [20/Jan/2018:10:08:56 +0530] "GET /cochlear/template/images/home/map.png HTTP/1.1" 200 14823
0:0:0:0:0:0:0:1 - - [20/Jan/2018:10:08:56 +0530] "GET /cochlear/template/fonts/fontawesome-webfont.woff?v=4.0.3 HTTP/1.1" 200 44432
0:0:0:0:0:0:0:1 - - [20/Jan/2018:10:09:00 +0530] "GET /cochlear/js/cochlear.js HTTP/1.1" 200 3325
0:0:0:0:0:0:0:1 - - [20/Jan/2018:10:09:00 +0530] "GET /cochlear/admin/company/add.do HTTP/1.1" 200 16772
0:0:0:0:0:0:0:1 - - [20/Jan/2018:10:09:00 +0530] "GET /cochlear/dwr/interface/Product.js HTTP/1.1" 200 5658
0:0:0:0:0:0:0:1 - - [20/Jan/2018:10:09:00 +0530] "GET /cochlear/dwr/util.js HTTP/1.1" 200 48475
0:0:0:0:0:0:0:1 - - [20/Jan/2018:10:09:00 +0530] "GET /cochlear/dwr/interface/Address.js HTTP/1.1" 200 5638
0:0:0:0:0:0:0:1 - - [20/Jan/2018:10:09:00 +0530] "GET /cochlear/dwr/engine.js HTTP/1.1" 200 78562
0:0:0:0:0:0:0:1 - - [20/Jan/2018:10:09:00 +0530] "POST /cochlear/dwr/call/plaincall/__System.pageLoaded.dwr HTTP/1.1" 200 200
0:0:0:0:0:0:0:1 - - [20/Jan/2018:10:09:03 +0530] "POST /cochlear/dwr/call/plaincall/Address.getState.dwr HTTP/1.1" 200 1965
0:0:0:0:0:0:0:1 - - [20/Jan/2018:10:09:05 +0530] "POST /cochlear/dwr/call/plaincall/Address.getCity.dwr HTTP/1.1" 200 1710
0:0:0:0:0:0:0:1 - - [20/Jan/2018:10:09:16 +0530] "GET /cochlear/dwr/util.js HTTP/1.1" 304 -
0:0:0:0:0:0:0:1 - - [20/Jan/2018:10:09:16 +0530] "GET /cochlear/dwr/interface/Product.js HTTP/1.1" 304 -
0:0:0:0:0:0:0:1 - - [20/Jan/2018:10:09:16 +0530] "GET /cochlear/js/cochlear.js HTTP/1.1" 304 -
0:0:0:0:0:0:0:1 - - [20/Jan/2018:10:09:16 +0530] "GET /cochlear/admin/productsku/add.do HTTP/1.1" 200 18497
0:0:0:0:0:0:0:1 - - [20/Jan/2018:10:09:16 +0530] "GET /cochlear/dwr/engine.js HTTP/1.1" 304 -
0:0:0:0:0:0:0:1 - - [20/Jan/2018:10:09:16 +0530] "POST /cochlear/dwr/call/plaincall/__System.pageLoaded.dwr HTTP/1.1" 200 200
0:0:0:0:0:0:0:1 - - [20/Jan/2018:10:09:18 +0530] "POST /cochlear/dwr/call/plaincall/Product.getCategory.dwr HTTP/1.1" 200 702
0:0:0:0:0:0:0:1 - - [20/Jan/2018:10:09:22 +0530] "POST /cochlear/dwr/call/plaincall/__System.pageLoaded.dwr HTTP/1.1" 200 200
0:0:0:0:0:0:0:1 - - [20/Jan/2018:10:09:59 +0530] "GET /cochlear/admin/productsku/add.do HTTP/1.1" 200 18497
0:0:0:0:0:0:0:1 - - [20/Jan/2018:10:09:59 +0530] "GET /cochlear/dwr/engine.js HTTP/1.1" 304 -
0:0:0:0:0:0:0:1 - - [20/Jan/2018:10:09:59 +0530] "GET /cochlear/dwr/util.js HTTP/1.1" 304 -
0:0:0:0:0:0:0:1 - - [20/Jan/2018:10:09:59 +0530] "GET /cochlear/dwr/interface/Product.js HTTP/1.1" 304 -
0:0:0:0:0:0:0:1 - - [20/Jan/2018:10:09:59 +0530] "GET /cochlear/js/cochlear.js HTTP/1.1" 304 -
0:0:0:0:0:0:0:1 - - [20/Jan/2018:10:09:59 +0530] "POST /cochlear/dwr/call/plaincall/__System.pageLoaded.dwr HTTP/1.1" 200 200
0:0:0:0:0:0:0:1 - - [20/Jan/2018:10:10:03 +0530] "POST /cochlear/dwr/call/plaincall/Product.getCategory.dwr HTTP/1.1" 200 702
0:0:0:0:0:0:0:1 - - [20/Jan/2018:10:11:40 +0530] "GET /cochlear/admin/company/add.do HTTP/1.1" 200 16772
0:0:0:0:0:0:0:1 - - [20/Jan/2018:10:11:40 +0530] "GET /cochlear/dwr/engine.js HTTP/1.1" 304 -
0:0:0:0:0:0:0:1 - - [20/Jan/2018:10:11:40 +0530] "GET /cochlear/dwr/util.js HTTP/1.1" 304 -
0:0:0:0:0:0:0:1 - - [20/Jan/2018:10:11:40 +0530] "GET /cochlear/dwr/interface/Product.js HTTP/1.1" 304 -
0:0:0:0:0:0:0:1 - - [20/Jan/2018:10:11:40 +0530] "GET /cochlear/dwr/interface/Address.js HTTP/1.1" 304 -
0:0:0:0:0:0:0:1 - - [20/Jan/2018:10:11:40 +0530] "GET /cochlear/js/cochlear.js HTTP/1.1" 304 -
0:0:0:0:0:0:0:1 - - [20/Jan/2018:10:11:40 +0530] "POST /cochlear/dwr/call/plaincall/__System.pageLoaded.dwr HTTP/1.1" 200 200
0:0:0:0:0:0:0:1 - - [20/Jan/2018:10:29:23 +0530] "GET /cochlear HTTP/1.1" 302 -
0:0:0:0:0:0:0:1 - - [20/Jan/2018:10:29:24 +0530] "GET /cochlear/ HTTP/1.1" 200 2718
0:0:0:0:0:0:0:1 - - [20/Jan/2018:10:29:26 +0530] "POST /cochlear/admin/login/login.do HTTP/1.1" 302 -
0:0:0:0:0:0:0:1 - - [20/Jan/2018:10:29:27 +0530] "GET /cochlear/admin/dashboard/view.do HTTP/1.1" 200 24993
0:0:0:0:0:0:0:1 - - [20/Jan/2018:10:29:33 +0530] "GET /cochlear/admin/company/add.do HTTP/1.1" 200 16772
0:0:0:0:0:0:0:1 - - [20/Jan/2018:10:29:33 +0530] "GET /cochlear/js/cochlear.js HTTP/1.1" 304 -
0:0:0:0:0:0:0:1 - - [20/Jan/2018:10:29:34 +0530] "GET /cochlear/dwr/util.js HTTP/1.1" 200 48475
0:0:0:0:0:0:0:1 - - [20/Jan/2018:10:29:34 +0530] "GET /cochlear/dwr/interface/Address.js HTTP/1.1" 200 5638
0:0:0:0:0:0:0:1 - - [20/Jan/2018:10:29:34 +0530] "GET /cochlear/dwr/interface/Product.js HTTP/1.1" 200 5658
0:0:0:0:0:0:0:1 - - [20/Jan/2018:10:29:34 +0530] "GET /cochlear/dwr/engine.js HTTP/1.1" 200 78562
0:0:0:0:0:0:0:1 - - [20/Jan/2018:10:29:34 +0530] "POST /cochlear/dwr/call/plaincall/__System.pageLoaded.dwr HTTP/1.1" 200 200
0:0:0:0:0:0:0:1 - - [20/Jan/2018:10:29:38 +0530] "POST /cochlear/dwr/call/plaincall/Address.getState.dwr HTTP/1.1" 200 1965
0:0:0:0:0:0:0:1 - - [20/Jan/2018:10:29:39 +0530] "POST /cochlear/dwr/call/plaincall/Address.getCity.dwr HTTP/1.1" 200 1710
0:0:0:0:0:0:0:1 - - [20/Jan/2018:10:29:46 +0530] "GET /cochlear/admin/productsku/add.do HTTP/1.1" 200 18497
0:0:0:0:0:0:0:1 - - [20/Jan/2018:10:29:46 +0530] "GET /cochlear/dwr/engine.js HTTP/1.1" 304 -
0:0:0:0:0:0:0:1 - - [20/Jan/2018:10:29:46 +0530] "GET /cochlear/dwr/util.js HTTP/1.1" 304 -
0:0:0:0:0:0:0:1 - - [20/Jan/2018:10:29:46 +0530] "GET /cochlear/dwr/interface/Product.js HTTP/1.1" 304 -
0:0:0:0:0:0:0:1 - - [20/Jan/2018:10:29:46 +0530] "POST /cochlear/dwr/call/plaincall/__System.pageLoaded.dwr HTTP/1.1" 200 200
0:0:0:0:0:0:0:1 - - [20/Jan/2018:10:29:48 +0530] "POST /cochlear/dwr/call/plaincall/Product.getCategory.dwr HTTP/1.1" 200 702
0:0:0:0:0:0:0:1 - - [20/Jan/2018:10:31:36 +0530] "GET /cochlear/admin/productsku/add.do HTTP/1.1" 200 18497
0:0:0:0:0:0:0:1 - - [20/Jan/2018:10:31:36 +0530] "GET /cochlear/dwr/engine.js HTTP/1.1" 304 -
0:0:0:0:0:0:0:1 - - [20/Jan/2018:10:31:36 +0530] "GET /cochlear/dwr/util.js HTTP/1.1" 304 -
0:0:0:0:0:0:0:1 - - [20/Jan/2018:10:31:36 +0530] "GET /cochlear/dwr/interface/Product.js HTTP/1.1" 304 -
0:0:0:0:0:0:0:1 - - [20/Jan/2018:10:31:36 +0530] "POST /cochlear/dwr/call/plaincall/__System.pageLoaded.dwr HTTP/1.1" 200 200
0:0:0:0:0:0:0:1 - - [20/Jan/2018:10:32:24 +0530] "POST /cochlear/dwr/call/plaincall/Product.getCategory.dwr HTTP/1.1" 200 702
0:0:0:0:0:0:0:1 - - [20/Jan/2018:10:33:04 +0530] "GET /cochlear/admin/productsku/add.do HTTP/1.1" 200 18497
0:0:0:0:0:0:0:1 - - [20/Jan/2018:10:33:04 +0530] "GET /cochlear/dwr/engine.js HTTP/1.1" 304 -
0:0:0:0:0:0:0:1 - - [20/Jan/2018:10:33:04 +0530] "GET /cochlear/dwr/util.js HTTP/1.1" 304 -
0:0:0:0:0:0:0:1 - - [20/Jan/2018:10:33:04 +0530] "GET /cochlear/dwr/interface/Product.js HTTP/1.1" 304 -
0:0:0:0:0:0:0:1 - - [20/Jan/2018:10:33:04 +0530] "GET /cochlear/js/cochlear.js HTTP/1.1" 304 -
0:0:0:0:0:0:0:1 - - [20/Jan/2018:10:33:04 +0530] "POST /cochlear/dwr/call/plaincall/__System.pageLoaded.dwr HTTP/1.1" 200 200
0:0:0:0:0:0:0:1 - - [20/Jan/2018:10:33:50 +0530] "POST /cochlear/dwr/call/plaincall/Product.getCategory.dwr HTTP/1.1" 200 702
0:0:0:0:0:0:0:1 - - [20/Jan/2018:10:35:14 +0530] "GET /cochlear/admin/productsku/add.do HTTP/1.1" 200 18497
0:0:0:0:0:0:0:1 - - [20/Jan/2018:10:35:14 +0530] "GET /cochlear/dwr/engine.js HTTP/1.1" 304 -
0:0:0:0:0:0:0:1 - - [20/Jan/2018:10:35:14 +0530] "GET /cochlear/dwr/util.js HTTP/1.1" 304 -
0:0:0:0:0:0:0:1 - - [20/Jan/2018:10:35:14 +0530] "GET /cochlear/dwr/interface/Product.js HTTP/1.1" 304 -
0:0:0:0:0:0:0:1 - - [20/Jan/2018:10:35:14 +0530] "POST /cochlear/dwr/call/plaincall/__System.pageLoaded.dwr HTTP/1.1" 200 200
0:0:0:0:0:0:0:1 - - [20/Jan/2018:10:38:54 +0530] "GET /cochlear/admin/productsku/add.do HTTP/1.1" 404 2718
0:0:0:0:0:0:0:1 - - [20/Jan/2018:10:38:55 +0530] "POST /cochlear/admin/login/login.do HTTP/1.1" 302 -
0:0:0:0:0:0:0:1 - - [20/Jan/2018:10:38:56 +0530] "GET /cochlear/admin/dashboard/view.do HTTP/1.1" 200 24993
0:0:0:0:0:0:0:1 - - [20/Jan/2018:10:38:59 +0530] "GET /cochlear/admin/productsku/add.do HTTP/1.1" 200 18497
0:0:0:0:0:0:0:1 - - [20/Jan/2018:10:38:59 +0530] "GET /cochlear/js/cochlear.js HTTP/1.1" 200 3333
0:0:0:0:0:0:0:1 - - [20/Jan/2018:10:38:59 +0530] "GET /cochlear/dwr/util.js HTTP/1.1" 200 48475
0:0:0:0:0:0:0:1 - - [20/Jan/2018:10:38:59 +0530] "GET /cochlear/dwr/interface/Product.js HTTP/1.1" 200 5658
0:0:0:0:0:0:0:1 - - [20/Jan/2018:10:38:59 +0530] "GET /cochlear/dwr/engine.js HTTP/1.1" 200 78562
0:0:0:0:0:0:0:1 - - [20/Jan/2018:10:38:59 +0530] "POST /cochlear/dwr/call/plaincall/__System.pageLoaded.dwr HTTP/1.1" 200 200
0:0:0:0:0:0:0:1 - - [20/Jan/2018:10:39:06 +0530] "POST /cochlear/dwr/call/plaincall/Product.getCategory.dwr HTTP/1.1" 200 702
0:0:0:0:0:0:0:1 - - [20/Jan/2018:10:39:12 +0530] "POST /cochlear/dwr/call/plaincall/Product.getSubCategory.dwr HTTP/1.1" 200 813
0:0:0:0:0:0:0:1 - - [20/Jan/2018:10:39:19 +0530] "GET /cochlear/admin/company/add.do HTTP/1.1" 200 16772
0:0:0:0:0:0:0:1 - - [20/Jan/2018:10:39:19 +0530] "GET /cochlear/dwr/engine.js HTTP/1.1" 304 -
0:0:0:0:0:0:0:1 - - [20/Jan/2018:10:39:19 +0530] "GET /cochlear/dwr/util.js HTTP/1.1" 304 -
0:0:0:0:0:0:0:1 - - [20/Jan/2018:10:39:19 +0530] "GET /cochlear/dwr/interface/Product.js HTTP/1.1" 304 -
0:0:0:0:0:0:0:1 - - [20/Jan/2018:10:39:19 +0530] "GET /cochlear/dwr/interface/Address.js HTTP/1.1" 200 5638
0:0:0:0:0:0:0:1 - - [20/Jan/2018:10:39:19 +0530] "GET /cochlear/js/cochlear.js HTTP/1.1" 304 -
0:0:0:0:0:0:0:1 - - [20/Jan/2018:10:39:19 +0530] "POST /cochlear/dwr/call/plaincall/__System.pageLoaded.dwr HTTP/1.1" 200 200
0:0:0:0:0:0:0:1 - - [20/Jan/2018:10:39:22 +0530] "POST /cochlear/dwr/call/plaincall/Address.getState.dwr HTTP/1.1" 200 1965
0:0:0:0:0:0:0:1 - - [20/Jan/2018:10:39:24 +0530] "POST /cochlear/dwr/call/plaincall/Address.getCity.dwr HTTP/1.1" 200 150285
0:0:0:0:0:0:0:1 - - [20/Jan/2018:10:43:05 +0530] "GET /cochlear/admin/company/add.do HTTP/1.1" 200 16961
0:0:0:0:0:0:0:1 - - [20/Jan/2018:10:43:05 +0530] "GET /cochlear/dwr/engine.js HTTP/1.1" 304 -
0:0:0:0:0:0:0:1 - - [20/Jan/2018:10:43:05 +0530] "GET /cochlear/dwr/util.js HTTP/1.1" 304 -
0:0:0:0:0:0:0:1 - - [20/Jan/2018:10:43:05 +0530] "GET /cochlear/dwr/interface/Address.js HTTP/1.1" 304 -
0:0:0:0:0:0:0:1 - - [20/Jan/2018:10:43:05 +0530] "GET /cochlear/dwr/interface/Product.js HTTP/1.1" 304 -
0:0:0:0:0:0:0:1 - - [20/Jan/2018:10:43:05 +0530] "GET /cochlear/js/cochlear.js HTTP/1.1" 304 -
0:0:0:0:0:0:0:1 - - [20/Jan/2018:10:43:05 +0530] "POST /cochlear/dwr/call/plaincall/__System.pageLoaded.dwr HTTP/1.1" 200 200
0:0:0:0:0:0:0:1 - - [20/Jan/2018:10:44:13 +0530] "GET /cochlear/admin/company/add.do HTTP/1.1" 200 16969
0:0:0:0:0:0:0:1 - - [20/Jan/2018:10:44:13 +0530] "GET /cochlear/dwr/engine.js HTTP/1.1" 304 -
0:0:0:0:0:0:0:1 - - [20/Jan/2018:10:44:13 +0530] "GET /cochlear/dwr/util.js HTTP/1.1" 304 -
0:0:0:0:0:0:0:1 - - [20/Jan/2018:10:44:13 +0530] "GET /cochlear/dwr/interface/Product.js HTTP/1.1" 304 -
0:0:0:0:0:0:0:1 - - [20/Jan/2018:10:44:13 +0530] "GET /cochlear/dwr/interface/Address.js HTTP/1.1" 304 -
0:0:0:0:0:0:0:1 - - [20/Jan/2018:10:44:13 +0530] "GET /cochlear/js/cochlear.js HTTP/1.1" 304 -
0:0:0:0:0:0:0:1 - - [20/Jan/2018:10:44:13 +0530] "POST /cochlear/dwr/call/plaincall/__System.pageLoaded.dwr HTTP/1.1" 200 200
0:0:0:0:0:0:0:1 - - [20/Jan/2018:10:44:40 +0530] "GET /cochlear/admin/company/add.do HTTP/1.1" 200 16976
0:0:0:0:0:0:0:1 - - [20/Jan/2018:10:44:40 +0530] "POST /cochlear/dwr/call/plaincall/__System.pageLoaded.dwr HTTP/1.1" 200 200
0:0:0:0:0:0:0:1 - - [20/Jan/2018:10:44:56 +0530] "GET /cochlear/admin/company/add.do HTTP/1.1" 200 16968
0:0:0:0:0:0:0:1 - - [20/Jan/2018:10:44:57 +0530] "GET /cochlear/dwr/engine.js HTTP/1.1" 304 -
0:0:0:0:0:0:0:1 - - [20/Jan/2018:10:44:57 +0530] "GET /cochlear/dwr/util.js HTTP/1.1" 304 -
0:0:0:0:0:0:0:1 - - [20/Jan/2018:10:44:57 +0530] "GET /cochlear/dwr/interface/Product.js HTTP/1.1" 304 -
0:0:0:0:0:0:0:1 - - [20/Jan/2018:10:44:57 +0530] "GET /cochlear/dwr/interface/Address.js HTTP/1.1" 304 -
0:0:0:0:0:0:0:1 - - [20/Jan/2018:10:44:57 +0530] "GET /cochlear/js/cochlear.js HTTP/1.1" 304 -
0:0:0:0:0:0:0:1 - - [20/Jan/2018:10:44:57 +0530] "POST /cochlear/dwr/call/plaincall/__System.pageLoaded.dwr HTTP/1.1" 200 200
0:0:0:0:0:0:0:1 - - [20/Jan/2018:10:49:20 +0530] "GET /cochlear/admin/company/add.do HTTP/1.1" 200 17169
0:0:0:0:0:0:0:1 - - [20/Jan/2018:10:49:20 +0530] "GET /cochlear/dwr/engine.js HTTP/1.1" 304 -
0:0:0:0:0:0:0:1 - - [20/Jan/2018:10:49:20 +0530] "GET /cochlear/dwr/util.js HTTP/1.1" 304 -
0:0:0:0:0:0:0:1 - - [20/Jan/2018:10:49:20 +0530] "GET /cochlear/dwr/interface/Product.js HTTP/1.1" 304 -
0:0:0:0:0:0:0:1 - - [20/Jan/2018:10:49:20 +0530] "GET /cochlear/dwr/interface/Address.js HTTP/1.1" 304 -
0:0:0:0:0:0:0:1 - - [20/Jan/2018:10:49:20 +0530] "GET /cochlear/js/cochlear.js HTTP/1.1" 304 -
0:0:0:0:0:0:0:1 - - [20/Jan/2018:10:49:20 +0530] "POST /cochlear/dwr/call/plaincall/__System.pageLoaded.dwr HTTP/1.1" 200 200
0:0:0:0:0:0:0:1 - - [20/Jan/2018:10:49:49 +0530] "GET /cochlear/admin/company/add.do HTTP/1.1" 200 17189
0:0:0:0:0:0:0:1 - - [20/Jan/2018:10:49:49 +0530] "POST /cochlear/dwr/call/plaincall/__System.pageLoaded.dwr HTTP/1.1" 200 200
0:0:0:0:0:0:0:1 - - [20/Jan/2018:10:51:02 +0530] "GET /cochlear/admin/company/add.do HTTP/1.1" 404 2718
0:0:0:0:0:0:0:1 - - [20/Jan/2018:10:51:03 +0530] "POST /cochlear/admin/login/login.do HTTP/1.1" 302 -
0:0:0:0:0:0:0:1 - - [20/Jan/2018:10:51:03 +0530] "GET /cochlear/admin/dashboard/view.do HTTP/1.1" 200 24993
0:0:0:0:0:0:0:1 - - [20/Jan/2018:10:51:07 +0530] "GET /cochlear/admin/company/add.do HTTP/1.1" 200 17180
0:0:0:0:0:0:0:1 - - [20/Jan/2018:10:51:07 +0530] "GET /cochlear/js/cochlear.js HTTP/1.1" 304 -
0:0:0:0:0:0:0:1 - - [20/Jan/2018:10:51:07 +0530] "GET /cochlear/dwr/util.js HTTP/1.1" 200 48475
0:0:0:0:0:0:0:1 - - [20/Jan/2018:10:51:07 +0530] "GET /cochlear/dwr/interface/Address.js HTTP/1.1" 200 5638
0:0:0:0:0:0:0:1 - - [20/Jan/2018:10:51:07 +0530] "GET /cochlear/dwr/interface/Product.js HTTP/1.1" 200 5658
0:0:0:0:0:0:0:1 - - [20/Jan/2018:10:51:07 +0530] "GET /cochlear/dwr/engine.js HTTP/1.1" 200 78562
0:0:0:0:0:0:0:1 - - [20/Jan/2018:10:51:07 +0530] "POST /cochlear/dwr/call/plaincall/__System.pageLoaded.dwr HTTP/1.1" 200 200
0:0:0:0:0:0:0:1 - - [20/Jan/2018:10:51:35 +0530] "GET /cochlear/admin/company/add.do HTTP/1.1" 200 17181
0:0:0:0:0:0:0:1 - - [20/Jan/2018:10:51:35 +0530] "GET /cochlear/dwr/engine.js HTTP/1.1" 304 -
0:0:0:0:0:0:0:1 - - [20/Jan/2018:10:51:35 +0530] "GET /cochlear/dwr/util.js HTTP/1.1" 304 -
0:0:0:0:0:0:0:1 - - [20/Jan/2018:10:51:35 +0530] "GET /cochlear/dwr/interface/Product.js HTTP/1.1" 304 -
0:0:0:0:0:0:0:1 - - [20/Jan/2018:10:51:35 +0530] "GET /cochlear/dwr/interface/Address.js HTTP/1.1" 304 -
0:0:0:0:0:0:0:1 - - [20/Jan/2018:10:51:35 +0530] "POST /cochlear/dwr/call/plaincall/__System.pageLoaded.dwr HTTP/1.1" 200 200
0:0:0:0:0:0:0:1 - - [20/Jan/2018:12:11:59 +0530] "GET /cochlear HTTP/1.1" 302 -
0:0:0:0:0:0:0:1 - - [20/Jan/2018:12:12:01 +0530] "GET /cochlear/ HTTP/1.1" 200 2718
0:0:0:0:0:0:0:1 - - [20/Jan/2018:12:12:02 +0530] "POST /cochlear/admin/login/login.do HTTP/1.1" 302 -
0:0:0:0:0:0:0:1 - - [20/Jan/2018:12:12:03 +0530] "GET /cochlear/admin/dashboard/view.do HTTP/1.1" 200 24993
0:0:0:0:0:0:0:1 - - [20/Jan/2018:12:12:08 +0530] "GET /cochlear/admin/company/add.do HTTP/1.1" 200 16772
0:0:0:0:0:0:0:1 - - [20/Jan/2018:12:12:08 +0530] "GET /cochlear/js/cochlear.js HTTP/1.1" 304 -
0:0:0:0:0:0:0:1 - - [20/Jan/2018:12:12:08 +0530] "GET /cochlear/dwr/util.js HTTP/1.1" 200 48475
0:0:0:0:0:0:0:1 - - [20/Jan/2018:12:12:08 +0530] "GET /cochlear/dwr/interface/Address.js HTTP/1.1" 200 5638
0:0:0:0:0:0:0:1 - - [20/Jan/2018:12:12:08 +0530] "GET /cochlear/dwr/interface/Product.js HTTP/1.1" 200 5658
0:0:0:0:0:0:0:1 - - [20/Jan/2018:12:12:08 +0530] "GET /cochlear/dwr/engine.js HTTP/1.1" 200 78562
0:0:0:0:0:0:0:1 - - [20/Jan/2018:12:12:08 +0530] "POST /cochlear/dwr/call/plaincall/__System.pageLoaded.dwr HTTP/1.1" 200 200
0:0:0:0:0:0:0:1 - - [20/Jan/2018:12:12:55 +0530] "POST /cochlear/dwr/call/plaincall/Address.getState.dwr HTTP/1.1" 200 1965
0:0:0:0:0:0:0:1 - - [20/Jan/2018:12:12:57 +0530] "POST /cochlear/dwr/call/plaincall/Address.getCity.dwr HTTP/1.1" 200 32983
0:0:0:0:0:0:0:1 - - [20/Jan/2018:12:19:26 +0530] "GET /cochlear/admin/company/add.do HTTP/1.1" 404 2718
0:0:0:0:0:0:0:1 - - [20/Jan/2018:12:19:27 +0530] "POST /cochlear/admin/login/login.do HTTP/1.1" 302 -
0:0:0:0:0:0:0:1 - - [20/Jan/2018:12:19:28 +0530] "GET /cochlear/admin/dashboard/view.do HTTP/1.1" 200 24993
0:0:0:0:0:0:0:1 - - [20/Jan/2018:12:19:31 +0530] "GET /cochlear/admin/company/add.do HTTP/1.1" 200 16772
0:0:0:0:0:0:0:1 - - [20/Jan/2018:12:19:31 +0530] "GET /cochlear/dwr/util.js HTTP/1.1" 200 48475
0:0:0:0:0:0:0:1 - - [20/Jan/2018:12:19:31 +0530] "GET /cochlear/dwr/interface/Product.js HTTP/1.1" 200 5658
0:0:0:0:0:0:0:1 - - [20/Jan/2018:12:19:31 +0530] "GET /cochlear/dwr/interface/Address.js HTTP/1.1" 200 5638
0:0:0:0:0:0:0:1 - - [20/Jan/2018:12:19:31 +0530] "GET /cochlear/dwr/engine.js HTTP/1.1" 200 78562
0:0:0:0:0:0:0:1 - - [20/Jan/2018:12:19:31 +0530] "POST /cochlear/dwr/call/plaincall/__System.pageLoaded.dwr HTTP/1.1" 200 200
0:0:0:0:0:0:0:1 - - [20/Jan/2018:12:19:58 +0530] "POST /cochlear/dwr/call/plaincall/Address.getState.dwr HTTP/1.1" 200 1965
0:0:0:0:0:0:0:1 - - [20/Jan/2018:12:20:00 +0530] "POST /cochlear/dwr/call/plaincall/Address.getCity.dwr HTTP/1.1" 200 1710
0:0:0:0:0:0:0:1 - - [20/Jan/2018:12:21:19 +0530] "GET /cochlear/admin/company/add.do HTTP/1.1" 200 16772
0:0:0:0:0:0:0:1 - - [20/Jan/2018:12:21:19 +0530] "GET /cochlear/dwr/engine.js HTTP/1.1" 304 -
0:0:0:0:0:0:0:1 - - [20/Jan/2018:12:21:20 +0530] "GET /cochlear/dwr/util.js HTTP/1.1" 304 -
0:0:0:0:0:0:0:1 - - [20/Jan/2018:12:21:20 +0530] "GET /cochlear/dwr/interface/Product.js HTTP/1.1" 304 -
0:0:0:0:0:0:0:1 - - [20/Jan/2018:12:21:20 +0530] "GET /cochlear/dwr/interface/Address.js HTTP/1.1" 304 -
0:0:0:0:0:0:0:1 - - [20/Jan/2018:12:21:20 +0530] "POST /cochlear/dwr/call/plaincall/__System.pageLoaded.dwr HTTP/1.1" 200 200
0:0:0:0:0:0:0:1 - - [20/Jan/2018:12:21:27 +0530] "POST /cochlear/dwr/call/plaincall/Address.getState.dwr HTTP/1.1" 200 1965
0:0:0:0:0:0:0:1 - - [20/Jan/2018:12:21:29 +0530] "POST /cochlear/dwr/call/plaincall/Address.getCity.dwr HTTP/1.1" 200 3958
0:0:0:0:0:0:0:1 - - [20/Jan/2018:12:24:44 +0530] "GET /cochlear HTTP/1.1" 302 -
0:0:0:0:0:0:0:1 - - [20/Jan/2018:12:24:45 +0530] "GET /cochlear/ HTTP/1.1" 200 2718
0:0:0:0:0:0:0:1 - - [20/Jan/2018:12:24:46 +0530] "POST /cochlear/admin/login/login.do HTTP/1.1" 302 -
0:0:0:0:0:0:0:1 - - [20/Jan/2018:12:24:47 +0530] "GET /cochlear/admin/dashboard/view.do HTTP/1.1" 200 24993
0:0:0:0:0:0:0:1 - - [20/Jan/2018:12:24:49 +0530] "GET /cochlear/admin/company/add.do HTTP/1.1" 200 16772
0:0:0:0:0:0:0:1 - - [20/Jan/2018:12:24:49 +0530] "GET /cochlear/js/cochlear.js HTTP/1.1" 304 -
0:0:0:0:0:0:0:1 - - [20/Jan/2018:12:24:49 +0530] "GET /cochlear/dwr/interface/Address.js HTTP/1.1" 200 5638
0:0:0:0:0:0:0:1 - - [20/Jan/2018:12:24:49 +0530] "GET /cochlear/dwr/util.js HTTP/1.1" 200 48475
0:0:0:0:0:0:0:1 - - [20/Jan/2018:12:24:49 +0530] "GET /cochlear/dwr/interface/Product.js HTTP/1.1" 200 5658
0:0:0:0:0:0:0:1 - - [20/Jan/2018:12:24:49 +0530] "GET /cochlear/dwr/engine.js HTTP/1.1" 200 78562
0:0:0:0:0:0:0:1 - - [20/Jan/2018:12:24:49 +0530] "POST /cochlear/dwr/call/plaincall/__System.pageLoaded.dwr HTTP/1.1" 200 200
0:0:0:0:0:0:0:1 - - [20/Jan/2018:12:25:00 +0530] "POST /cochlear/dwr/call/plaincall/Address.getState.dwr HTTP/1.1" 200 1965
0:0:0:0:0:0:0:1 - - [20/Jan/2018:12:25:02 +0530] "POST /cochlear/dwr/call/plaincall/Address.getCity.dwr HTTP/1.1" 200 1710
0:0:0:0:0:0:0:1 - - [20/Jan/2018:12:30:31 +0530] "GET /cochlear/admin/company/create.do HTTP/1.1" 404 2718
0:0:0:0:0:0:0:1 - - [20/Jan/2018:12:30:32 +0530] "POST /cochlear/admin/login/login.do HTTP/1.1" 302 -
0:0:0:0:0:0:0:1 - - [20/Jan/2018:12:30:32 +0530] "GET /cochlear/admin/dashboard/view.do HTTP/1.1" 200 24993
0:0:0:0:0:0:0:1 - - [20/Jan/2018:12:30:34 +0530] "GET /cochlear/admin/company/add.do HTTP/1.1" 200 16772
0:0:0:0:0:0:0:1 - - [20/Jan/2018:12:30:34 +0530] "GET /cochlear/dwr/util.js HTTP/1.1" 200 48475
0:0:0:0:0:0:0:1 - - [20/Jan/2018:12:30:34 +0530] "GET /cochlear/dwr/interface/Address.js HTTP/1.1" 200 5638
0:0:0:0:0:0:0:1 - - [20/Jan/2018:12:30:34 +0530] "GET /cochlear/dwr/interface/Product.js HTTP/1.1" 200 5658
0:0:0:0:0:0:0:1 - - [20/Jan/2018:12:30:34 +0530] "GET /cochlear/dwr/engine.js HTTP/1.1" 200 78562
0:0:0:0:0:0:0:1 - - [20/Jan/2018:12:30:35 +0530] "POST /cochlear/dwr/call/plaincall/__System.pageLoaded.dwr HTTP/1.1" 200 200
0:0:0:0:0:0:0:1 - - [20/Jan/2018:12:30:47 +0530] "POST /cochlear/dwr/call/plaincall/Address.getState.dwr HTTP/1.1" 200 119
0:0:0:0:0:0:0:1 - - [20/Jan/2018:12:30:49 +0530] "POST /cochlear/dwr/call/plaincall/Address.getState.dwr HTTP/1.1" 200 1965
0:0:0:0:0:0:0:1 - - [20/Jan/2018:12:30:51 +0530] "POST /cochlear/dwr/call/plaincall/Address.getCity.dwr HTTP/1.1" 200 842
0:0:0:0:0:0:0:1 - - [20/Jan/2018:12:40:36 +0530] "GET /cochlear HTTP/1.1" 302 -
0:0:0:0:0:0:0:1 - - [20/Jan/2018:12:40:37 +0530] "GET /cochlear/ HTTP/1.1" 200 2718
0:0:0:0:0:0:0:1 - - [20/Jan/2018:12:40:38 +0530] "POST /cochlear/admin/login/login.do HTTP/1.1" 302 -
0:0:0:0:0:0:0:1 - - [20/Jan/2018:12:40:39 +0530] "GET /cochlear/admin/dashboard/view.do HTTP/1.1" 200 24993
0:0:0:0:0:0:0:1 - - [20/Jan/2018:12:40:40 +0530] "GET /cochlear/admin/productsku/add.do HTTP/1.1" 200 18497
0:0:0:0:0:0:0:1 - - [20/Jan/2018:12:40:40 +0530] "GET /cochlear/js/cochlear.js HTTP/1.1" 304 -
0:0:0:0:0:0:0:1 - - [20/Jan/2018:12:40:41 +0530] "GET /cochlear/dwr/interface/Product.js HTTP/1.1" 200 5658
0:0:0:0:0:0:0:1 - - [20/Jan/2018:12:40:41 +0530] "GET /cochlear/dwr/util.js HTTP/1.1" 200 48475
0:0:0:0:0:0:0:1 - - [20/Jan/2018:12:40:41 +0530] "GET /cochlear/dwr/engine.js HTTP/1.1" 200 78562
0:0:0:0:0:0:0:1 - - [20/Jan/2018:12:40:41 +0530] "POST /cochlear/dwr/call/plaincall/__System.pageLoaded.dwr HTTP/1.1" 200 200
0:0:0:0:0:0:0:1 - - [20/Jan/2018:12:40:43 +0530] "GET /cochlear/dwr/interface/Product.js HTTP/1.1" 304 -
0:0:0:0:0:0:0:1 - - [20/Jan/2018:12:40:43 +0530] "GET /cochlear/dwr/util.js HTTP/1.1" 304 -
0:0:0:0:0:0:0:1 - - [20/Jan/2018:12:40:43 +0530] "GET /cochlear/dwr/interface/Address.js HTTP/1.1" 200 5638
0:0:0:0:0:0:0:1 - - [20/Jan/2018:12:40:43 +0530] "GET /cochlear/admin/company/add.do HTTP/1.1" 200 16772
0:0:0:0:0:0:0:1 - - [20/Jan/2018:12:40:43 +0530] "GET /cochlear/dwr/engine.js HTTP/1.1" 304 -
0:0:0:0:0:0:0:1 - - [20/Jan/2018:12:40:43 +0530] "POST /cochlear/dwr/call/plaincall/__System.pageLoaded.dwr HTTP/1.1" 200 200
0:0:0:0:0:0:0:1 - - [20/Jan/2018:12:40:49 +0530] "POST /cochlear/dwr/call/plaincall/Address.getState.dwr HTTP/1.1" 200 3214
0:0:0:0:0:0:0:1 - - [20/Jan/2018:12:41:07 +0530] "GET /cochlear/admin/company/add.do HTTP/1.1" 200 16772
0:0:0:0:0:0:0:1 - - [20/Jan/2018:12:41:07 +0530] "GET /cochlear/dwr/engine.js HTTP/1.1" 304 -
0:0:0:0:0:0:0:1 - - [20/Jan/2018:12:41:07 +0530] "GET /cochlear/dwr/util.js HTTP/1.1" 304 -
0:0:0:0:0:0:0:1 - - [20/Jan/2018:12:41:07 +0530] "GET /cochlear/dwr/interface/Product.js HTTP/1.1" 304 -
0:0:0:0:0:0:0:1 - - [20/Jan/2018:12:41:07 +0530] "GET /cochlear/dwr/interface/Address.js HTTP/1.1" 304 -
0:0:0:0:0:0:0:1 - - [20/Jan/2018:12:41:07 +0530] "POST /cochlear/dwr/call/plaincall/__System.pageLoaded.dwr HTTP/1.1" 200 200
0:0:0:0:0:0:0:1 - - [20/Jan/2018:12:41:16 +0530] "POST /cochlear/dwr/call/plaincall/Address.getState.dwr HTTP/1.1" 200 3214
0:0:0:0:0:0:0:1 - - [20/Jan/2018:12:44:37 +0530] "GET /cochlear/admin/dashboard/view.do HTTP/1.1" 404 2718
0:0:0:0:0:0:0:1 - - [20/Jan/2018:12:44:38 +0530] "POST /cochlear/admin/login/login.do HTTP/1.1" 302 -
0:0:0:0:0:0:0:1 - - [20/Jan/2018:12:44:39 +0530] "GET /cochlear/admin/dashboard/view.do HTTP/1.1" 200 24993
0:0:0:0:0:0:0:1 - - [20/Jan/2018:12:44:41 +0530] "GET /cochlear/js/cochlear.js HTTP/1.1" 304 -
0:0:0:0:0:0:0:1 - - [20/Jan/2018:12:44:41 +0530] "GET /cochlear/admin/company/add.do HTTP/1.1" 200 16772
0:0:0:0:0:0:0:1 - - [20/Jan/2018:12:44:41 +0530] "GET /cochlear/dwr/interface/Address.js HTTP/1.1" 200 5638
0:0:0:0:0:0:0:1 - - [20/Jan/2018:12:44:41 +0530] "GET /cochlear/dwr/util.js HTTP/1.1" 200 48475
0:0:0:0:0:0:0:1 - - [20/Jan/2018:12:44:41 +0530] "GET /cochlear/dwr/interface/Product.js HTTP/1.1" 200 5658
0:0:0:0:0:0:0:1 - - [20/Jan/2018:12:44:41 +0530] "GET /cochlear/dwr/engine.js HTTP/1.1" 200 78562
0:0:0:0:0:0:0:1 - - [20/Jan/2018:12:44:41 +0530] "POST /cochlear/dwr/call/plaincall/__System.pageLoaded.dwr HTTP/1.1" 200 200
0:0:0:0:0:0:0:1 - - [20/Jan/2018:12:44:52 +0530] "POST /cochlear/dwr/call/plaincall/Address.getState.dwr HTTP/1.1" 200 1965
0:0:0:0:0:0:0:1 - - [20/Jan/2018:12:44:54 +0530] "POST /cochlear/dwr/call/plaincall/Address.getCity.dwr HTTP/1.1" 200 12696
0:0:0:0:0:0:0:1 - - [20/Jan/2018:12:50:45 +0530] "GET /cochlear HTTP/1.1" 302 -
0:0:0:0:0:0:0:1 - - [20/Jan/2018:12:50:47 +0530] "GET /cochlear/ HTTP/1.1" 200 2718
0:0:0:0:0:0:0:1 - - [20/Jan/2018:12:50:48 +0530] "POST /cochlear/admin/login/login.do HTTP/1.1" 302 -
0:0:0:0:0:0:0:1 - - [20/Jan/2018:12:50:49 +0530] "GET /cochlear/admin/dashboard/view.do HTTP/1.1" 200 24993
0:0:0:0:0:0:0:1 - - [20/Jan/2018:12:50:50 +0530] "GET /cochlear/admin/company/add.do HTTP/1.1" 200 16772
0:0:0:0:0:0:0:1 - - [20/Jan/2018:12:50:51 +0530] "GET /cochlear/dwr/util.js HTTP/1.1" 200 48475
0:0:0:0:0:0:0:1 - - [20/Jan/2018:12:50:51 +0530] "GET /cochlear/dwr/interface/Product.js HTTP/1.1" 200 5658
0:0:0:0:0:0:0:1 - - [20/Jan/2018:12:50:51 +0530] "GET /cochlear/dwr/interface/Address.js HTTP/1.1" 200 5638
0:0:0:0:0:0:0:1 - - [20/Jan/2018:12:50:51 +0530] "GET /cochlear/dwr/engine.js HTTP/1.1" 200 78562
0:0:0:0:0:0:0:1 - - [20/Jan/2018:12:50:51 +0530] "POST /cochlear/dwr/call/plaincall/__System.pageLoaded.dwr HTTP/1.1" 200 200
0:0:0:0:0:0:0:1 - - [20/Jan/2018:12:51:04 +0530] "POST /cochlear/dwr/call/plaincall/Address.getState.dwr HTTP/1.1" 200 1965
0:0:0:0:0:0:0:1 - - [20/Jan/2018:12:51:06 +0530] "POST /cochlear/dwr/call/plaincall/Address.getCity.dwr HTTP/1.1" 200 1710
0:0:0:0:0:0:0:1 - - [20/Jan/2018:12:54:36 +0530] "GET /cochlear/admin/company/create.do HTTP/1.1" 404 2718
0:0:0:0:0:0:0:1 - - [20/Jan/2018:12:54:37 +0530] "POST /cochlear/admin/login/login.do HTTP/1.1" 302 -
0:0:0:0:0:0:0:1 - - [20/Jan/2018:12:54:38 +0530] "GET /cochlear/admin/dashboard/view.do HTTP/1.1" 200 24993
0:0:0:0:0:0:0:1 - - [20/Jan/2018:12:54:40 +0530] "GET /cochlear/admin/company/add.do HTTP/1.1" 200 16772
0:0:0:0:0:0:0:1 - - [20/Jan/2018:12:54:40 +0530] "GET /cochlear/dwr/util.js HTTP/1.1" 200 48475
0:0:0:0:0:0:0:1 - - [20/Jan/2018:12:54:40 +0530] "GET /cochlear/dwr/interface/Product.js HTTP/1.1" 200 5658
0:0:0:0:0:0:0:1 - - [20/Jan/2018:12:54:40 +0530] "GET /cochlear/dwr/interface/Address.js HTTP/1.1" 200 5638
0:0:0:0:0:0:0:1 - - [20/Jan/2018:12:54:40 +0530] "GET /cochlear/dwr/engine.js HTTP/1.1" 200 78562
0:0:0:0:0:0:0:1 - - [20/Jan/2018:12:54:40 +0530] "POST /cochlear/dwr/call/plaincall/__System.pageLoaded.dwr HTTP/1.1" 200 200
0:0:0:0:0:0:0:1 - - [20/Jan/2018:12:54:51 +0530] "POST /cochlear/dwr/call/plaincall/Address.getState.dwr HTTP/1.1" 200 1965
0:0:0:0:0:0:0:1 - - [20/Jan/2018:12:54:53 +0530] "POST /cochlear/dwr/call/plaincall/Address.getCity.dwr HTTP/1.1" 200 1710
0:0:0:0:0:0:0:1 - - [20/Jan/2018:12:55:06 +0530] "POST /cochlear/admin/company/create.do HTTP/1.1" 200 15324
0:0:0:0:0:0:0:1 - - [20/Jan/2018:12:55:06 +0530] "GET /cochlear/dwr/engine.js HTTP/1.1" 304 -
0:0:0:0:0:0:0:1 - - [20/Jan/2018:12:55:06 +0530] "GET /cochlear/dwr/util.js HTTP/1.1" 304 -
0:0:0:0:0:0:0:1 - - [20/Jan/2018:12:55:06 +0530] "GET /cochlear/dwr/interface/Product.js HTTP/1.1" 304 -
0:0:0:0:0:0:0:1 - - [20/Jan/2018:12:55:06 +0530] "GET /cochlear/dwr/interface/Address.js HTTP/1.1" 304 -
0:0:0:0:0:0:0:1 - - [20/Jan/2018:12:55:06 +0530] "POST /cochlear/dwr/call/plaincall/__System.pageLoaded.dwr HTTP/1.1" 200 200
0:0:0:0:0:0:0:1 - - [20/Jan/2018:14:04:10 +0530] "GET /cochlear HTTP/1.1" 302 -
0:0:0:0:0:0:0:1 - - [20/Jan/2018:14:04:10 +0530] "GET /cochlear/ HTTP/1.1" 200 2718
0:0:0:0:0:0:0:1 - - [20/Jan/2018:14:04:12 +0530] "POST /cochlear/admin/login/login.do HTTP/1.1" 302 -
0:0:0:0:0:0:0:1 - - [20/Jan/2018:14:04:12 +0530] "GET /cochlear/admin/dashboard/view.do HTTP/1.1" 200 24993
0:0:0:0:0:0:0:1 - - [20/Jan/2018:14:04:22 +0530] "GET /cochlear/admin/productsku/add.do HTTP/1.1" 200 18497
0:0:0:0:0:0:0:1 - - [20/Jan/2018:14:04:22 +0530] "GET /cochlear/dwr/engine.js HTTP/1.1" 304 -
0:0:0:0:0:0:0:1 - - [20/Jan/2018:14:04:22 +0530] "GET /cochlear/dwr/util.js HTTP/1.1" 304 -
0:0:0:0:0:0:0:1 - - [20/Jan/2018:14:04:22 +0530] "GET /cochlear/dwr/interface/Product.js HTTP/1.1" 304 -
0:0:0:0:0:0:0:1 - - [20/Jan/2018:14:04:22 +0530] "POST /cochlear/dwr/call/plaincall/__System.pageLoaded.dwr HTTP/1.1" 200 200
0:0:0:0:0:0:0:1 - - [20/Jan/2018:14:04:22 +0530] "GET /cochlear/js/cochlear.js HTTP/1.1" 304 -
0:0:0:0:0:0:0:1 - - [20/Jan/2018:14:04:25 +0530] "POST /cochlear/admin/productsku/list.do HTTP/1.1" 200 19492
0:0:0:0:0:0:0:1 - - [20/Jan/2018:14:04:25 +0530] "POST /cochlear/dwr/call/plaincall/__System.pageLoaded.dwr HTTP/1.1" 200 200
0:0:0:0:0:0:0:1 - - [20/Jan/2018:14:04:40 +0530] "POST /cochlear/dwr/call/plaincall/__System.pageLoaded.dwr HTTP/1.1" 200 200
0:0:0:0:0:0:0:1 - - [20/Jan/2018:14:04:43 +0530] "GET /cochlear/admin/company/add.do HTTP/1.1" 200 16973
0:0:0:0:0:0:0:1 - - [20/Jan/2018:14:04:43 +0530] "GET /cochlear/dwr/interface/Address.js HTTP/1.1" 304 -
0:0:0:0:0:0:0:1 - - [20/Jan/2018:14:04:43 +0530] "POST /cochlear/dwr/call/plaincall/__System.pageLoaded.dwr HTTP/1.1" 200 200
0:0:0:0:0:0:0:1 - - [20/Jan/2018:14:06:05 +0530] "POST /cochlear/dwr/call/plaincall/__System.pageLoaded.dwr HTTP/1.1" 200 200
0:0:0:0:0:0:0:1 - - [20/Jan/2018:14:18:32 +0530] "GET /cochlear/admin/dashboard/view.do HTTP/1.1" 404 2718
0:0:0:0:0:0:0:1 - - [20/Jan/2018:14:18:34 +0530] "POST /cochlear/admin/login/login.do HTTP/1.1" 302 -
0:0:0:0:0:0:0:1 - - [20/Jan/2018:14:18:34 +0530] "GET /cochlear/admin/dashboard/view.do HTTP/1.1" 200 24993
0:0:0:0:0:0:0:1 - - [20/Jan/2018:14:18:35 +0530] "GET /product/attachment/Image/ProductAttachment1516273387597.png HTTP/1.1" 304 -
0:0:0:0:0:0:0:1 - - [20/Jan/2018:14:18:36 +0530] "GET /cochlear/admin/company/add.do HTTP/1.1" 200 16772
0:0:0:0:0:0:0:1 - - [20/Jan/2018:14:18:36 +0530] "GET /cochlear/dwr/util.js HTTP/1.1" 200 48475
0:0:0:0:0:0:0:1 - - [20/Jan/2018:14:18:36 +0530] "GET /cochlear/dwr/interface/Product.js HTTP/1.1" 200 5658
0:0:0:0:0:0:0:1 - - [20/Jan/2018:14:18:36 +0530] "GET /cochlear/dwr/interface/Address.js HTTP/1.1" 200 5638
0:0:0:0:0:0:0:1 - - [20/Jan/2018:14:18:36 +0530] "GET /cochlear/dwr/engine.js HTTP/1.1" 200 78562
0:0:0:0:0:0:0:1 - - [20/Jan/2018:14:18:36 +0530] "POST /cochlear/dwr/call/plaincall/__System.pageLoaded.dwr HTTP/1.1" 200 200
0:0:0:0:0:0:0:1 - - [20/Jan/2018:14:18:50 +0530] "POST /cochlear/dwr/call/plaincall/Address.getState.dwr HTTP/1.1" 200 1965
0:0:0:0:0:0:0:1 - - [20/Jan/2018:14:18:52 +0530] "POST /cochlear/dwr/call/plaincall/Address.getCity.dwr HTTP/1.1" 200 1710
0:0:0:0:0:0:0:1 - - [20/Jan/2018:14:19:00 +0530] "POST /cochlear/admin/company/create.do HTTP/1.1" 200 15324
0:0:0:0:0:0:0:1 - - [20/Jan/2018:14:19:00 +0530] "GET /cochlear/dwr/engine.js HTTP/1.1" 304 -
0:0:0:0:0:0:0:1 - - [20/Jan/2018:14:19:00 +0530] "GET /cochlear/dwr/util.js HTTP/1.1" 304 -
0:0:0:0:0:0:0:1 - - [20/Jan/2018:14:19:00 +0530] "GET /cochlear/dwr/interface/Product.js HTTP/1.1" 304 -
0:0:0:0:0:0:0:1 - - [20/Jan/2018:14:19:00 +0530] "GET /cochlear/dwr/interface/Address.js HTTP/1.1" 304 -
0:0:0:0:0:0:0:1 - - [20/Jan/2018:14:19:00 +0530] "POST /cochlear/dwr/call/plaincall/__System.pageLoaded.dwr HTTP/1.1" 200 200
0:0:0:0:0:0:0:1 - - [20/Jan/2018:14:21:11 +0530] "GET /cochlear HTTP/1.1" 302 -
0:0:0:0:0:0:0:1 - - [20/Jan/2018:14:21:13 +0530] "GET /cochlear/ HTTP/1.1" 200 2718
0:0:0:0:0:0:0:1 - - [20/Jan/2018:14:21:15 +0530] "POST /cochlear/admin/login/login.do HTTP/1.1" 302 -
0:0:0:0:0:0:0:1 - - [20/Jan/2018:14:21:16 +0530] "GET /cochlear/admin/dashboard/view.do HTTP/1.1" 200 24993
0:0:0:0:0:0:0:1 - - [20/Jan/2018:14:21:16 +0530] "GET /product/attachment/Image/ProductAttachment1516273122036.jpg HTTP/1.1" 304 -
0:0:0:0:0:0:0:1 - - [20/Jan/2018:14:21:16 +0530] "GET /product/attachment/Image/ProductAttachment1516271990825.jpg HTTP/1.1" 304 -
0:0:0:0:0:0:0:1 - - [20/Jan/2018:14:21:17 +0530] "GET /cochlear/admin/company/add.do HTTP/1.1" 200 16772
0:0:0:0:0:0:0:1 - - [20/Jan/2018:14:21:17 +0530] "GET /cochlear/dwr/util.js HTTP/1.1" 200 48475
0:0:0:0:0:0:0:1 - - [20/Jan/2018:14:21:17 +0530] "GET /cochlear/dwr/interface/Address.js HTTP/1.1" 200 5638
0:0:0:0:0:0:0:1 - - [20/Jan/2018:14:21:17 +0530] "GET /cochlear/dwr/interface/Product.js HTTP/1.1" 200 5658
0:0:0:0:0:0:0:1 - - [20/Jan/2018:14:21:17 +0530] "GET /cochlear/dwr/engine.js HTTP/1.1" 200 78562
0:0:0:0:0:0:0:1 - - [20/Jan/2018:14:21:17 +0530] "POST /cochlear/dwr/call/plaincall/__System.pageLoaded.dwr HTTP/1.1" 200 200
0:0:0:0:0:0:0:1 - - [20/Jan/2018:14:21:25 +0530] "POST /cochlear/dwr/call/plaincall/Address.getState.dwr HTTP/1.1" 200 1965
0:0:0:0:0:0:0:1 - - [20/Jan/2018:14:21:26 +0530] "POST /cochlear/dwr/call/plaincall/Address.getCity.dwr HTTP/1.1" 200 32618
0:0:0:0:0:0:0:1 - - [20/Jan/2018:14:21:33 +0530] "POST /cochlear/admin/company/create.do HTTP/1.1" 200 14198
0:0:0:0:0:0:0:1 - - [20/Jan/2018:14:21:33 +0530] "GET /cochlear/dwr/interface/Product.js HTTP/1.1" 304 -
0:0:0:0:0:0:0:1 - - [20/Jan/2018:14:21:33 +0530] "GET /cochlear/dwr/engine.js HTTP/1.1" 304 -
0:0:0:0:0:0:0:1 - - [20/Jan/2018:14:21:33 +0530] "GET /cochlear/dwr/util.js HTTP/1.1" 304 -
0:0:0:0:0:0:0:1 - - [20/Jan/2018:14:21:33 +0530] "POST /cochlear/dwr/call/plaincall/__System.pageLoaded.dwr HTTP/1.1" 200 200
0:0:0:0:0:0:0:1 - - [20/Jan/2018:14:22:10 +0530] "POST /cochlear/admin/company/create.do HTTP/1.1" 200 13501
0:0:0:0:0:0:0:1 - - [20/Jan/2018:14:22:10 +0530] "GET /cochlear/dwr/engine.js HTTP/1.1" 304 -
0:0:0:0:0:0:0:1 - - [20/Jan/2018:14:22:10 +0530] "GET /cochlear/dwr/util.js HTTP/1.1" 304 -
0:0:0:0:0:0:0:1 - - [20/Jan/2018:14:22:10 +0530] "GET /cochlear/dwr/interface/Product.js HTTP/1.1" 304 -
0:0:0:0:0:0:0:1 - - [20/Jan/2018:14:22:10 +0530] "POST /cochlear/dwr/call/plaincall/__System.pageLoaded.dwr HTTP/1.1" 200 200
0:0:0:0:0:0:0:1 - - [20/Jan/2018:14:24:16 +0530] "POST /cochlear/admin/company/create.do HTTP/1.1" 200 14116
0:0:0:0:0:0:0:1 - - [20/Jan/2018:14:24:16 +0530] "GET /cochlear/dwr/util.js HTTP/1.1" 304 -
0:0:0:0:0:0:0:1 - - [20/Jan/2018:14:24:16 +0530] "GET /cochlear/dwr/interface/Product.js HTTP/1.1" 304 -
0:0:0:0:0:0:0:1 - - [20/Jan/2018:14:24:16 +0530] "GET /cochlear/dwr/engine.js HTTP/1.1" 304 -
0:0:0:0:0:0:0:1 - - [20/Jan/2018:14:24:16 +0530] "POST /cochlear/dwr/call/plaincall/__System.pageLoaded.dwr HTTP/1.1" 200 200
0:0:0:0:0:0:0:1 - - [20/Jan/2018:14:24:35 +0530] "POST /cochlear/admin/company/create.do HTTP/1.1" 200 13447
0:0:0:0:0:0:0:1 - - [20/Jan/2018:14:24:35 +0530] "GET /cochlear/dwr/engine.js HTTP/1.1" 304 -
0:0:0:0:0:0:0:1 - - [20/Jan/2018:14:24:35 +0530] "GET /cochlear/dwr/util.js HTTP/1.1" 304 -
0:0:0:0:0:0:0:1 - - [20/Jan/2018:14:24:35 +0530] "GET /cochlear/dwr/interface/Product.js HTTP/1.1" 304 -
0:0:0:0:0:0:0:1 - - [20/Jan/2018:14:24:35 +0530] "POST /cochlear/dwr/call/plaincall/__System.pageLoaded.dwr HTTP/1.1" 200 200
0:0:0:0:0:0:0:1 - - [20/Jan/2018:14:25:03 +0530] "GET /cochlear/admin/productsku/delete.do?productid= HTTP/1.1" 200 24993
0:0:0:0:0:0:0:1 - - [20/Jan/2018:14:25:05 +0530] "POST /cochlear/dwr/call/plaincall/__System.pageLoaded.dwr HTTP/1.1" 200 200
0:0:0:0:0:0:0:1 - - [20/Jan/2018:14:25:19 +0530] "POST /cochlear/dwr/call/plaincall/__System.pageLoaded.dwr HTTP/1.1" 200 200
0:0:0:0:0:0:0:1 - - [20/Jan/2018:14:36:40 +0530] "GET /cochlear/admin/dashboard/view.do HTTP/1.1" 200 25136
0:0:0:0:0:0:0:1 - - [20/Jan/2018:14:36:40 +0530] "GET /cochlear/template/images/home/searchicon.png HTTP/1.1" 200 1165
0:0:0:0:0:0:0:1 - - [20/Jan/2018:14:37:03 +0530] "GET /cochlear/admin/dashboard/view.do HTTP/1.1" 200 25144
0:0:0:0:0:0:0:1 - - [20/Jan/2018:14:37:46 +0530] "GET /cochlear/admin/dashboard/view.do HTTP/1.1" 200 25150
0:0:0:0:0:0:0:1 - - [20/Jan/2018:14:38:13 +0530] "GET /cochlear/admin/dashboard/view.do HTTP/1.1" 200 25115
0:0:0:0:0:0:0:1 - - [20/Jan/2018:14:42:20 +0530] "GET /cochlear/admin/dashboard/view.do HTTP/1.1" 200 25115
0:0:0:0:0:0:0:1 - - [20/Jan/2018:14:43:22 +0530] "GET /cochlear/admin/dashboard/view.do HTTP/1.1" 200 25115
0:0:0:0:0:0:0:1 - - [20/Jan/2018:14:43:23 +0530] "GET /cochlear/admin/dashboard/view.do HTTP/1.1" 200 25115
0:0:0:0:0:0:0:1 - - [20/Jan/2018:14:45:27 +0530] "GET /cochlear/admin/dashboard/view.do HTTP/1.1" 200 25115
0:0:0:0:0:0:0:1 - - [20/Jan/2018:14:47:42 +0530] "GET /cochlear/admin/dashboard/view.do HTTP/1.1" 200 25314
0:0:0:0:0:0:0:1 - - [20/Jan/2018:14:48:46 +0530] "GET /cochlear/admin/dashboard/view.do HTTP/1.1" 200 25269
0:0:0:0:0:0:0:1 - - [20/Jan/2018:14:48:59 +0530] "GET /action_page.php?searchvalue=hghfhf HTTP/1.1" 404 -
0:0:0:0:0:0:0:1 - - [20/Jan/2018:14:52:28 +0530] "GET /cochlear/admin/dashboard/view.do HTTP/1.1" 200 25547
0:0:0:0:0:0:0:1 - - [20/Jan/2018:14:52:28 +0530] "GET /cochlear/template/fonts/glyphicons-halflings-regular.woff HTTP/1.1" 200 23292
0:0:0:0:0:0:0:1 - - [20/Jan/2018:14:53:08 +0530] "GET /cochlear/admin/dashboard/view.do HTTP/1.1" 200 25593
0:0:0:0:0:0:0:1 - - [20/Jan/2018:14:53:41 +0530] "GET /cochlear/admin/dashboard/view.do HTTP/1.1" 200 25594
0:0:0:0:0:0:0:1 - - [20/Jan/2018:14:54:12 +0530] "GET /cochlear/admin/dashboard/view.do HTTP/1.1" 200 25592
0:0:0:0:0:0:0:1 - - [20/Jan/2018:14:55:49 +0530] "GET /cochlear/admin/dashboard/view.do HTTP/1.1" 200 25599
0:0:0:0:0:0:0:1 - - [20/Jan/2018:14:56:33 +0530] "GET /cochlear/admin/dashboard/view.do HTTP/1.1" 200 25593
0:0:0:0:0:0:0:1 - - [20/Jan/2018:15:12:22 +0530] "GET /cochlear/admin/dashboard/view.do HTTP/1.1" 404 2718
0:0:0:0:0:0:0:1 - - [20/Jan/2018:15:12:24 +0530] "POST /cochlear/admin/login/login.do HTTP/1.1" 302 -
0:0:0:0:0:0:0:1 - - [20/Jan/2018:15:12:43 +0530] "GET /cochlear/admin/dashboard/view.do HTTP/1.1" 200 21944
0:0:0:0:0:0:0:1 - - [20/Jan/2018:15:13:31 +0530] "GET /cochlear/admin/dashbord/view.do?txtsearch=Cochlear+Battery+Cover HTTP/1.1" 404 2718
0:0:0:0:0:0:0:1 - - [20/Jan/2018:15:17:08 +0530] "POST /cochlear/admin/login/login.do HTTP/1.1" 302 -
0:0:0:0:0:0:0:1 - - [20/Jan/2018:15:17:13 +0530] "GET /cochlear/admin/dashboard/view.do HTTP/1.1" 200 21945
0:0:0:0:0:0:0:1 - - [20/Jan/2018:15:17:40 +0530] "GET /cochlear/admin/dashboard/view.do?txtsearch=Cochlear+Battery+Cover HTTP/1.1" 200 22476
0:0:0:0:0:0:0:1 - - [20/Jan/2018:15:22:40 +0530] "GET /cochlear/admin/dashboard/view.do?txtsearch=Cochlear+Battery+Cover HTTP/1.1" 404 2718
0:0:0:0:0:0:0:1 - - [20/Jan/2018:15:22:42 +0530] "POST /cochlear/admin/login/login.do HTTP/1.1" 302 -
0:0:0:0:0:0:0:1 - - [20/Jan/2018:15:22:43 +0530] "GET /cochlear/admin/dashboard/view.do HTTP/1.1" 200 25620
0:0:0:0:0:0:0:1 - - [20/Jan/2018:15:24:05 +0530] "GET /cochlear/admin/dashboard/view.do?txtsearch=Cochlear+Battery+Cov HTTP/1.1" 200 21945
0:0:0:0:0:0:0:1 - - [20/Jan/2018:15:27:35 +0530] "GET /cochlear/admin/dashboard/view.do?txtsearch=Cochlear+Battery+Cover HTTP/1.1" 200 22476
0:0:0:0:0:0:0:1 - - [20/Jan/2018:15:32:06 +0530] "GET /cochlear/admin/dashboard/view.do?txtsearch=Cochlear+Battery+Cover HTTP/1.1" 200 22495
0:0:0:0:0:0:0:1 - - [20/Jan/2018:15:32:33 +0530] "GET /cochlear/admin/dashboard/view.do?txtsearch=Cochlear+Battery+Cover HTTP/1.1" 200 22497
0:0:0:0:0:0:0:1 - - [20/Jan/2018:15:32:35 +0530] "GET /cochlear/admin/dashboard/view.do?txtsearch=Cochlear+Battery+Cover HTTP/1.1" 200 22497
0:0:0:0:0:0:0:1 - - [20/Jan/2018:15:32:35 +0530] "GET /cochlear/admin/dashboard/view.do?txtsearch=Cochlear+Battery+Cover HTTP/1.1" 200 22497
0:0:0:0:0:0:0:1 - - [20/Jan/2018:15:32:36 +0530] "GET /cochlear/admin/dashboard/view.do?txtsearch=Cochlear+Battery+Cover HTTP/1.1" 200 22497
0:0:0:0:0:0:0:1 - - [20/Jan/2018:15:32:44 +0530] "GET /cochlear/admin/dashboard/view.do?txtsearch=Cochlear+Battery+Cover HTTP/1.1" 200 22496
0:0:0:0:0:0:0:1 - - [20/Jan/2018:15:33:15 +0530] "GET /cochlear/admin/dashboard/view.do?txtsearch=Cochlear+Battery+Cover HTTP/1.1" 200 22511
0:0:0:0:0:0:0:1 - - [20/Jan/2018:15:33:16 +0530] "GET /cochlear/admin/dashboard/view.do?txtsearch=Cochlear+Battery+Cover HTTP/1.1" 200 22511
0:0:0:0:0:0:0:1 - - [20/Jan/2018:15:33:31 +0530] "GET /cochlear/admin/dashboard/view.do?txtsearch=Cochlear+Battery+Cover HTTP/1.1" 200 22541
0:0:0:0:0:0:0:1 - - [20/Jan/2018:15:33:46 +0530] "GET /cochlear/admin/dashboard/view.do?txtsearch=Cochlear+Battery+Cover HTTP/1.1" 200 22507
0:0:0:0:0:0:0:1 - - [20/Jan/2018:15:39:27 +0530] "GET /cochlear/admin/dashboard/view.do?txtsearch=Cochlear+Battery+Cover HTTP/1.1" 200 22516
0:0:0:0:0:0:0:1 - - [20/Jan/2018:16:07:19 +0530] "GET /cochlear/admin/dashboard/view.do?txtsearch=Cochlear+Battery+Cover HTTP/1.1" 200 22507
0:0:0:0:0:0:0:1 - - [20/Jan/2018:16:08:20 +0530] "GET /cochlear/admin/dashboard/view.do?txtsearch= HTTP/1.1" 200 21982
0:0:0:0:0:0:0:1 - - [20/Jan/2018:16:09:29 +0530] "GET /cochlear/admin/dashboard/view.do?txtsearch= HTTP/1.1" 200 21976
0:0:0:0:0:0:0:1 - - [20/Jan/2018:16:09:59 +0530] "GET /cochlear/admin/dashboard/view.do?txtsearch= HTTP/1.1" 200 21978
0:0:0:0:0:0:0:1 - - [20/Jan/2018:16:10:25 +0530] "GET /cochlear/admin/dashboard/view.do?txtsearch= HTTP/1.1" 200 21954
0:0:0:0:0:0:0:1 - - [20/Jan/2018:16:10:26 +0530] "GET /cochlear/admin/dashboard/view.do?txtsearch= HTTP/1.1" 200 21954
0:0:0:0:0:0:0:1 - - [20/Jan/2018:16:11:22 +0530] "GET /cochlear/admin/dashboard/view.do?txtsearch= HTTP/1.1" 200 22024
0:0:0:0:0:0:0:1 - - [20/Jan/2018:16:12:04 +0530] "GET /cochlear/admin/dashboard/view.do?txtsearch= HTTP/1.1" 200 21968
0:0:0:0:0:0:0:1 - - [20/Jan/2018:16:54:01 +0530] "GET /cochlear/admin/dashboard/view.do?txtsearch= HTTP/1.1" 404 2718
0:0:0:0:0:0:0:1 - - [20/Jan/2018:16:54:03 +0530] "POST /cochlear/admin/login/login.do HTTP/1.1" 302 -
0:0:0:0:0:0:0:1 - - [20/Jan/2018:16:54:03 +0530] "GET /cochlear/admin/dashboard/view.do HTTP/1.1" 200 25638
0:0:0:0:0:0:0:1 - - [20/Jan/2018:16:55:50 +0530] "GET /cochlear/admin/dashboard/view.do HTTP/1.1" 200 25651
0:0:0:0:0:0:0:1 - - [20/Jan/2018:16:57:20 +0530] "GET /cochlear/admin/dashboard/view.do HTTP/1.1" 200 25651
0:0:0:0:0:0:0:1 - - [20/Jan/2018:16:57:28 +0530] "GET /cochlear/admin/dashboard/view.do?txtsearch= HTTP/1.1" 200 21982
0:0:0:0:0:0:0:1 - - [20/Jan/2018:16:57:49 +0530] "GET /cochlear/admin/dashboard/view.do?txtsearch= HTTP/1.1" 200 21982
0:0:0:0:0:0:0:1 - - [20/Jan/2018:16:58:05 +0530] "GET /cochlear/admin/dashboard/view.do?txtsearch= HTTP/1.1" 200 21991
0:0:0:0:0:0:0:1 - - [20/Jan/2018:16:58:38 +0530] "GET /cochlear/admin/dashboard/view.do?txtsearch= HTTP/1.1" 200 21984
0:0:0:0:0:0:0:1 - - [20/Jan/2018:16:59:17 +0530] "GET /cochlear/admin/dashboard/view.do?txtsearch= HTTP/1.1" 200 22010
0:0:0:0:0:0:0:1 - - [20/Jan/2018:17:04:15 +0530] "GET /cochlear/admin/dashboard/view.do?txtsearch= HTTP/1.1" 200 21985
0:0:0:0:0:0:0:1 - - [20/Jan/2018:17:04:47 +0530] "GET /cochlear/admin/dashboard/view.do?txtsearch= HTTP/1.1" 200 22011
0:0:0:0:0:0:0:1 - - [20/Jan/2018:17:04:58 +0530] "GET /cochlear/admin/dashboard/view.do?txtsearch= HTTP/1.1" 200 22011
0:0:0:0:0:0:0:1 - - [20/Jan/2018:17:05:14 +0530] "GET /cochlear/admin/dashboard/view.do?txtsearch= HTTP/1.1" 200 21986
0:0:0:0:0:0:0:1 - - [20/Jan/2018:17:07:48 +0530] "GET /cochlear/admin/dashboard/view.do?txtsearch= HTTP/1.1" 200 21965
0:0:0:0:0:0:0:1 - - [20/Jan/2018:17:20:25 +0530] "GET /cochlear HTTP/1.1" 302 -
0:0:0:0:0:0:0:1 - - [20/Jan/2018:17:20:27 +0530] "GET /cochlear/ HTTP/1.1" 200 2718
0:0:0:0:0:0:0:1 - - [20/Jan/2018:17:20:28 +0530] "POST /cochlear/admin/login/login.do HTTP/1.1" 302 -
0:0:0:0:0:0:0:1 - - [20/Jan/2018:17:20:29 +0530] "GET /cochlear/admin/dashboard/view.do HTTP/1.1" 200 25635
0:0:0:0:0:0:0:1 - - [20/Jan/2018:17:21:40 +0530] "GET /cochlear/admin/dashboard/view.do HTTP/1.1" 200 25635
0:0:0:0:0:0:0:1 - - [20/Jan/2018:17:25:31 +0530] "GET /cochlear/admin/dashboard/view.do HTTP/1.1" 200 26403
0:0:0:0:0:0:0:1 - - [20/Jan/2018:17:26:36 +0530] "GET /cochlear/admin/dashboard/view.do HTTP/1.1" 200 25715
0:0:0:0:0:0:0:1 - - [20/Jan/2018:17:26:49 +0530] "GET /cochlear/admin/dashboard/view.do HTTP/1.1" 200 25635
0:0:0:0:0:0:0:1 - - [20/Jan/2018:17:27:09 +0530] "GET /cochlear/admin/dashboard/view.do HTTP/1.1" 200 25636
0:0:0:0:0:0:0:1 - - [20/Jan/2018:17:27:10 +0530] "GET /cochlear/admin/dashboard/view.do HTTP/1.1" 200 25636
0:0:0:0:0:0:0:1 - - [20/Jan/2018:17:27:11 +0530] "GET /cochlear/admin/dashboard/view.do HTTP/1.1" 200 25636
0:0:0:0:0:0:0:1 - - [20/Jan/2018:17:27:11 +0530] "GET /cochlear/admin/dashboard/view.do HTTP/1.1" 200 25636
0:0:0:0:0:0:0:1 - - [20/Jan/2018:17:27:12 +0530] "GET /cochlear/admin/dashboard/view.do HTTP/1.1" 200 25636
0:0:0:0:0:0:0:1 - - [20/Jan/2018:17:27:40 +0530] "GET /cochlear/admin/dashboard/view.do HTTP/1.1" 200 25636
0:0:0:0:0:0:0:1 - - [20/Jan/2018:17:27:41 +0530] "GET /cochlear/admin/dashboard/view.do HTTP/1.1" 200 25636
0:0:0:0:0:0:0:1 - - [20/Jan/2018:17:27:57 +0530] "GET /cochlear/admin/dashboard/view.do HTTP/1.1" 200 25636
0:0:0:0:0:0:0:1 - - [20/Jan/2018:17:28:05 +0530] "GET /cochlear/admin/dashboard/view.do HTTP/1.1" 200 25637
0:0:0:0:0:0:0:1 - - [20/Jan/2018:17:28:37 +0530] "GET /cochlear/admin/dashboard/view.do HTTP/1.1" 200 25636
0:0:0:0:0:0:0:1 - - [20/Jan/2018:17:28:37 +0530] "GET /cochlear/admin/dashboard/view.do HTTP/1.1" 200 25636
0:0:0:0:0:0:0:1 - - [20/Jan/2018:17:29:39 +0530] "GET /cochlear/admin/dashboard/view.do HTTP/1.1" 200 25690
0:0:0:0:0:0:0:1 - - [20/Jan/2018:17:29:48 +0530] "GET /cochlear/admin/dashboard/view.do HTTP/1.1" 200 25690
0:0:0:0:0:0:0:1 - - [20/Jan/2018:17:30:08 +0530] "GET /cochlear/admin/dashboard/view.do HTTP/1.1" 200 25636
0:0:0:0:0:0:0:1 - - [20/Jan/2018:17:32:07 +0530] "GET /cochlear/admin/dashboard/view.do HTTP/1.1" 200 25636
0:0:0:0:0:0:0:1 - - [20/Jan/2018:17:32:17 +0530] "GET /cochlear/admin/dashboard/view.do HTTP/1.1" 200 25636
0:0:0:0:0:0:0:1 - - [20/Jan/2018:17:38:37 +0530] "GET /cochlear/admin/dashboard/view.do HTTP/1.1" 200 25811
0:0:0:0:0:0:0:1 - - [20/Jan/2018:17:38:49 +0530] "GET /cochlear/admin/dashboard/view.do HTTP/1.1" 200 25840
0:0:0:0:0:0:0:1 - - [20/Jan/2018:17:39:08 +0530] "GET /cochlear/admin/dashboard/view.do HTTP/1.1" 200 25636
0:0:0:0:0:0:0:1 - - [20/Jan/2018:17:41:02 +0530] "GET /cochlear/admin/dashboard/view.do HTTP/1.1" 200 25636
0:0:0:0:0:0:0:1 - - [20/Jan/2018:17:45:51 +0530] "GET /cochlear/admin/dashboard/view.do HTTP/1.1" 200 25636
0:0:0:0:0:0:0:1 - - [20/Jan/2018:17:45:52 +0530] "GET /cochlear/admin/dashboard/view.do HTTP/1.1" 200 25636
0:0:0:0:0:0:0:1 - - [20/Jan/2018:17:58:22 +0530] "GET /cochlear/admin/dashboard/view.do HTTP/1.1" 200 25636
0:0:0:0:0:0:0:1 - - [20/Jan/2018:17:58:24 +0530] "GET /cochlear/admin/dashboard/view.do HTTP/1.1" 200 25636
0:0:0:0:0:0:0:1 - - [20/Jan/2018:17:58:25 +0530] "GET /cochlear/admin/dashboard/view.do HTTP/1.1" 200 25636
