0:0:0:0:0:0:0:1 - - [23/Feb/2018:10:59:06 +0530] "GET /cochlear HTTP/1.1" 302 -
0:0:0:0:0:0:0:1 - - [23/Feb/2018:10:59:09 +0530] "GET /cochlear/ HTTP/1.1" 200 2718
0:0:0:0:0:0:0:1 - - [23/Feb/2018:10:59:10 +0530] "GET /favicon.ico HTTP/1.1" 404 -
0:0:0:0:0:0:0:1 - - [23/Feb/2018:10:59:13 +0530] "POST /cochlear/admin/login/login.do HTTP/1.1" 302 -
0:0:0:0:0:0:0:1 - - [23/Feb/2018:10:59:14 +0530] "GET /cochlear/template/css/main.css HTTP/1.1" 304 -
0:0:0:0:0:0:0:1 - - [23/Feb/2018:10:59:14 +0530] "GET /cochlear/template/css/bootstrap.min.css HTTP/1.1" 304 -
0:0:0:0:0:0:0:1 - - [23/Feb/2018:10:59:14 +0530] "GET /cochlear/admin/dashboard/view.do HTTP/1.1" 200 47505
0:0:0:0:0:0:0:1 - - [23/Feb/2018:10:59:20 +0530] "POST /cochlear/admin/cart/create.do HTTP/1.1" 200 31
0:0:0:0:0:0:0:1 - - [23/Feb/2018:10:59:21 +0530] "POST /cochlear/admin/cart/create.do HTTP/1.1" 200 31
0:0:0:0:0:0:0:1 - - [23/Feb/2018:10:59:24 +0530] "GET /cochlear/admin/cart/list.do HTTP/1.1" 200 17500
0:0:0:0:0:0:0:1 - - [23/Feb/2018:10:59:24 +0530] "GET /cochlear/dwr/util.js HTTP/1.1" 200 48475
0:0:0:0:0:0:0:1 - - [23/Feb/2018:10:59:24 +0530] "GET /cochlear/dwr/engine.js HTTP/1.1" 200 78562
0:0:0:0:0:0:0:1 - - [23/Feb/2018:10:59:24 +0530] "GET /cochlear/dwr/interface/Product.js HTTP/1.1" 200 5658
0:0:0:0:0:0:0:1 - - [23/Feb/2018:10:59:25 +0530] "POST /cochlear/dwr/call/plaincall/__System.pageLoaded.dwr HTTP/1.1" 200 200
0:0:0:0:0:0:0:1 - - [23/Feb/2018:10:59:28 +0530] "GET /cochlear/admin/cart/delete.do?cartid=1 HTTP/1.1" 200 15745
0:0:0:0:0:0:0:1 - - [23/Feb/2018:10:59:29 +0530] "GET /cochlear/dwr/engine.js HTTP/1.1" 304 -
0:0:0:0:0:0:0:1 - - [23/Feb/2018:10:59:29 +0530] "GET /cochlear/dwr/util.js HTTP/1.1" 304 -
0:0:0:0:0:0:0:1 - - [23/Feb/2018:10:59:29 +0530] "GET /cochlear/dwr/interface/Product.js HTTP/1.1" 304 -
0:0:0:0:0:0:0:1 - - [23/Feb/2018:10:59:29 +0530] "POST /cochlear/dwr/call/plaincall/__System.pageLoaded.dwr HTTP/1.1" 200 200
0:0:0:0:0:0:0:1 - - [23/Feb/2018:10:59:31 +0530] "GET /cochlear/admin/order/wishlist.do HTTP/1.1" 200 15575
0:0:0:0:0:0:0:1 - - [23/Feb/2018:10:59:31 +0530] "GET /cochlear/dwr/engine.js HTTP/1.1" 304 -
0:0:0:0:0:0:0:1 - - [23/Feb/2018:10:59:31 +0530] "GET /cochlear/dwr/util.js HTTP/1.1" 304 -
0:0:0:0:0:0:0:1 - - [23/Feb/2018:10:59:31 +0530] "GET /cochlear/dwr/interface/Product.js HTTP/1.1" 304 -
0:0:0:0:0:0:0:1 - - [23/Feb/2018:10:59:31 +0530] "POST /cochlear/dwr/call/plaincall/__System.pageLoaded.dwr HTTP/1.1" 200 200
0:0:0:0:0:0:0:1 - - [23/Feb/2018:10:59:33 +0530] "GET /cochlear/admin/order/wishlist.do?productid=2 HTTP/1.1" 200 14850
0:0:0:0:0:0:0:1 - - [23/Feb/2018:10:59:33 +0530] "GET /cochlear/dwr/engine.js HTTP/1.1" 304 -
0:0:0:0:0:0:0:1 - - [23/Feb/2018:10:59:33 +0530] "GET /cochlear/dwr/util.js HTTP/1.1" 304 -
0:0:0:0:0:0:0:1 - - [23/Feb/2018:10:59:33 +0530] "GET /cochlear/dwr/interface/Product.js HTTP/1.1" 304 -
0:0:0:0:0:0:0:1 - - [23/Feb/2018:10:59:33 +0530] "POST /cochlear/dwr/call/plaincall/__System.pageLoaded.dwr HTTP/1.1" 200 200
0:0:0:0:0:0:0:1 - - [23/Feb/2018:10:59:51 +0530] "GET /cochlear/admin/ticket/add.do HTTP/1.1" 200 16314
0:0:0:0:0:0:0:1 - - [23/Feb/2018:10:59:51 +0530] "GET /cochlear/dwr/engine.js HTTP/1.1" 304 -
0:0:0:0:0:0:0:1 - - [23/Feb/2018:10:59:51 +0530] "GET /cochlear/dwr/util.js HTTP/1.1" 304 -
0:0:0:0:0:0:0:1 - - [23/Feb/2018:10:59:51 +0530] "GET /cochlear/dwr/interface/Product.js HTTP/1.1" 304 -
0:0:0:0:0:0:0:1 - - [23/Feb/2018:10:59:51 +0530] "POST /cochlear/dwr/call/plaincall/__System.pageLoaded.dwr HTTP/1.1" 200 200
0:0:0:0:0:0:0:1 - - [23/Feb/2018:10:59:57 +0530] "POST /cochlear/dwr/call/plaincall/Product.getCategory.dwr HTTP/1.1" 200 679
0:0:0:0:0:0:0:1 - - [23/Feb/2018:10:59:58 +0530] "POST /cochlear/dwr/call/plaincall/Product.getSubCategory.dwr HTTP/1.1" 200 576
0:0:0:0:0:0:0:1 - - [23/Feb/2018:11:00:03 +0530] "GET /cochlear/admin/dashboard/view.do HTTP/1.1" 200 47505
0:0:0:0:0:0:0:1 - - [23/Feb/2018:11:00:09 +0530] "GET /cochlear/admin/productdetails/images/product-details/similar1.jpg HTTP/1.1" 404 2718
0:0:0:0:0:0:0:1 - - [23/Feb/2018:11:00:09 +0530] "GET /cochlear/admin/productdetails/images/product-details/1.jpg HTTP/1.1" 404 2718
0:0:0:0:0:0:0:1 - - [23/Feb/2018:11:00:09 +0530] "GET /cochlear/admin/productdetails/prodetails.do?productid=10 HTTP/1.1" 200 29175
0:0:0:0:0:0:0:1 - - [23/Feb/2018:11:00:09 +0530] "GET /cochlear/admin/productdetails/images/product-details/similar2.jpg HTTP/1.1" 404 2718
0:0:0:0:0:0:0:1 - - [23/Feb/2018:11:00:09 +0530] "GET /cochlear/admin/productdetails/images/product-details/similar3.jpg HTTP/1.1" 404 2718
0:0:0:0:0:0:0:1 - - [23/Feb/2018:11:00:09 +0530] "GET /cochlear/admin/productdetails/images/product-details/new.jpg HTTP/1.1" 404 2718
0:0:0:0:0:0:0:1 - - [23/Feb/2018:11:00:09 +0530] "GET /cochlear/admin/productdetails/images/product-details/rating.png HTTP/1.1" 404 2718
0:0:0:0:0:0:0:1 - - [23/Feb/2018:11:00:09 +0530] "GET /cochlear/admin/productdetails/images/home/gallery1.jpg HTTP/1.1" 404 2718
0:0:0:0:0:0:0:1 - - [23/Feb/2018:11:00:09 +0530] "GET /cochlear/admin/productdetails/images/product-details/share.png HTTP/1.1" 404 2718
0:0:0:0:0:0:0:1 - - [23/Feb/2018:11:00:09 +0530] "GET /cochlear/admin/productdetails/images/home/gallery2.jpg HTTP/1.1" 404 2718
0:0:0:0:0:0:0:1 - - [23/Feb/2018:11:00:09 +0530] "GET /cochlear/admin/productdetails/images/home/gallery3.jpg HTTP/1.1" 404 2718
0:0:0:0:0:0:0:1 - - [23/Feb/2018:11:00:09 +0530] "GET /cochlear/admin/productdetails/images/home/gallery4.jpg HTTP/1.1" 404 2718
0:0:0:0:0:0:0:1 - - [23/Feb/2018:11:00:09 +0530] "GET /cochlear/admin/productdetails/images/home/gallery1.jpg HTTP/1.1" 404 2718
0:0:0:0:0:0:0:1 - - [23/Feb/2018:11:00:09 +0530] "GET /cochlear/admin/productdetails/images/product-details/rating.png HTTP/1.1" 404 2718
0:0:0:0:0:0:0:1 - - [23/Feb/2018:11:36:28 +0530] "GET /cochlear/admin/productdetails/images/product-details/1.jpg HTTP/1.1" 404 2718
0:0:0:0:0:0:0:1 - - [23/Feb/2018:11:36:28 +0530] "GET /cochlear/admin/productdetails/images/product-details/similar1.jpg HTTP/1.1" 404 2718
0:0:0:0:0:0:0:1 - - [23/Feb/2018:11:36:28 +0530] "GET /cochlear/admin/productdetails/images/product-details/similar2.jpg HTTP/1.1" 404 2718
0:0:0:0:0:0:0:1 - - [23/Feb/2018:11:36:28 +0530] "GET /cochlear/admin/productdetails/images/product-details/similar3.jpg HTTP/1.1" 404 2718
0:0:0:0:0:0:0:1 - - [23/Feb/2018:11:36:28 +0530] "GET /cochlear/admin/productdetails/images/product-details/new.jpg HTTP/1.1" 404 2718
0:0:0:0:0:0:0:1 - - [23/Feb/2018:11:36:28 +0530] "GET /cochlear/admin/productdetails/images/product-details/rating.png HTTP/1.1" 404 2718
0:0:0:0:0:0:0:1 - - [23/Feb/2018:11:36:28 +0530] "GET /cochlear/admin/productdetails/images/home/gallery1.jpg HTTP/1.1" 404 2718
0:0:0:0:0:0:0:1 - - [23/Feb/2018:11:36:28 +0530] "GET /cochlear/admin/productdetails/images/product-details/share.png HTTP/1.1" 404 2718
0:0:0:0:0:0:0:1 - - [23/Feb/2018:11:36:28 +0530] "GET /cochlear/admin/productdetails/images/home/gallery2.jpg HTTP/1.1" 404 2718
0:0:0:0:0:0:0:1 - - [23/Feb/2018:11:36:28 +0530] "GET /cochlear/admin/productdetails/images/home/gallery4.jpg HTTP/1.1" 404 2718
0:0:0:0:0:0:0:1 - - [23/Feb/2018:11:36:28 +0530] "GET /cochlear/admin/productdetails/images/home/gallery3.jpg HTTP/1.1" 404 2718
0:0:0:0:0:0:0:1 - - [23/Feb/2018:11:36:28 +0530] "GET /cochlear/admin/productdetails/images/product-details/similar1.jpg HTTP/1.1" 404 2718
0:0:0:0:0:0:0:1 - - [23/Feb/2018:11:36:28 +0530] "GET /cochlear/admin/productdetails/images/product-details/similar2.jpg HTTP/1.1" 404 2718
0:0:0:0:0:0:0:1 - - [23/Feb/2018:11:36:28 +0530] "GET /cochlear/admin/productdetails/images/product-details/similar3.jpg HTTP/1.1" 404 2718
0:0:0:0:0:0:0:1 - - [23/Feb/2018:11:36:28 +0530] "GET /cochlear/admin/productdetails/images/home/gallery1.jpg HTTP/1.1" 404 2718
0:0:0:0:0:0:0:1 - - [23/Feb/2018:11:36:28 +0530] "GET /cochlear/admin/productdetails/images/home/gallery3.jpg HTTP/1.1" 404 2718
0:0:0:0:0:0:0:1 - - [23/Feb/2018:11:36:28 +0530] "GET /cochlear/admin/productdetails/images/home/gallery2.jpg HTTP/1.1" 404 2718
0:0:0:0:0:0:0:1 - - [23/Feb/2018:11:36:28 +0530] "GET /cochlear/admin/productdetails/images/home/gallery4.jpg HTTP/1.1" 404 2718
0:0:0:0:0:0:0:1 - - [23/Feb/2018:11:36:28 +0530] "GET /cochlear/admin/productdetails/images/product-details/rating.png HTTP/1.1" 404 2718
