0:0:0:0:0:0:0:1 - - [08/Jul/2017:12:11:11 +0530] "GET /SocialRadar/admin/login/login.do HTTP/1.1" 200 2930
0:0:0:0:0:0:0:1 - - [08/Jul/2017:12:11:14 +0530] "POST /SocialRadar/admin/login/login.do;jsessionid=5B12BF5DE2308A9D2F22A1238B597221 HTTP/1.1" 302 -
0:0:0:0:0:0:0:1 - - [08/Jul/2017:12:11:14 +0530] "GET /SocialRadar/template/dist/img/user.png HTTP/1.1" 304 -
0:0:0:0:0:0:0:1 - - [08/Jul/2017:12:11:14 +0530] "GET /SocialRadar/admin/dashboard/view.do HTTP/1.1" 200 10397
0:0:0:0:0:0:0:1 - - [08/Jul/2017:12:11:17 +0530] "GET /SocialRadar/admin/twitter/add.do HTTP/1.1" 200 9159
0:0:0:0:0:0:0:1 - - [08/Jul/2017:12:11:27 +0530] "POST /SocialRadar/admin/platform/redirect.do HTTP/1.1" 200 12386
0:0:0:0:0:0:0:1 - - [08/Jul/2017:12:16:50 +0530] "GET /SocialRadar/admin/twitter/create.do HTTP/1.1" 404 2886
0:0:0:0:0:0:0:1 - - [08/Jul/2017:12:16:51 +0530] "GET /favicon.ico HTTP/1.1" 200 21630
0:0:0:0:0:0:0:1 - - [08/Jul/2017:12:16:52 +0530] "POST /SocialRadar/admin/login/login.do HTTP/1.1" 302 -
0:0:0:0:0:0:0:1 - - [08/Jul/2017:12:16:52 +0530] "GET /SocialRadar/admin/dashboard/view.do HTTP/1.1" 200 10397
0:0:0:0:0:0:0:1 - - [08/Jul/2017:12:17:15 +0530] "GET /SocialRadar/admin/twitter/add.do HTTP/1.1" 500 7955
0:0:0:0:0:0:0:1 - - [08/Jul/2017:12:17:43 +0530] "GET /SocialRadar/admin/twitter/add.do HTTP/1.1" 404 2886
0:0:0:0:0:0:0:1 - - [08/Jul/2017:12:17:43 +0530] "GET /favicon.ico HTTP/1.1" 200 21630
0:0:0:0:0:0:0:1 - - [08/Jul/2017:12:17:44 +0530] "POST /SocialRadar/admin/login/login.do HTTP/1.1" 302 -
0:0:0:0:0:0:0:1 - - [08/Jul/2017:12:17:44 +0530] "GET /SocialRadar/admin/dashboard/view.do HTTP/1.1" 200 10397
0:0:0:0:0:0:0:1 - - [08/Jul/2017:12:17:46 +0530] "GET /SocialRadar/admin/twitter/add.do HTTP/1.1" 200 9159
0:0:0:0:0:0:0:1 - - [08/Jul/2017:12:18:21 +0530] "POST /SocialRadar/admin/platform/redirect.do HTTP/1.1" 200 12386
0:0:0:0:0:0:0:1 - - [08/Jul/2017:14:14:49 +0530] "GET /SocialRadar/admin/login/login.do HTTP/1.1" 200 2886
0:0:0:0:0:0:0:1 - - [08/Jul/2017:14:14:52 +0530] "POST /SocialRadar/admin/login/login.do HTTP/1.1" 302 -
0:0:0:0:0:0:0:1 - - [08/Jul/2017:14:14:52 +0530] "GET /SocialRadar/admin/dashboard/view.do HTTP/1.1" 200 10397
0:0:0:0:0:0:0:1 - - [08/Jul/2017:14:15:00 +0530] "GET /SocialRadar/admin/twitter/add.do HTTP/1.1" 200 9159
