0:0:0:0:0:0:0:1 - - [24/Nov/2017:17:19:07 +0530] "GET / HTTP/1.1" 200 11418
0:0:0:0:0:0:0:1 - - [24/Nov/2017:17:19:07 +0530] "GET /tomcat.png HTTP/1.1" 200 5103
0:0:0:0:0:0:0:1 - - [24/Nov/2017:17:19:07 +0530] "GET /tomcat.css HTTP/1.1" 200 5931
0:0:0:0:0:0:0:1 - - [24/Nov/2017:17:19:08 +0530] "GET /bg-nav.png HTTP/1.1" 200 1401
0:0:0:0:0:0:0:1 - - [24/Nov/2017:17:19:08 +0530] "GET /bg-middle.png HTTP/1.1" 200 1918
0:0:0:0:0:0:0:1 - - [24/Nov/2017:17:19:08 +0530] "GET /bg-upper.png HTTP/1.1" 200 3103
0:0:0:0:0:0:0:1 - - [24/Nov/2017:17:19:08 +0530] "GET /bg-button.png HTTP/1.1" 200 713
0:0:0:0:0:0:0:1 - - [24/Nov/2017:17:19:08 +0530] "GET /asf-logo-wide.svg HTTP/1.1" 200 26726
0:0:0:0:0:0:0:1 - - [24/Nov/2017:17:19:08 +0530] "GET /favicon.ico HTTP/1.1" 200 21630
0:0:0:0:0:0:0:1 - - [24/Nov/2017:17:19:19 +0530] "GET /BigIdea HTTP/1.1" 302 -
0:0:0:0:0:0:0:1 - - [24/Nov/2017:17:19:20 +0530] "GET /BigIdea/ HTTP/1.1" 200 1532
0:0:0:0:0:0:0:1 - - [24/Nov/2017:17:19:20 +0530] "GET /BigIdea/images/progress111.gif HTTP/1.1" 200 193623
0:0:0:0:0:0:0:1 - - [24/Nov/2017:17:19:20 +0530] "GET /BigIdea/Scripts/client.min.js HTTP/1.1" 200 46944
0:0:0:0:0:0:0:1 - - [24/Nov/2017:17:19:27 +0530] "POST /BigIdea/admin/login/login.do;jsessionid=EBB66C046A873317D7F72009A0F8CD55 HTTP/1.1" 302 -
0:0:0:0:0:0:0:1 - - [24/Nov/2017:17:19:28 +0530] "GET /BigIdea/template/style.css HTTP/1.1" 200 112894
0:0:0:0:0:0:0:1 - - [24/Nov/2017:17:19:28 +0530] "GET /BigIdea/template/css/skins/skins.css HTTP/1.1" 200 4411
0:0:0:0:0:0:0:1 - - [24/Nov/2017:17:19:28 +0530] "GET /BigIdea/template/css/responsive.css HTTP/1.1" 200 30658
0:0:0:0:0:0:0:1 - - [24/Nov/2017:17:19:29 +0530] "GET /BigIdea/dwr/util.js HTTP/1.1" 200 48475
0:0:0:0:0:0:0:1 - - [24/Nov/2017:17:19:29 +0530] "GET /BigIdea/dwr/interface/comment.js HTTP/1.1" 200 968
0:0:0:0:0:0:0:1 - - [24/Nov/2017:17:19:29 +0530] "GET /BigIdea/template/arun/images/logo4.jpg HTTP/1.1" 200 44379
0:0:0:0:0:0:0:1 - - [24/Nov/2017:17:19:29 +0530] "GET /BigIdea/dwr/engine.js HTTP/1.1" 200 78561
0:0:0:0:0:0:0:1 - - [24/Nov/2017:17:19:29 +0530] "GET /BigIdea/template/css/base.css HTTP/1.1" 200 13691
0:0:0:0:0:0:0:1 - - [24/Nov/2017:17:19:29 +0530] "GET /BigIdea/template/css/bootstrap.min.css HTTP/1.1" 200 25016
0:0:0:0:0:0:0:1 - - [24/Nov/2017:17:19:29 +0530] "GET /BigIdea/template/css/font-awesome/css/font-awesome.min.css HTTP/1.1" 200 19482
0:0:0:0:0:0:0:1 - - [24/Nov/2017:17:19:29 +0530] "GET /BigIdea/template/css/fontello/css/fontello.css HTTP/1.1" 200 7132
0:0:0:0:0:0:0:1 - - [24/Nov/2017:17:19:29 +0530] "POST /BigIdea/dwr/call/plaincall/__System.pageLoaded.dwr HTTP/1.1" 200 200
0:0:0:0:0:0:0:1 - - [24/Nov/2017:17:19:29 +0530] "GET /BigIdea/template/css/prettyPhoto.css HTTP/1.1" 200 19888
0:0:0:0:0:0:0:1 - - [24/Nov/2017:17:19:29 +0530] "GET /BigIdea/template/css/lists.css HTTP/1.1" 200 41900
0:0:0:0:0:0:0:1 - - [24/Nov/2017:17:19:29 +0530] "GET /BigIdea/admin/dashboard/view.do HTTP/1.1" 200 29704
0:0:0:0:0:0:0:1 - - [24/Nov/2017:17:19:29 +0530] "GET /BigIdea/template/js/jquery.min.js HTTP/1.1" 200 93057
0:0:0:0:0:0:0:1 - - [24/Nov/2017:17:19:29 +0530] "GET /BigIdea/template/js/jquery-ui-1.10.3.custom.min.js HTTP/1.1" 200 37489
0:0:0:0:0:0:0:1 - - [24/Nov/2017:17:19:29 +0530] "GET /BigIdea/template/js/jquery.easing.1.3.min.js HTTP/1.1" 200 7112
0:0:0:0:0:0:0:1 - - [24/Nov/2017:17:19:29 +0530] "GET /BigIdea/template/js/html5.js HTTP/1.1" 200 2394
0:0:0:0:0:0:0:1 - - [24/Nov/2017:17:19:29 +0530] "GET /BigIdea/template/js/jflickrfeed.min.js HTTP/1.1" 200 1286
0:0:0:0:0:0:0:1 - - [24/Nov/2017:17:19:29 +0530] "GET /BigIdea/template/js/jquery.flexslider.js HTTP/1.1" 200 16994
0:0:0:0:0:0:0:1 - - [24/Nov/2017:17:19:29 +0530] "GET /BigIdea/template/js/jquery.inview.min.js HTTP/1.1" 200 1264
0:0:0:0:0:0:0:1 - - [24/Nov/2017:17:19:29 +0530] "GET /BigIdea/template/js/tabs.js HTTP/1.1" 200 3151
0:0:0:0:0:0:0:1 - - [24/Nov/2017:17:19:29 +0530] "GET /BigIdea/template/js/jquery.nav.js HTTP/1.1" 200 2937
0:0:0:0:0:0:0:1 - - [24/Nov/2017:17:19:29 +0530] "GET /BigIdea/template/js/jquery.prettyPhoto.js HTTP/1.1" 200 22060
0:0:0:0:0:0:0:1 - - [24/Nov/2017:17:19:29 +0530] "GET /BigIdea/template/js/jquery.scrollTo.js HTTP/1.1" 200 2427
0:0:0:0:0:0:0:1 - - [24/Nov/2017:17:19:29 +0530] "GET /BigIdea/template/js/jquery.tipsy.js HTTP/1.1" 200 9787
0:0:0:0:0:0:0:1 - - [24/Nov/2017:17:19:29 +0530] "GET /BigIdea/template/js/tags.js HTTP/1.1" 200 4971
0:0:0:0:0:0:0:1 - - [24/Nov/2017:17:19:29 +0530] "GET /BigIdea/template/js/jquery.bxslider.min.js HTTP/1.1" 200 19115
0:0:0:0:0:0:0:1 - - [24/Nov/2017:17:19:29 +0530] "GET /BigIdea/template/js/jquery.carouFredSel-6.2.1-packed.js HTTP/1.1" 200 54780
0:0:0:0:0:0:0:1 - - [24/Nov/2017:17:19:29 +0530] "GET /BigIdea/template/js/custom.js HTTP/1.1" 200 40663
0:0:0:0:0:0:0:1 - - [24/Nov/2017:17:19:29 +0530] "GET /BigIdea/template/css/font-awesome/font/fontawesome-webfonte63c.woff?v=3.1.0 HTTP/1.1" 200 34420
0:0:0:0:0:0:0:1 - - [24/Nov/2017:17:19:30 +0530] "GET /BigIdea/template/images/favicon.png HTTP/1.1" 200 17970
0:0:0:0:0:0:0:1 - - [24/Nov/2017:17:19:45 +0530] "GET /BigIdea/dwr/interface/comment.js HTTP/1.1" 304 -
0:0:0:0:0:0:0:1 - - [24/Nov/2017:17:19:45 +0530] "GET /BigIdea/dwr/util.js HTTP/1.1" 304 -
0:0:0:0:0:0:0:1 - - [24/Nov/2017:17:19:45 +0530] "GET /BigIdea/dwr/engine.js HTTP/1.1" 304 -
0:0:0:0:0:0:0:1 - - [24/Nov/2017:17:19:45 +0530] "POST /BigIdea/dwr/call/plaincall/__System.pageLoaded.dwr HTTP/1.1" 200 200
0:0:0:0:0:0:0:1 - - [24/Nov/2017:17:19:46 +0530] "GET /BigIdea/admin/post/singlePost.do?id=2 HTTP/1.1" 200 28731
0:0:0:0:0:0:0:1 - - [24/Nov/2017:17:19:46 +0530] "GET /post/attachment/Image/PostAttachment1511508475634.jpg HTTP/1.1" 404 1057
0:0:0:0:0:0:0:1 - - [24/Nov/2017:17:19:46 +0530] "GET /BigIdea/template/arun/images/demo/avatar.png HTTP/1.1" 200 4654
0:0:0:0:0:0:0:1 - - [24/Nov/2017:17:19:53 +0530] "POST /BigIdea/dwr/call/plaincall/__System.pageLoaded.dwr HTTP/1.1" 200 200
0:0:0:0:0:0:0:1 - - [24/Nov/2017:17:19:55 +0530] "GET /BigIdea/admin/dashboard/view.do HTTP/1.1" 200 29704
0:0:0:0:0:0:0:1 - - [24/Nov/2017:17:19:56 +0530] "GET /BigIdea/dwr/interface/comment.js HTTP/1.1" 304 -
0:0:0:0:0:0:0:1 - - [24/Nov/2017:17:19:56 +0530] "GET /BigIdea/dwr/engine.js HTTP/1.1" 304 -
0:0:0:0:0:0:0:1 - - [24/Nov/2017:17:19:56 +0530] "GET /BigIdea/dwr/util.js HTTP/1.1" 304 -
0:0:0:0:0:0:0:1 - - [24/Nov/2017:17:19:56 +0530] "POST /BigIdea/dwr/call/plaincall/__System.pageLoaded.dwr HTTP/1.1" 200 200
0:0:0:0:0:0:0:1 - - [24/Nov/2017:17:20:01 +0530] "GET /BigIdea/dwr/engine.js HTTP/1.1" 304 -
0:0:0:0:0:0:0:1 - - [24/Nov/2017:17:20:01 +0530] "GET /BigIdea/dwr/util.js HTTP/1.1" 304 -
0:0:0:0:0:0:0:1 - - [24/Nov/2017:17:20:01 +0530] "GET /BigIdea/dwr/interface/comment.js HTTP/1.1" 304 -
0:0:0:0:0:0:0:1 - - [24/Nov/2017:17:20:01 +0530] "POST /BigIdea/dwr/call/plaincall/__System.pageLoaded.dwr HTTP/1.1" 200 200
0:0:0:0:0:0:0:1 - - [24/Nov/2017:17:20:01 +0530] "GET /BigIdea/admin/post/viewPosts.do?type=recent HTTP/1.1" 200 8368
0:0:0:0:0:0:0:1 - - [24/Nov/2017:17:20:05 +0530] "GET /BigIdea/dwr/interface/comment.js HTTP/1.1" 304 -
0:0:0:0:0:0:0:1 - - [24/Nov/2017:17:20:05 +0530] "GET /BigIdea/dwr/engine.js HTTP/1.1" 304 -
0:0:0:0:0:0:0:1 - - [24/Nov/2017:17:20:05 +0530] "GET /BigIdea/dwr/util.js HTTP/1.1" 304 -
0:0:0:0:0:0:0:1 - - [24/Nov/2017:17:20:05 +0530] "GET /BigIdea/admin/post/viewPosts.do?type=popular HTTP/1.1" 200 8368
0:0:0:0:0:0:0:1 - - [24/Nov/2017:17:20:05 +0530] "POST /BigIdea/dwr/call/plaincall/__System.pageLoaded.dwr HTTP/1.1" 200 200
0:0:0:0:0:0:0:1 - - [24/Nov/2017:17:20:07 +0530] "POST /BigIdea/dwr/call/plaincall/__System.pageLoaded.dwr HTTP/1.1" 200 200
0:0:0:0:0:0:0:1 - - [24/Nov/2017:17:20:07 +0530] "GET /BigIdea/admin/post/viewPosts.do?type=trending HTTP/1.1" 200 8368
0:0:0:0:0:0:0:1 - - [24/Nov/2017:17:20:08 +0530] "POST /BigIdea/dwr/call/plaincall/__System.pageLoaded.dwr HTTP/1.1" 200 200
0:0:0:0:0:0:0:1 - - [24/Nov/2017:17:20:08 +0530] "GET /BigIdea/admin/tag/view.do HTTP/1.1" 200 69754
0:0:0:0:0:0:0:1 - - [24/Nov/2017:17:20:21 +0530] "GET /BigIdea/dwr/engine.js HTTP/1.1" 304 -
0:0:0:0:0:0:0:1 - - [24/Nov/2017:17:20:21 +0530] "GET /BigIdea/dwr/interface/comment.js HTTP/1.1" 304 -
0:0:0:0:0:0:0:1 - - [24/Nov/2017:17:20:21 +0530] "GET /BigIdea/dwr/util.js HTTP/1.1" 304 -
0:0:0:0:0:0:0:1 - - [24/Nov/2017:17:20:21 +0530] "POST /BigIdea/dwr/call/plaincall/__System.pageLoaded.dwr HTTP/1.1" 200 200
0:0:0:0:0:0:0:1 - - [24/Nov/2017:17:20:21 +0530] "GET /BigIdea/admin/dashboard/viewBlogs.do HTTP/1.1" 200 15816
0:0:0:0:0:0:0:1 - - [24/Nov/2017:17:20:21 +0530] "GET /BigIdea/template/arun/images/blog/img4.jpg HTTP/1.1" 200 110382
0:0:0:0:0:0:0:1 - - [24/Nov/2017:17:20:21 +0530] "GET /BigIdea/template/arun/images/blog/img5.jpg HTTP/1.1" 200 18393
0:0:0:0:0:0:0:1 - - [24/Nov/2017:17:20:21 +0530] "GET /BigIdea/template/arun/images/blog/img3.jpg HTTP/1.1" 200 86868
0:0:0:0:0:0:0:1 - - [24/Nov/2017:17:20:21 +0530] "GET /BigIdea/template/arun/images/blog/img6.jpg HTTP/1.1" 200 862551
0:0:0:0:0:0:0:1 - - [24/Nov/2017:17:20:21 +0530] "GET /BigIdea/template/arun/images/blog/img7.jpg HTTP/1.1" 200 291591
0:0:0:0:0:0:0:1 - - [24/Nov/2017:17:20:21 +0530] "GET /BigIdea/template/arun/images/blog/img1.jpg HTTP/1.1" 200 1522757
0:0:0:0:0:0:0:1 - - [24/Nov/2017:17:20:57 +0530] "GET /BigIdea/dwr/interface/comment.js HTTP/1.1" 304 -
0:0:0:0:0:0:0:1 - - [24/Nov/2017:17:20:57 +0530] "GET /BigIdea/dwr/util.js HTTP/1.1" 304 -
0:0:0:0:0:0:0:1 - - [24/Nov/2017:17:20:57 +0530] "GET /BigIdea/dwr/engine.js HTTP/1.1" 304 -
0:0:0:0:0:0:0:1 - - [24/Nov/2017:17:20:57 +0530] "POST /BigIdea/dwr/call/plaincall/__System.pageLoaded.dwr HTTP/1.1" 200 200
0:0:0:0:0:0:0:1 - - [24/Nov/2017:17:20:57 +0530] "GET /BigIdea/admin/dashboard/aboutUs.do HTTP/1.1" 200 16348
0:0:0:0:0:0:0:1 - - [24/Nov/2017:17:21:13 +0530] "GET /BigIdea/admin/dashboard/discussion.do HTTP/1.1" 404 1488
0:0:0:0:0:0:0:1 - - [24/Nov/2017:17:21:14 +0530] "POST /BigIdea/admin/login/login.do HTTP/1.1" 302 -
0:0:0:0:0:0:0:1 - - [24/Nov/2017:17:21:14 +0530] "GET /BigIdea/admin/dashboard/view.do HTTP/1.1" 200 29704
0:0:0:0:0:0:0:1 - - [24/Nov/2017:17:21:14 +0530] "GET /BigIdea/dwr/interface/comment.js HTTP/1.1" 304 -
0:0:0:0:0:0:0:1 - - [24/Nov/2017:17:21:14 +0530] "GET /BigIdea/dwr/engine.js HTTP/1.1" 304 -
0:0:0:0:0:0:0:1 - - [24/Nov/2017:17:21:14 +0530] "GET /BigIdea/dwr/util.js HTTP/1.1" 304 -
0:0:0:0:0:0:0:1 - - [24/Nov/2017:17:21:14 +0530] "POST /BigIdea/dwr/call/plaincall/__System.pageLoaded.dwr HTTP/1.1" 200 200
0:0:0:0:0:0:0:1 - - [24/Nov/2017:17:21:47 +0530] "POST /BigIdea/admin/login/login.do HTTP/1.1" 200 406
0:0:0:0:0:0:0:1 - - [24/Nov/2017:17:21:47 +0530] "GET /BigIdea/admin/dashboard/view.do HTTP/1.1" 200 29722
0:0:0:0:0:0:0:1 - - [24/Nov/2017:17:21:47 +0530] "GET /BigIdea/dwr/interface/comment.js HTTP/1.1" 304 -
0:0:0:0:0:0:0:1 - - [24/Nov/2017:17:21:47 +0530] "GET /BigIdea/dwr/engine.js HTTP/1.1" 304 -
0:0:0:0:0:0:0:1 - - [24/Nov/2017:17:21:47 +0530] "GET /BigIdea/dwr/util.js HTTP/1.1" 304 -
0:0:0:0:0:0:0:1 - - [24/Nov/2017:17:21:47 +0530] "POST /BigIdea/dwr/call/plaincall/__System.pageLoaded.dwr HTTP/1.1" 200 200
